55,134,164,137,7028,1241,39220
99,120,202,76,5760,969,36987
75,220,83,141,4950,768,7591
51,73,129,102,4908,406,36499
12,56,88,19,3764,646,16336
27,232,44,35,2894,652,600017
79,253,160,80,4584,681,22302
85,140,161,82,4035,743,10412
79,119,148,119,4574,843,8655
97,122,142,120,3837,678,16790
39,226,138,115,4426,695,600058
69,232,102,103,4321,675,20240
50,244,102,101,3740,695,3771
52,209,156,88,3587,577,2408
52,98,111,117,3542,613,9858
60,92,144,233,3934,654,48875
53,200,125,78,4124,708,125769
68,104,132,106,3310,671,86786
55,188,102,156,3373,378,2121
33,90,124,123,3066,661,17297
56,212,107,128,3598,553,180022
73,266,109,122,4049,651,9833
68,101,143,98,4349,742,73959
81,98,139,74,3517,679,49263
54,202,122,79,3535,675,1727
47,101,155,87,3448,659,600070
106,267,116,98,3974,695,8380
78,202,127,115,3528,646,58590
48,110,113,46,3299,629,11717
48,114,107,75,3580,614,77630
