4220,30665,7058,9759,241141,69183,600298
2913,16778,3817,8848,332804,59946,600958
3045,24263,4086,16722,331293,55587,600419
2747,17004,3799,7720,319448,53862,600500
2326,22408,3497,15443,309771,52740,600216
2510,14843,3173,14755,292654,46772,600116
2485,13925,3391,7873,282359,47252,600305
478,10075,3246,9878,245929,28915,600410
2067,15077,3199,8198,302318,47107,600156
2041,11408,2715,7478,294073,45903,600673
1815,19051,2810,7817,281446,42615,600379
2012,12845,2306,19293,278235,43896,600325
2035,13064,2746,6453,237421,40780,600071
900,8921,1357,5924,146089,20519,600195
883,5641,1354,5224,143409,19862,600287
803,2378,1344,4677,140425,20893,600076
980,4681,1202,2877,140815,19087,600122
733,8735,1315,1918,136351,19991,600367
803,9472,2227,4581,250607,19928,600307
980,8901,1204,6069,135536,19454,600158
1014,5904,1313,2895,139223,20241,600367
964,5882,1251,5342,135528,21055,600223
990,8152,1354,2621,138483,20976,600718
2675,15656,2464,8796,309814,44413,600263
1630,8411,2532,5535,183281,32182,600136
850,3868,2052,3382,193600,22503,600521
1050,11156,2039,5017,251340,37002,600507
1413,4205,2018,9883,209867,36431,600273
1739,8847,2230,19037,219753,34246,600173
1068,7001,783,3792,193973,10489,600170
