1161,4295,1501,1303,67568,4241,600151
718,1501,1170,1545,55324,2605,600039
610,2484,921,1223,49399,2027,600147
739,2291,1008,1138,50070,2170,600075
606,2552,834,1225,47331,2005,600204
628,3457,820,1173,44832,1889,600314
579,2280,781,1063,43486,1923,600107
498,1176,757,1122,40731,1782,600067
519,2297,727,1181,41500,1810,600286
546,2119,662,1095,40598,1763,600117
524,3117,651,1070,38937,1660,600276
510,987,714,1126,38018,1679,600180
494,2191,641,2074,37840,1643,600234
487,1243,687,1094,37077,1843,600071
441,1008,620,1075,36678,1572,600176
507,1962,659,1050,35777,1770,600240
461,2069,606,976,36339,1639,600057
518,1923,738,1143,37581,1740,600269
504,1960,686,963,36857,1768,600247
441,1802,644,1988,37445,1620,600208
409,1778,653,966,35811,1555,600132
471,927,532,912,35514,1527,600084
408,1763,567,828,36125,1599,600080
399,1735,718,982,36564,1578,600164
365,880,461,842,35891,1536,600216
369,888,458,883,35861,1489,600263
350,1887,552,901,35846,1492,600193
377,2015,552,874,35806,1590,600227
389,1968,644,973,37779,1538,600207
356,843,556,757,31692,1344,600079
