715,3535,792,2360,65169,10661,600043
579,2878,830,1460,49883,7029,600331
642,1194,838,1190,48174,6044,600281
485,2392,628,1336,46920,6201,600161
504,3171,706,1183,44008,5864,600251
398,3971,627,1036,42919,5385,600046
435,1912,574,927,41013,5353,600086
386,2734,521,905,38888,5010,600060
369,1688,488,1731,38274,5232,600060
313,1461,477,770,36963,4783,600151
323,814,530,857,35133,5078,600174
286,2169,444,737,35931,5134,600139
305,2574,486,1627,36953,4901,600111
357,748,499,674,35375,5091,600160
334,2479,457,713,35273,4647,600171
322,2541,465,695,33626,5045,600044
416,1381,541,713,34957,5145,600135
327,848,500,722,34797,4912,600062
331,1471,485,1434,36076,5213,600046
321,1586,491,716,34669,4587,600063
336,1586,492,2257,34378,4548,600038
341,1622,532,1449,33608,4325,600117
316,850,527,1425,33067,4432,600199
328,2150,508,804,33577,4527,600162
303,1462,460,722,34848,4150,600072
354,743,502,862,34262,4192,600220
368,1666,585,866,33691,4346,600132
287,1510,457,755,34123,4106,600186
358,771,563,1560,34697,4711,600101
318,2109,475,699,30236,3854,600032
