MaxProd,Local Search,ArgmaxProd,Local Search Argmax,BS,KBT,MaxSearch
0.00000000000000002045428265176001,0.000000000000000045791068460561645,0.0000000000000011884072095940625,0.0000000000000011884072095940625,0.0000000000000011884072095940625,0.00000000000000002045428265176001,0.00000000000000002045428265176001
0.0000000000000010380758964086435,0.0000000000000010380758964086435,0.0000000000000036424821208071534,0.0000000000000036424821208071534,0.0000000000000036424821208071534,0.0000000000000010380758964086435,0.0000000000000010380758964086435
0.00000000000000001942302646946901,0.00000000000000001942302646946901,0.0000000000000008289207338532037,0.0000000000000008304808175030261,0.0000000000000007909536248738327,0.00000000000000001942302646946901,0.00000000000000001942302646946901
0.000000000000000007738432142933134,0.000000000000000007738432142933134,0.00000000000000014260626662962163,0.00000000000000014260626662962163,0.00000000000000014260626662962163,0.000000000000000007738432142933134,0.000000000000000007738432142933134
0.0000000000000008951940899247286,0.0000000000000008951940899247286,0.000000000000041317782652496746,0.000000000000041317782652496746,0.000000000000041317782652496746,0.0000000000000008951940899247286,0.0000000000000008951940899247286
0.000000000000009364375423562611,0.000000000000009364375423562611,0.00000000000006407307935500349,0.00000000000006407307935500349,0.000000000000016986654056957592,0.000000000000009364375423562611,0.000000000000009364375423562611
0.000000000000006069766889884675,0.000000000000006069766889884675,0.000000000000006069766889884675,0.000000000000006069766889884675,0.0000000000000006859302619478173,0.000000000000006069766889884675,0.000000000000006069766889884675
0.0000000000000000008498063981449957,0.0000000000000000008498063981449957,0.00000000000000002414088059825161,0.00000000000000002414088059825161,0.00000000000000002414088059825161,0.0000000000000000008498063981449957,0.0000000000000000008498063981449957
0.000000000000028780745288353005,0.00000000000009350237135360125,0.00000000000008575459876843629,0.00000000000009350237135360125,0.00000000000009350237135360125,0.000000000000028780745288353005,0.000000000000028780745288353005
0.000000000000009398413157359536,0.000000000000009398413157359536,0.000000000000032995400306089675,0.000000000000032995400306089675,0.000000000000011427181134960434,0.000000000000009398413157359536,0.000000000000009398413157359536
0.000000000000003645671922053069,0.000000000000003645671922053069,0.000000000000003645671922053069,0.000000000000003645671922053069,0.0000000000000004371132359707081,0.000000000000003645671922053069,0.000000000000003645671922053069
0.0000000000000009430765373535795,0.0000000000000013157434947462701,0.0000000000000040782648047122,0.0000000000000040782648047122,0.0000000000000040782648047122,0.0000000000000009430765373535795,0.0000000000000009430765373535795
0.0000000000001289791221703305,0.0000000000001443752961588664,0.0000000000001443752961588664,0.0000000000001443752961588664,0.0000000000001443752961588664,0.0000000000001289791221703305,0.0000000000001289791221703305
0.00000000000000007004380242575079,0.0000000000000014425529624247482,0.00000000000000321495092468074,0.00000000000000321495092468074,0.00000000000000321495092468074,0.00000000000000007004380242575079,0.00000000000000007004380242575079
0.0000000000000002904209773943583,0.0000000000000002904209773943583,0.0000000000000002904209773943583,0.0000000000000002904209773943583,0.00000000000000002211535557510574,0.0000000000000002904209773943583,0.0000000000000002904209773943583
0.000000000000000049111471823772986,0.0000000000000006893457787235698,0.0000000000000006893457787235698,0.0000000000000006893457787235698,0.0000000000000005791141390363061,0.000000000000000049111471823772986,0.000000000000000049111471823772986
0.0000000000000002534044768908888,0.00000000000000418561853171344,0.00000000000000418561853171344,0.00000000000000418561853171344,0.00000000000000418561853171344,0.0000000000000002534044768908888,0.0000000000000002534044768908888
0.000000000000010036555007148837,0.000000000000010036555007148837,0.000000000000010562963755613125,0.000000000000012235137006185263,0.000000000000012235137006185263,0.000000000000010036555007148837,0.000000000000010036555007148837
0.0000000000000020172484873565954,0.0000000000000020172484873565954,0.0000000000000038205569715246374,0.0000000000000038205569715246374,0.0000000000000038205569715246374,0.0000000000000020172484873565954,0.0000000000000020172484873565954
0.00000000000013509709800888515,0.00000000000013509709800888515,0.00000000000013509709800888515,0.00000000000013509709800888515,0.00000000000004037124630033737,0.00000000000013509709800888515,0.00000000000013509709800888515
0.000000000000000015068482927966664,0.000000000000000015068482927966664,0.00000000000000035181830912298697,0.00000000000000035181830912298697,0.00000000000000035181830912298697,0.000000000000000015068482927966664,0.000000000000000015068482927966664
0.0000000000000005552311644638145,0.0000000000000005552311644638145,0.00000000000000134755131198517,0.00000000000000134755131198517,0.00000000000000134755131198517,0.0000000000000005552311644638145,0.0000000000000005552311644638145
0.00000000000002034333863904982,0.00000000000006011394352114697,0.00000000000006011394352114697,0.00000000000006011394352114697,0.00000000000006011394352114697,0.00000000000002034333863904982,0.00000000000002034333863904982
0.00000000000000010700516943887898,0.00000000000000010700516943887898,0.00000000000000010700516943887898,0.00000000000000010700516943887898,0.00000000000000005764881539301783,0.00000000000000010700516943887898,0.00000000000000010700516943887898
0.000000000000010056238419002986,0.000000000000010056238419002986,0.0000000000006054939950588451,0.0000000000006054939950588451,0.0000000000006054939950588451,0.000000000000010056238419002986,0.000000000000010056238419002986
0.000000000000000031140396357017686,0.000000000000000031140396357017686,0.00000000000000006457690903126458,0.00000000000000006457690903126458,0.00000000000000006457690903126458,0.000000000000000031140396357017686,0.000000000000000031140396357017686
0.000000000000001979415234330738,0.000000000000001979415234330738,0.000000000000004810446763634551,0.000000000000004810446763634551,0.000000000000004810446763634551,0.000000000000001979415234330738,0.000000000000001979415234330738
0.000000000000000004768695493838413,0.000000000000000004768695493838413,0.0000000000000016118831479792368,0.0000000000000016118831479792368,0.0000000000000016118831479792368,0.000000000000000004768695493838413,0.000000000000000004768695493838413
0.00000000000000020559291194590678,0.0000000000000003844602013033707,0.0000000000000017780747440820334,0.0000000000000017780747440820334,0.0000000000000006743708258556115,0.00000000000000020559291194590678,0.00000000000000020559291194590678
0.000000000000000016731842192855078,0.000000000000000016731842192855078,0.0000000000000005570654804920338,0.0000000000000005570654804920338,0.0000000000000005570654804920338,0.000000000000000016731842192855078,0.000000000000000016731842192855078
