MaxProd,Local Search,ArgmaxProd,Local Search Argmax,BS,KBT,MaxSearch
0.0000000000000000000000000000000000000000000000000000000000000000000000000000000000000000000004685742893882187,0.0000000000000000000000000000000000000000000000000000000000000000000000000000000000000000000005970345465146185,0.0000000000000000000000000000000000000000000000000000000000000000000000000000000000000000000041727938564718166,0.0000000000000000000000000000000000000000000000000000000000000000000000000000000000000000000041727938564718166,0.000000000000000000000000000000000000000000000000000000000000000000000000000000000000000000004172793976285295,0.0000000000000000000000000000000000000000000000000000000000000000000000000000000000000000000004685742893882187,0.0000000000000000000000000000000000000000000000000000000000000000000000000000000000000000000004685742893882187
0.00000000000000000000000000000000000000000000000000000000000000000000000000000000000015160929524525676,0.00000000000000000000000000000000000000000000000000000000000000000000000000000000000017775014996097503,0.00000000000000000000000000000000000000000000000000000000000000000000000000000000000017775014996097503,0.00000000000000000000000000000000000000000000000000000000000000000000000000000000000017775014996097503,0.000000000000000000000000000000000000000000000000000000000000000000000000000000000000000000008816293026390417,0.000000000000000000000000000000000000000000000000000000000000000000000000000000000000177354269901258,0.00000000000000000000000000000000000000000000000000000000000000000000000000000000000015160929524525676
0.00000000000000000000000000000000000000000000000000000000000000000000000000000000000000553164838408551,0.000000000000000000000000000000000000000000000000000000000000000000000000000000000000005543995813146186,0.000000000000000000000000000000000000000000000000000000000000000000000000000000000000005543995813146186,0.000000000000000000000000000000000000000000000000000000000000000000000000000000000000005543995813146186,0.0000000000000000000000000000000000000000000000000000000000000000000000000000000000000000005212142965906459,0.00000000000000000000000000000000000000000000000000000000000000000000000000000000000000553164838408551,0.00000000000000000000000000000000000000000000000000000000000000000000000000000000000000553164838408551
0.00000000000000000000000000000000000000000000000000000000000000000000000000000000000000000000000000000000010760990024306823,0.00000000000000000000000000000000000000000000000000000000000000000000000000000000000000000000000000034838012853075816,0.00000000000000000000000000000000000000000000000000000000000000000000000000000000000000000000000000034838012694989053,0.00000000000000000000000000000000000000000000000000000000000000000000000000000000000000000000000000034838012852697784,0.000000000000000000000000000000000000000000000000000000000000000000000000000000000000000000000000000348380128546763,0.00000000000000000000000000000000000000000000000000000000000000000000000000000000000000000000000000000000010760990024306823,0.00000000000000000000000000000000000000000000000000000000000000000000000000000000000000000000000000000000010760990024306823
0.0000000000000000000000000000000000000000000000000000000000000000000000000000000000000000000000000000000000008317178163712,0.0000000000000000000000000000000000000000000000000000000000000000000000000000000000000000000000000000000000014250223511006803,0.0000000000000000000000000000000000000000000000000000000000000000000000000000000000000000000000000000000000014250223511006803,0.0000000000000000000000000000000000000000000000000000000000000000000000000000000000000000000000000000000000014250223511006803,0.0000000000000000000000000000000000000000000000000000000000000000000000000000000000000000000000000000000000010388609704589564,0.0000000000000000000000000000000000000000000000000000000000000000000000000000000000000000000000000000000000008317178163712,0.0000000000000000000000000000000000000000000000000000000000000000000000000000000000000000000000000000000000008317178163712
0.000000000000000000000000000000000000000000000000000000000000000000000000000000000000009376052037411359,0.000000000000000000000000000000000000000000000000000000000000000000000000000000000000009815134632886179,0.000000000000000000000000000000000000000000000000000000000000000000000000000000000000009815134632886179,0.000000000000000000000000000000000000000000000000000000000000000000000000000000000000009815134632886179,0.000000000000000000000000000000000000000000000000000000000000000000000000000000000000009815134632886179,0.000000000000000000000000000000000000000000000000000000000000000000000000000000000000008764552880096208,0.000000000000000000000000000000000000000000000000000000000000000000000000000000000000009376052037411359
0.0000000000000000000000000000000000000000000000000000000000000000000000000000000000000000000000006064373092076785,0.0000000000000000000000000000000000000000000000000000000000000000000000000000000000000000000000006064373092076785,0.000000000000000000000000000000000000000000000000000000000000000000000000000000000000000000016491976397469655,0.000000000000000000000000000000000000000000000000000000000000000000000000000000000000000000016491976397469655,0.0000000000000000000000000000000000000000000000000000000000000000000000000000000000000000000000006659387769027624,0.0000000000000000000000000000000000000000000000000000000000000000000000000000000000000000000000006064373092076785,0.0000000000000000000000000000000000000000000000000000000000000000000000000000000000000000000000006064373092076785
0.000000000000000000000000000000000000000000000000000000000000000000000000000000000000003768191012956849,0.0000000000000000000000000000000000000000000000000000000000000000000000000000000000000039289654456508323,0.0000000000000000000000000000000000000000000000000000000000000000000000000000000000000039289654456508323,0.0000000000000000000000000000000000000000000000000000000000000000000000000000000000000039289654456508323,0.000000000000000000000000000000000000000000000000000000000000000000000000000000000000000012022031265777047,0.000000000000000000000000000000000000000000000000000000000000000000000000000000000000003768191012956849,0.000000000000000000000000000000000000000000000000000000000000000000000000000000000000003768191012956849
0.00000000000000000000000000000000000000000000000000000000000000000000000000000000000000000000017853438232489813,0.00000000000000000000000000000000000000000000000000000000000000000000000000000000000000000000020007427325236566,0.0000000000000000000000000000000000000000000000000000000000000000000000000000000000000000000009206143369431612,0.0000000000000000000000000000000000000000000000000000000000000000000000000000000000000000000009206143369431612,0.0000000000000000000000000000000000000000000000000000000000000000000000000000000000000000000000000019473532456496847,0.00000000000000000000000000000000000000000000000000000000000000000000000000000000000000000000017853438232489813,0.00000000000000000000000000000000000000000000000000000000000000000000000000000000000000000000017853438232489813
0.00000000000000000000000000000000000000000000000000000000000000000000000000000000000000000000000024511649400508814,0.00000000000000000000000000000000000000000000000000000000000000000000000000000000000000000000000028243594139683723,0.0000000000000000000000000000000000000000000000000000000000000000000000000000000000000000000000002658176054787575,0.00000000000000000000000000000000000000000000000000000000000000000000000000000000000000000000000028243594139683723,0.00000000000000000000000000000000000000000000000000000000000000000000000000000000000000000000000011048206605318314,0.00000000000000000000000000000000000000000000000000000000000000000000000000000000000000000000000028243594139683723,0.00000000000000000000000000000000000000000000000000000000000000000000000000000000000000000000000024511649400508814
0.000000000000000000000000000000000000000000000000000000000000000000000000000000000000000000000000011136676212386545,0.000000000000000000000000000000000000000000000000000000000000000000000000000000000000000000000000013557692780296637,0.000000000000000000000000000000000000000000000000000000000000000000000000000000000000000000000000013557692780296637,0.000000000000000000000000000000000000000000000000000000000000000000000000000000000000000000000000013557692780296637,0.000000000000000000000000000000000000000000000000000000000000000000000000000000000000000000000000013557692780296637,0.000000000000000000000000000000000000000000000000000000000000000000000000000000000000000000000000011136676212386545,0.000000000000000000000000000000000000000000000000000000000000000000000000000000000000000000000000011136676212386545
0.000000000000000000000000000000000000000000000000000000000000000000000000000000000000000027938316190332467,0.0000000000000000000000000000000000000000000000000000000000000000000000000000000000000000649932603067765,0.00000000000000000000000000000000000000000000000000000000000000000000000000000000000000011749859978846899,0.00000000000000000000000000000000000000000000000000000000000000000000000000000000000000012822829916753192,0.00000000000000000000000000000000000000000000000000000000000000000000000000000000000000000006326238990109681,0.000000000000000000000000000000000000000000000000000000000000000000000000000000000000000030489578370753104,0.000000000000000000000000000000000000000000000000000000000000000000000000000000000000000027938316190332467
0.000000000000000000000000000000000000000000000000000000000000000000000000000000000000000000000010592989522426865,0.000000000000000000000000000000000000000000000000000000000000000000000000000000000000000000000010592989522426865,0.000000000000000000000000000000000000000000000000000000000000000000000000000000000000000000000020735855445189803,0.000000000000000000000000000000000000000000000000000000000000000000000000000000000000000000000020735855445189803,0.00000000000000000000000000000000000000000000000000000000000000000000000000000000000000000000000002876637498260722,0.000000000000000000000000000000000000000000000000000000000000000000000000000000000000000000000010592989522426865,0.000000000000000000000000000000000000000000000000000000000000000000000000000000000000000000000010592989522426865
0.00000000000000000000000000000000000000000000000000000000000000000000000000000000000000000020205651005279707,0.00000000000000000000000000000000000000000000000000000000000000000000000000000000000000000020205651005279707,0.0000000000000000000000000000000000000000000000000000000000000000000000000000000000000000003329264085348675,0.0000000000000000000000000000000000000000000000000000000000000000000000000000000000000000003329265513541759,0.0000000000000000000000000000000000000000000000000000000000000000000000000000000000000000003329265513541759,0.00000000000000000000000000000000000000000000000000000000000000000000000000000000000000000020205651005279707,0.00000000000000000000000000000000000000000000000000000000000000000000000000000000000000000020205651005279707
0.00000000000000000000000000000000000000000000000000000000000000000000000000000000000000001690444875361485,0.00000000000000000000000000000000000000000000000000000000000000000000000000000000000000002307141119241313,0.00000000000000000000000000000000000000000000000000000000000000000000000000000000000000005271536509663804,0.00000000000000000000000000000000000000000000000000000000000000000000000000000000000000005271536509663804,0.000000000000000000000000000000000000000000000000000000000000000000000000000000000000000005207544747185747,0.00000000000000000000000000000000000000000000000000000000000000000000000000000000000000001690444875361485,0.00000000000000000000000000000000000000000000000000000000000000000000000000000000000000001690444875361485
0.000000000000000000000000000000000000000000000000000000000000000000000000000000000000000004358665893028065,0.000000000000000000000000000000000000000000000000000000000000000000000000000000000000000005306201956258074,0.0000000000000000000000000000000000000000000000000000000000000000000000000000000000000016645763513439677,0.0000000000000000000000000000000000000000000000000000000000000000000000000000000000000016645763513439677,0.00000000000000000000000000000000000000000000000000000000000000000000000000000000000000000099561939786634,0.000000000000000000000000000000000000000000000000000000000000000000000000000000000000000004358665893028065,0.000000000000000000000000000000000000000000000000000000000000000000000000000000000000000004358665893028065
0.00000000000000000000000000000000000000000000000000000000000000000000000000000000000000000000013228659105109984,0.00000000000000000000000000000000000000000000000000000000000000000000000000000000000000000000013228659105109984,0.00000000000000000000000000000000000000000000000000000000000000000000000000000000000000000000025308877630720504,0.00000000000000000000000000000000000000000000000000000000000000000000000000000000000000000000025308877630720504,0.000000000000000000000000000000000000000000000000000000000000000000000000000000000000000000000000002995375446785115,0.00000000000000000000000000000000000000000000000000000000000000000000000000000000000000000000013228659105109984,0.00000000000000000000000000000000000000000000000000000000000000000000000000000000000000000000013228659105109984
0.000000000000000000000000000000000000000000000000000000000000000000000000000000000000000000004234816188605259,0.000000000000000000000000000000000000000000000000000000000000000000000000000000000000000000005691662399664186,0.000000000000000000000000000000000000000000000000000000000000000000000000000000000000000000005691662399664186,0.000000000000000000000000000000000000000000000000000000000000000000000000000000000000000000005691662399664186,0.000000000000000000000000000000000000000000000000000000000000000000000000000000000000000000000004468645706817226,0.0000000000000000000000000000000000000000000000000000000000000000000000000000000000000000000036200848063888373,0.000000000000000000000000000000000000000000000000000000000000000000000000000000000000000000004234816188605259
0.0000000000000000000000000000000000000000000000000000000000000000000000000000000000000000000000033432373249164353,0.000000000000000000000000000000000000000000000000000000000000000000000000000000000000000000000003878479072629468,0.000000000000000000000000000000000000000000000000000000000000000000000000000000000000000000000003878479072629468,0.000000000000000000000000000000000000000000000000000000000000000000000000000000000000000000000003878479072629468,0.0000000000000000000000000000000000000000000000000000000000000000000000000000000000000000000000000003306087141282423,0.000000000000000000000000000000000000000000000000000000000000000000000000000000000000000000000003878479072629468,0.0000000000000000000000000000000000000000000000000000000000000000000000000000000000000000000000033432373249164353
0.0000000000000000000000000000000000000000000000000000000000000000000000000000000000000000964431546402863,0.00000000000000000000000000000000000000000000000000000000000000000000000000000000000000010730190339540329,0.00000000000000000000000000000000000000000000000000000000000000000000000000000000000000010730190339540329,0.00000000000000000000000000000000000000000000000000000000000000000000000000000000000000010730190339540329,0.00000000000000000000000000000000000000000000000000000000000000000000000000000000000000010730190339540329,0.0000000000000000000000000000000000000000000000000000000000000000000000000000000000000000964431546402863,0.0000000000000000000000000000000000000000000000000000000000000000000000000000000000000000964431546402863
0.00000000000000000000000000000000000000000000000000000000000000000000000000000000000000000013176001637655852,0.00000000000000000000000000000000000000000000000000000000000000000000000000000000000000000026433717215815113,0.0000000000000000000000000000000000000000000000000000000000000000000000000000000000000000011491692958158718,0.0000000000000000000000000000000000000000000000000000000000000000000000000000000000000000011491692958158718,0.0000000000000000000000000000000000000000000000000000000000000000000000000000000000000000011491692958158718,0.00000000000000000000000000000000000000000000000000000000000000000000000000000000000000000014288769996169568,0.00000000000000000000000000000000000000000000000000000000000000000000000000000000000000000013176001637655852
0.0000000000000000000000000000000000000000000000000000000000000000000000000000000000000000000009418868997110287,0.000000000000000000000000000000000000000000000000000000000000000000000000000000000000000000001012101322128454,0.00000000000000000000000000000000000000000000000000000000000000000000000000000000000000008586120428418216,0.00000000000000000000000000000000000000000000000000000000000000000000000000000000000000008586120428418216,0.0000000000000000000000000000000000000000000000000000000000000000000000000000000000000000858612078795708,0.0000000000000000000000000000000000000000000000000000000000000000000000000000000000000000000009418868997110287,0.0000000000000000000000000000000000000000000000000000000000000000000000000000000000000000000009418868997110287
0.00000000000000000000000000000000000000000000000000000000000000000000000000000000000000000000000003538213871422147,0.000000000000000000000000000000000000000000000000000000000000000000000000000000000000000000007417368032866017,0.00000000000000000000000000000000000000000000000000000000000000000000000000000000000000000005048581015238572,0.00000000000000000000000000000000000000000000000000000000000000000000000000000000000000000005048581015238572,0.0000000000000000000000000000000000000000000000000000000000000000000000000000000000000000000038783712998597355,0.00000000000000000000000000000000000000000000000000000000000000000000000000000000000000000000000005190785213528518,0.00000000000000000000000000000000000000000000000000000000000000000000000000000000000000000000000003538213871422147
0.000000000000000000000000000000000000000000000000000000000000000000000000000000000000000000000000000000000000002424091213237602,0.000000000000000000000000000000000000000000000000000000000000000000000000000000000000000000000000000000000000003708100406468856,0.000000000000000000000000000000000000000000000000000000000000000000000000000000000000000000000000000000000000008073641595460739,0.000000000000000000000000000000000000000000000000000000000000000000000000000000000000000000000000000000000000008073641595460739,0.000000000000000000000000000000000000000000000000000000000000000000000000000000000000000000000000000000000000004748098389624426,0.000000000000000000000000000000000000000000000000000000000000000000000000000000000000000000000000000000000000002424091213237602,0.000000000000000000000000000000000000000000000000000000000000000000000000000000000000000000000000000000000000002424091213237602
0.0000000000000000000000000000000000000000000000000000000000000000000000000000000000000000004961940857808893,0.0000000000000000000000000000000000000000000000000000000000000000000000000000000000000000005091604545670458,0.0000000000000000000000000000000000000000000000000000000000000000000000000000000000000000005091604545670458,0.0000000000000000000000000000000000000000000000000000000000000000000000000000000000000000005091604545670458,0.00000000000000000000000000000000000000000000000000000000000000000000000000000000000000000000017660918010858833,0.0000000000000000000000000000000000000000000000000000000000000000000000000000000000000000004961940857808893,0.0000000000000000000000000000000000000000000000000000000000000000000000000000000000000000004961940857808893
0.000000000000000000000000000000000000000000000000000000000000000000000000000000000000000000004514341005104064,0.000000000000000000000000000000000000000000000000000000000000000000000000000000000000000000010251734504180923,0.000000000000000000000000000000000000000000000000000000000000000000000000000000000000000021943017176075166,0.00000000000000000000000000000000000000000000000000000000000000000000000000000000000000002194301717607517,0.000000000000000000000000000000000000000000000000000000000000000000000000000000000000000021943018095990377,0.000000000000000000000000000000000000000000000000000000000000000000000000000000000000000000004514341005104064,0.000000000000000000000000000000000000000000000000000000000000000000000000000000000000000000004514341005104064
0.00000000000000000000000000000000000000000000000000000000000000000000000000011411693333522214,0.00000000000000000000000000000000000000000000000000000000000000000000000000012542612479539424,0.00000000000000000000000000000000000000000000000000000000000000000000000000012542612479539424,0.00000000000000000000000000000000000000000000000000000000000000000000000000012542612479539424,0.00000000000000000000000000000000000000000000000000000000000000000000000000012542612479539424,0.00000000000000000000000000000000000000000000000000000000000000000000000000011411693333522214,0.00000000000000000000000000000000000000000000000000000000000000000000000000011411693333522214
0.000000000000000000000000000000000000000000000000000000000000000000000000000000000000000018003328339220967,0.000000000000000000000000000000000000000000000000000000000000000000000000000000000000000018003328339220967,0.00000000000000000000000000000000000000000000000000000000000000000000000000000000000000017982633467667479,0.00000000000000000000000000000000000000000000000000000000000000000000000000000000000000017982633467667479,0.0000000000000000000000000000000000000000000000000000000000000000000000000000000000000000533203444588132,0.000000000000000000000000000000000000000000000000000000000000000000000000000000000000000018003328339220967,0.000000000000000000000000000000000000000000000000000000000000000000000000000000000000000018003328339220967
0.00000000000000000000000000000000000000000000000000000000000000000000000000000000000000000000041706840321785375,0.0000000000000000000000000000000000000000000000000000000000000000000000000000000000000000000004283405222210753,0.0000000000000000000000000000000000000000000000000000000000000000000000000000000000000000000011178915470473928,0.00000000000000000000000000000000000000000000000000000000000000000000000000000000000000000000111789156222946,0.00000000000000000000000000000000000000000000000000000000000000000000000000000000000000000000111789156222946,0.00000000000000000000000000000000000000000000000000000000000000000000000000000000000000000000041706840321785375,0.00000000000000000000000000000000000000000000000000000000000000000000000000000000000000000000041706840321785375
0.00000000000000000000000000000000000000000000000000000000000000000000000000000000000000007320386438770603,0.00000000000000000000000000000000000000000000000000000000000000000000000000000000000000007320386438770603,0.00000000000000000000000000000000000000000000000000000000000000000000000000000000000000009974257054826277,0.00000000000000000000000000000000000000000000000000000000000000000000000000000000000000009974257054826277,0.00000000000000000000000000000000000000000000000000000000000000000000000000000000000000000000003237262913057552,0.00000000000000000000000000000000000000000000000000000000000000000000000000000000000000007320386438770603,0.00000000000000000000000000000000000000000000000000000000000000000000000000000000000000007320386438770603
