{ 0: [0, 1] 1: [0] 2: [1] 3: [2] 4: [0] 5: [2] 6: [0] 7: [0] 8: [1] 9: [0, 1, 2, 3, 4, 5, 6, 7, 8, 9, 10, 11] 10: [0, 1] 11: [1] 12: [0, 1, 2, 3] 13: [0] 14: [0] 15: [0] 16: [0] 17: [0, 1, 2, 3] 18: [0, 1, 2] 19: [0] 20: [0, 1, 2, 3, 4, 5, 6, 7, 8] 21: [1] 22: [1] },{ 0: [0, 1] 1: [0] 2: [1] 3: [2] 4: [0] 5: [1] 6: [0] 7: [0] 8: [1] 9: [0, 1, 2, 3, 4, 5, 6, 7, 8, 9, 10, 11] 10: [0, 1] 11: [1] 12: [0, 1, 2, 3] 13: [0] 14: [0] 15: [0] 16: [0] 17: [0, 1, 2, 3] 18: [0, 1, 2] 19: [0] 20: [0, 1, 2, 3, 4, 5, 6, 7, 8] 21: [1] 22: [1] },{ 0: [0, 1] 1: [0] 2: [1] 3: [2] 4: [0] 5: [1] 6: [0] 7: [0] 8: [1] 9: [0, 1, 2, 3, 4, 5, 6, 7, 8, 9, 10, 11] 10: [0, 1] 11: [1] 12: [0, 1, 2, 3] 13: [0] 14: [0] 15: [0] 16: [0] 17: [0, 1, 2, 3] 18: [0, 1, 2] 19: [0] 20: [0, 1, 2, 3, 4, 5, 6, 7, 8] 21: [1] 22: [1] },{ 0: [0, 1] 1: [0] 2: [1] 3: [2] 4: [0] 5: [1] 6: [0] 7: [0] 8: [1] 9: [0, 1, 2, 3, 4, 5, 6, 7, 8, 9, 10, 11] 10: [0, 1] 11: [1] 12: [0, 1, 2, 3] 13: [0] 14: [0] 15: [0] 16: [0] 17: [0, 1, 2, 3] 18: [0, 1, 2] 19: [0] 20: [0, 1, 2, 3, 4, 5, 6, 7, 8] 21: [1] 22: [1] },{ 0: [0, 1] 1: [0] 2: [1] 3: [2] 4: [0] 5: [1] 6: [0] 7: [0] 8: [1] 9: [0, 1, 2, 3, 4, 5, 6, 7, 8, 9, 10, 11] 10: [0, 1] 11: [1] 12: [0, 1, 2, 3] 13: [0] 14: [0] 15: [0] 16: [0] 17: [0, 1, 2, 3] 18: [0, 1, 2] 19: [0] 20: [0, 1, 2, 3, 4, 5, 6, 7, 8] 21: [1] 22: [1] },{ 0: [0, 1] 1: [0] 2: [1] 3: [2] 4: [0] 5: [2] 6: [0] 7: [0] 8: [1] 9: [0, 1, 2, 3, 4, 5, 6, 7, 8, 9, 10, 11] 10: [0, 1] 11: [1] 12: [0, 1, 2, 3] 13: [0] 14: [0] 15: [0] 16: [0] 17: [0, 1, 2, 3] 18: [0, 1, 2] 19: [0] 20: [0, 1, 2, 3, 4, 5, 6, 7, 8] 21: [1] 22: [1] },{ 0: [0, 1] 1: [0] 2: [1] 3: [2] 4: [0] 5: [1] 6: [0] 7: [0] 8: [1] 9: [0, 1, 2, 3, 4, 5, 6, 7, 8, 9, 10, 11] 10: [0, 1] 11: [1] 12: [0, 1, 2, 3] 13: [0] 14: [0] 15: [0] 16: [0] 17: [0, 1, 2, 3] 18: [0, 1, 2] 19: [0] 20: [0, 1, 2, 3, 4, 5, 6, 7, 8] 21: [1] 22: [1] }
{ 0: [0] 1: [3] 2: [0, 1, 2, 3] 3: [6] 4: [0] 5: [0, 1, 2, 3, 4, 5, 6, 7, 8] 6: [0] 7: [0] 8: [1] 9: [4] 10: [1] 11: [2] 12: [0, 1, 2, 3] 13: [0] 14: [0] 15: [0, 1, 2, 3, 4, 5, 6, 7, 8] 16: [0] 17: [0] 18: [0, 1, 2] 19: [0] 20: [3] 21: [3] 22: [0, 1, 2, 3, 4, 5, 6] },{ 0: [0] 1: [3] 2: [0, 1, 2, 3] 3: [6] 4: [0] 5: [0, 1, 2, 3, 4, 5, 6, 7, 8] 6: [0] 7: [0] 8: [1] 9: [3] 10: [1] 11: [2] 12: [0, 1, 2, 3] 13: [0] 14: [0] 15: [0, 1, 2, 3, 4, 5, 6, 7, 8] 16: [0] 17: [0] 18: [0, 1, 2] 19: [0] 20: [3] 21: [3] 22: [0, 1, 2, 3, 4, 5, 6] },{ 0: [0] 1: [0] 2: [0, 1, 2, 3] 3: [3] 4: [0] 5: [0, 1, 2, 3, 4, 5, 6, 7, 8] 6: [0] 7: [0] 8: [1] 9: [4] 10: [1] 11: [2] 12: [0, 1, 2, 3] 13: [0] 14: [0] 15: [0, 1, 2, 3, 4, 5, 6, 7, 8] 16: [0] 17: [0] 18: [0, 1, 2] 19: [0] 20: [3] 21: [0] 22: [0, 1, 2, 3, 4, 5, 6] },{ 0: [0] 1: [0] 2: [0, 1, 2, 3] 3: [3] 4: [0] 5: [0, 1, 2, 3, 4, 5, 6, 7, 8] 6: [0] 7: [0] 8: [1] 9: [4] 10: [1] 11: [2] 12: [0, 1, 2, 3] 13: [0] 14: [0] 15: [0, 1, 2, 3, 4, 5, 6, 7, 8] 16: [0] 17: [0] 18: [0, 1, 2] 19: [0] 20: [3] 21: [0] 22: [0, 1, 2, 3, 4, 5, 6] },{ 0: [0] 1: [3] 2: [0, 1, 2, 3] 3: [6] 4: [0] 5: [0, 1, 2, 3, 4, 5, 6, 7, 8] 6: [0] 7: [0] 8: [1] 9: [3] 10: [1] 11: [2] 12: [0, 1, 2, 3] 13: [0] 14: [0] 15: [0, 1, 2, 3, 4, 5, 6, 7, 8] 16: [0] 17: [0] 18: [0, 1, 2] 19: [0] 20: [3] 21: [3] 22: [0, 1, 2, 3, 4, 5, 6] },{ 0: [0] 1: [3] 2: [0, 1, 2, 3] 3: [6] 4: [0] 5: [0, 1, 2, 3, 4, 5, 6, 7, 8] 6: [0] 7: [0] 8: [1] 9: [4] 10: [1] 11: [2] 12: [0, 1, 2, 3] 13: [0] 14: [0] 15: [0, 1, 2, 3, 4, 5, 6, 7, 8] 16: [0] 17: [0] 18: [0, 1, 2] 19: [0] 20: [3] 21: [3] 22: [0, 1, 2, 3, 4, 5, 6] },{ 0: [0] 1: [3] 2: [0, 1, 2, 3] 3: [6] 4: [0] 5: [0, 1, 2, 3, 4, 5, 6, 7, 8] 6: [0] 7: [0] 8: [1] 9: [3] 10: [1] 11: [2] 12: [0, 1, 2, 3] 13: [0] 14: [0] 15: [0, 1, 2, 3, 4, 5, 6, 7, 8] 16: [0] 17: [0] 18: [0, 1, 2] 19: [0] 20: [3] 21: [3] 22: [0, 1, 2, 3, 4, 5, 6] }
{ 0: [1] 1: [4] 2: [0] 3: [3] 4: [1] 5: [3] 6: [0] 7: [1] 8: [1] 9: [0, 1, 2, 3, 4, 5, 6, 7, 8, 9, 10, 11] 10: [0, 1] 11: [0, 1, 2, 3, 4] 12: [2] 13: [0, 1, 2, 3] 14: [0] 15: [0] 16: [0] 17: [0] 18: [0, 1, 2] 19: [0, 1, 2, 3, 4] 20: [4] 21: [1] 22: [1] },{ 0: [1] 1: [4] 2: [0] 3: [2] 4: [1] 5: [3] 6: [0] 7: [1] 8: [1] 9: [0, 1, 2, 3, 4, 5, 6, 7, 8, 9, 10, 11] 10: [0, 1] 11: [0, 1, 2, 3, 4] 12: [0] 13: [0, 1, 2, 3] 14: [0] 15: [0] 16: [0] 17: [0] 18: [0, 1, 2] 19: [0, 1, 2, 3, 4] 20: [4] 21: [1] 22: [1] },{ 0: [1] 1: [4] 2: [0] 3: [2] 4: [1] 5: [3] 6: [0] 7: [1] 8: [1] 9: [0, 1, 2, 3, 4, 5, 6, 7, 8, 9, 10, 11] 10: [0, 1] 11: [0, 1, 2, 3, 4] 12: [0] 13: [0, 1, 2, 3] 14: [0] 15: [0] 16: [0] 17: [0] 18: [0, 1, 2] 19: [0, 1, 2, 3, 4] 20: [4] 21: [1] 22: [1] },{ 0: [1] 1: [4] 2: [0] 3: [2] 4: [1] 5: [3] 6: [0] 7: [1] 8: [1] 9: [0, 1, 2, 3, 4, 5, 6, 7, 8, 9, 10, 11] 10: [0, 1] 11: [0, 1, 2, 3, 4] 12: [0] 13: [0, 1, 2, 3] 14: [0] 15: [0] 16: [0] 17: [0] 18: [0, 1, 2] 19: [0, 1, 2, 3, 4] 20: [4] 21: [1] 22: [1] },{ 0: [1] 1: [4] 2: [0] 3: [2] 4: [1] 5: [3] 6: [0] 7: [1] 8: [1] 9: [0, 1, 2, 3, 4, 5, 6, 7, 8, 9, 10, 11] 10: [0, 1] 11: [0, 1, 2, 3, 4] 12: [0] 13: [0, 1, 2, 3] 14: [0] 15: [0] 16: [0] 17: [0] 18: [0, 1, 2] 19: [0, 1, 2, 3, 4] 20: [4] 21: [1] 22: [1] },{ 0: [1] 1: [4] 2: [0] 3: [3] 4: [1] 5: [3] 6: [0] 7: [1] 8: [1] 9: [0, 1, 2, 3, 4, 5, 6, 7, 8, 9, 10, 11] 10: [0, 1] 11: [0, 1, 2, 3, 4] 12: [2] 13: [0, 1, 2, 3] 14: [0] 15: [0] 16: [0] 17: [0] 18: [0, 1, 2] 19: [0, 1, 2, 3, 4] 20: [4] 21: [1] 22: [1] },{ 0: [1] 1: [4] 2: [0] 3: [2] 4: [1] 5: [3] 6: [0] 7: [1] 8: [1] 9: [0, 1, 2, 3, 4, 5, 6, 7, 8, 9, 10, 11] 10: [0, 1] 11: [0, 1, 2, 3, 4] 12: [0] 13: [0, 1, 2, 3] 14: [0] 15: [0] 16: [0] 17: [0] 18: [0, 1, 2] 19: [0, 1, 2, 3, 4] 20: [4] 21: [1] 22: [1] }
{ 0: [1] 1: [0, 1, 2, 3, 4, 5] 2: [0, 1, 2, 3] 3: [0, 1, 2, 3, 4, 5, 6, 7, 8, 9] 4: [0] 5: [3] 6: [0] 7: [0] 8: [1] 9: [1] 10: [1] 11: [0, 1, 2, 3, 4] 12: [0] 13: [0] 14: [2] 15: [0, 1, 2, 3, 4, 5, 6, 7, 8] 16: [0] 17: [0] 18: [0] 19: [0, 1, 2, 3, 4] 20: [1] 21: [3] 22: [0, 1, 2, 3, 4, 5, 6] },{ 0: [1] 1: [0, 1, 2, 3, 4, 5] 2: [0, 1, 2, 3] 3: [0, 1, 2, 3, 4, 5, 6, 7, 8, 9] 4: [0] 5: [3] 6: [0] 7: [0] 8: [1] 9: [1] 10: [1] 11: [0, 1, 2, 3, 4] 12: [0] 13: [0] 14: [2] 15: [0, 1, 2, 3, 4, 5, 6, 7, 8] 16: [0] 17: [0] 18: [0] 19: [0, 1, 2, 3, 4] 20: [1] 21: [4] 22: [0, 1, 2, 3, 4, 5, 6] },{ 0: [1] 1: [0, 1, 2, 3, 4, 5] 2: [0, 1, 2, 3] 3: [0, 1, 2, 3, 4, 5, 6, 7, 8, 9] 4: [0] 5: [3] 6: [0] 7: [0] 8: [1] 9: [1] 10: [1] 11: [0, 1, 2, 3, 4] 12: [0] 13: [0] 14: [2] 15: [0, 1, 2, 3, 4, 5, 6, 7, 8] 16: [0] 17: [0] 18: [0] 19: [0, 1, 2, 3, 4] 20: [1] 21: [4] 22: [0, 1, 2, 3, 4, 5, 6] },{ 0: [1] 1: [0, 1, 2, 3, 4, 5] 2: [0, 1, 2, 3] 3: [0, 1, 2, 3, 4, 5, 6, 7, 8, 9] 4: [0] 5: [3] 6: [0] 7: [0] 8: [1] 9: [1] 10: [1] 11: [0, 1, 2, 3, 4] 12: [0] 13: [0] 14: [2] 15: [0, 1, 2, 3, 4, 5, 6, 7, 8] 16: [0] 17: [0] 18: [0] 19: [0, 1, 2, 3, 4] 20: [1] 21: [4] 22: [0, 1, 2, 3, 4, 5, 6] },{ 0: [1] 1: [0, 1, 2, 3, 4, 5] 2: [0, 1, 2, 3] 3: [0, 1, 2, 3, 4, 5, 6, 7, 8, 9] 4: [0] 5: [3] 6: [0] 7: [0] 8: [1] 9: [1] 10: [1] 11: [0, 1, 2, 3, 4] 12: [0] 13: [0] 14: [2] 15: [0, 1, 2, 3, 4, 5, 6, 7, 8] 16: [0] 17: [0] 18: [0] 19: [0, 1, 2, 3, 4] 20: [1] 21: [4] 22: [0, 1, 2, 3, 4, 5, 6] },{ 0: [1] 1: [0, 1, 2, 3, 4, 5] 2: [0, 1, 2, 3] 3: [0, 1, 2, 3, 4, 5, 6, 7, 8, 9] 4: [0] 5: [3] 6: [0] 7: [0] 8: [1] 9: [1] 10: [1] 11: [0, 1, 2, 3, 4] 12: [0] 13: [0] 14: [2] 15: [0, 1, 2, 3, 4, 5, 6, 7, 8] 16: [0] 17: [0] 18: [0] 19: [0, 1, 2, 3, 4] 20: [1] 21: [3] 22: [0, 1, 2, 3, 4, 5, 6] },{ 0: [1] 1: [0, 1, 2, 3, 4, 5] 2: [0, 1, 2, 3] 3: [0, 1, 2, 3, 4, 5, 6, 7, 8, 9] 4: [0] 5: [3] 6: [0] 7: [0] 8: [1] 9: [1] 10: [1] 11: [0, 1, 2, 3, 4] 12: [0] 13: [0] 14: [2] 15: [0, 1, 2, 3, 4, 5, 6, 7, 8] 16: [0] 17: [0] 18: [0] 19: [0, 1, 2, 3, 4] 20: [1] 21: [4] 22: [0, 1, 2, 3, 4, 5, 6] }
{ 0: [1] 1: [0, 1, 2, 3, 4, 5] 2: [0, 1, 2, 3] 3: [0] 4: [0] 5: [3] 6: [0] 7: [0, 1] 8: [0, 1] 9: [0, 1, 2, 3, 4, 5, 6, 7, 8, 9, 10, 11] 10: [1] 11: [2] 12: [0] 13: [0] 14: [2] 15: [0, 1, 2, 3, 4, 5, 6, 7, 8] 16: [0] 17: [0] 18: [0] 19: [0] 20: [1] 21: [0, 1, 2, 3, 4, 5] 22: [3] },{ 0: [1] 1: [0, 1, 2, 3, 4, 5] 2: [0, 1, 2, 3] 3: [4] 4: [0] 5: [3] 6: [0] 7: [0, 1] 8: [0, 1] 9: [0, 1, 2, 3, 4, 5, 6, 7, 8, 9, 10, 11] 10: [1] 11: [2] 12: [0] 13: [0] 14: [2] 15: [0, 1, 2, 3, 4, 5, 6, 7, 8] 16: [0] 17: [0] 18: [0] 19: [0] 20: [1] 21: [0, 1, 2, 3, 4, 5] 22: [3] },{ 0: [1] 1: [0, 1, 2, 3, 4, 5] 2: [0, 1, 2, 3] 3: [4] 4: [0] 5: [3] 6: [0] 7: [0, 1] 8: [0, 1] 9: [0, 1, 2, 3, 4, 5, 6, 7, 8, 9, 10, 11] 10: [1] 11: [2] 12: [0] 13: [0] 14: [2] 15: [0, 1, 2, 3, 4, 5, 6, 7, 8] 16: [0] 17: [0] 18: [0] 19: [0] 20: [1] 21: [0, 1, 2, 3, 4, 5] 22: [3] },{ 0: [1] 1: [0, 1, 2, 3, 4, 5] 2: [0, 1, 2, 3] 3: [4] 4: [0] 5: [3] 6: [0] 7: [0, 1] 8: [0, 1] 9: [0, 1, 2, 3, 4, 5, 6, 7, 8, 9, 10, 11] 10: [1] 11: [2] 12: [0] 13: [0] 14: [2] 15: [0, 1, 2, 3, 4, 5, 6, 7, 8] 16: [0] 17: [0] 18: [0] 19: [0] 20: [1] 21: [0, 1, 2, 3, 4, 5] 22: [3] },{ 0: [1] 1: [0, 1, 2, 3, 4, 5] 2: [0, 1, 2, 3] 3: [4] 4: [0] 5: [3] 6: [0] 7: [0, 1] 8: [0, 1] 9: [0, 1, 2, 3, 4, 5, 6, 7, 8, 9, 10, 11] 10: [1] 11: [2] 12: [0] 13: [0] 14: [2] 15: [0, 1, 2, 3, 4, 5, 6, 7, 8] 16: [0] 17: [0] 18: [0] 19: [0] 20: [1] 21: [0, 1, 2, 3, 4, 5] 22: [3] },{ 0: [1] 1: [0, 1, 2, 3, 4, 5] 2: [0, 1, 2, 3] 3: [0] 4: [0] 5: [3] 6: [0] 7: [0, 1] 8: [0, 1] 9: [0, 1, 2, 3, 4, 5, 6, 7, 8, 9, 10, 11] 10: [1] 11: [2] 12: [0] 13: [0] 14: [2] 15: [0, 1, 2, 3, 4, 5, 6, 7, 8] 16: [0] 17: [0] 18: [0] 19: [0] 20: [1] 21: [0, 1, 2, 3, 4, 5] 22: [3] },{ 0: [1] 1: [0, 1, 2, 3, 4, 5] 2: [0, 1, 2, 3] 3: [4] 4: [0] 5: [3] 6: [0] 7: [0, 1] 8: [0, 1] 9: [0, 1, 2, 3, 4, 5, 6, 7, 8, 9, 10, 11] 10: [1] 11: [2] 12: [0] 13: [0] 14: [2] 15: [0, 1, 2, 3, 4, 5, 6, 7, 8] 16: [0] 17: [0] 18: [0] 19: [0] 20: [1] 21: [0, 1, 2, 3, 4, 5] 22: [3] }
{ 0: [0, 1] 1: [0, 1, 2, 3, 4, 5] 2: [2] 3: [4] 4: [0] 5: [0, 1, 2, 3, 4, 5, 6, 7, 8] 6: [0, 1] 7: [0] 8: [1] 9: [6] 10: [1] 11: [0, 1, 2, 3, 4] 12: [0, 1, 2, 3] 13: [0] 14: [2] 15: [0, 1, 2, 3, 4, 5, 6, 7, 8] 16: [0] 17: [0] 18: [0] 19: [0] 20: [0] 21: [4] 22: [3] },{ 0: [0, 1] 1: [0, 1, 2, 3, 4, 5] 2: [2] 3: [4] 4: [0] 5: [0, 1, 2, 3, 4, 5, 6, 7, 8] 6: [0, 1] 7: [0] 8: [1] 9: [6] 10: [1] 11: [0, 1, 2, 3, 4] 12: [0, 1, 2, 3] 13: [0] 14: [2] 15: [0, 1, 2, 3, 4, 5, 6, 7, 8] 16: [0] 17: [0] 18: [0] 19: [0] 20: [0] 21: [4] 22: [3] },{ 0: [0, 1] 1: [0, 1, 2, 3, 4, 5] 2: [1] 3: [4] 4: [0] 5: [0, 1, 2, 3, 4, 5, 6, 7, 8] 6: [0, 1] 7: [0] 8: [1] 9: [3] 10: [1] 11: [0, 1, 2, 3, 4] 12: [0, 1, 2, 3] 13: [0] 14: [2] 15: [0, 1, 2, 3, 4, 5, 6, 7, 8] 16: [0] 17: [0] 18: [0] 19: [0] 20: [0] 21: [3] 22: [3] },{ 0: [0, 1] 1: [0, 1, 2, 3, 4, 5] 2: [1] 3: [4] 4: [0] 5: [0, 1, 2, 3, 4, 5, 6, 7, 8] 6: [0, 1] 7: [0] 8: [1] 9: [3] 10: [1] 11: [0, 1, 2, 3, 4] 12: [0, 1, 2, 3] 13: [0] 14: [2] 15: [0, 1, 2, 3, 4, 5, 6, 7, 8] 16: [0] 17: [0] 18: [0] 19: [0] 20: [0] 21: [3] 22: [3] },{ 0: [0, 1] 1: [0, 1, 2, 3, 4, 5] 2: [1] 3: [4] 4: [0] 5: [0, 1, 2, 3, 4, 5, 6, 7, 8] 6: [0, 1] 7: [0] 8: [1] 9: [3] 10: [1] 11: [0, 1, 2, 3, 4] 12: [0, 1, 2, 3] 13: [0] 14: [2] 15: [0, 1, 2, 3, 4, 5, 6, 7, 8] 16: [0] 17: [0] 18: [0] 19: [0] 20: [0] 21: [3] 22: [3] },{ 0: [0, 1] 1: [0, 1, 2, 3, 4, 5] 2: [2] 3: [4] 4: [0] 5: [0, 1, 2, 3, 4, 5, 6, 7, 8] 6: [0, 1] 7: [0] 8: [1] 9: [6] 10: [1] 11: [0, 1, 2, 3, 4] 12: [0, 1, 2, 3] 13: [0] 14: [2] 15: [0, 1, 2, 3, 4, 5, 6, 7, 8] 16: [0] 17: [0] 18: [0] 19: [0] 20: [0] 21: [4] 22: [3] },{ 0: [0, 1] 1: [0, 1, 2, 3, 4, 5] 2: [1] 3: [4] 4: [0] 5: [0, 1, 2, 3, 4, 5, 6, 7, 8] 6: [0, 1] 7: [0] 8: [1] 9: [3] 10: [1] 11: [0, 1, 2, 3, 4] 12: [0, 1, 2, 3] 13: [0] 14: [2] 15: [0, 1, 2, 3, 4, 5, 6, 7, 8] 16: [0] 17: [0] 18: [0] 19: [0] 20: [0] 21: [3] 22: [3] }
{ 0: [0, 1] 1: [0] 2: [1] 3: [2] 4: [0] 5: [1] 6: [0, 1] 7: [0, 1] 8: [1] 9: [0, 1, 2, 3, 4, 5, 6, 7, 8, 9, 10, 11] 10: [0, 1] 11: [1] 12: [0] 13: [0] 14: [0] 15: [0] 16: [0] 17: [0] 18: [0] 19: [0, 1, 2, 3, 4] 20: [0, 1, 2, 3, 4, 5, 6, 7, 8] 21: [1] 22: [2] },{ 0: [0, 1] 1: [0] 2: [1] 3: [1] 4: [0] 5: [1] 6: [0, 1] 7: [0, 1] 8: [1] 9: [0, 1, 2, 3, 4, 5, 6, 7, 8, 9, 10, 11] 10: [0, 1] 11: [1] 12: [0] 13: [0] 14: [0] 15: [0] 16: [0] 17: [0] 18: [0] 19: [0, 1, 2, 3, 4] 20: [0, 1, 2, 3, 4, 5, 6, 7, 8] 21: [0] 22: [2] },{ 0: [0, 1] 1: [0] 2: [1] 3: [1] 4: [0] 5: [1] 6: [0, 1] 7: [0, 1] 8: [1] 9: [0, 1, 2, 3, 4, 5, 6, 7, 8, 9, 10, 11] 10: [0, 1] 11: [1] 12: [0] 13: [0] 14: [0] 15: [0] 16: [0] 17: [0] 18: [0] 19: [0, 1, 2, 3, 4] 20: [0, 1, 2, 3, 4, 5, 6, 7, 8] 21: [0] 22: [2] },{ 0: [0, 1] 1: [0] 2: [1] 3: [1] 4: [0] 5: [1] 6: [0, 1] 7: [0, 1] 8: [1] 9: [0, 1, 2, 3, 4, 5, 6, 7, 8, 9, 10, 11] 10: [0, 1] 11: [1] 12: [0] 13: [0] 14: [0] 15: [0] 16: [0] 17: [0] 18: [0] 19: [0, 1, 2, 3, 4] 20: [0, 1, 2, 3, 4, 5, 6, 7, 8] 21: [0] 22: [2] },{ 0: [0, 1] 1: [0] 2: [1] 3: [1] 4: [0] 5: [1] 6: [0, 1] 7: [0, 1] 8: [1] 9: [0, 1, 2, 3, 4, 5, 6, 7, 8, 9, 10, 11] 10: [0, 1] 11: [1] 12: [0] 13: [0] 14: [0] 15: [0] 16: [0] 17: [0] 18: [0] 19: [0, 1, 2, 3, 4] 20: [0, 1, 2, 3, 4, 5, 6, 7, 8] 21: [0] 22: [2] },{ 0: [0, 1] 1: [0] 2: [1] 3: [2] 4: [0] 5: [1] 6: [0, 1] 7: [0, 1] 8: [1] 9: [0, 1, 2, 3, 4, 5, 6, 7, 8, 9, 10, 11] 10: [0, 1] 11: [1] 12: [0] 13: [0] 14: [0] 15: [0] 16: [0] 17: [0] 18: [0] 19: [0, 1, 2, 3, 4] 20: [0, 1, 2, 3, 4, 5, 6, 7, 8] 21: [1] 22: [2] },{ 0: [0, 1] 1: [0] 2: [1] 3: [1] 4: [0] 5: [1] 6: [0, 1] 7: [0, 1] 8: [1] 9: [0, 1, 2, 3, 4, 5, 6, 7, 8, 9, 10, 11] 10: [0, 1] 11: [1] 12: [0] 13: [0] 14: [0] 15: [0] 16: [0] 17: [0] 18: [0] 19: [0, 1, 2, 3, 4] 20: [0, 1, 2, 3, 4, 5, 6, 7, 8] 21: [0] 22: [2] }
{ 0: [1] 1: [0] 2: [0] 3: [2] 4: [0, 1] 5: [3] 6: [0, 1] 7: [0, 1] 8: [1] 9: [0, 1, 2, 3, 4, 5, 6, 7, 8, 9, 10, 11] 10: [1] 11: [0] 12: [1] 13: [0] 14: [0] 15: [0] 16: [0] 17: [0, 1, 2, 3] 18: [0] 19: [0, 1, 2, 3, 4] 20: [1] 21: [0] 22: [1] },{ 0: [1] 1: [0] 2: [0] 3: [2] 4: [0, 1] 5: [3] 6: [0, 1] 7: [0, 1] 8: [1] 9: [0, 1, 2, 3, 4, 5, 6, 7, 8, 9, 10, 11] 10: [1] 11: [0] 12: [1] 13: [0] 14: [0] 15: [0] 16: [0] 17: [0, 1, 2, 3] 18: [0] 19: [0, 1, 2, 3, 4] 20: [1] 21: [0] 22: [1] },{ 0: [1] 1: [0] 2: [0] 3: [2] 4: [0, 1] 5: [3] 6: [0, 1] 7: [0, 1] 8: [1] 9: [0, 1, 2, 3, 4, 5, 6, 7, 8, 9, 10, 11] 10: [1] 11: [0] 12: [0] 13: [1] 14: [0] 15: [0] 16: [0] 17: [0, 1, 2, 3] 18: [0] 19: [0, 1, 2, 3, 4] 20: [0] 21: [0] 22: [1] },{ 0: [1] 1: [0] 2: [0] 3: [2] 4: [0, 1] 5: [3] 6: [0, 1] 7: [0, 1] 8: [1] 9: [0, 1, 2, 3, 4, 5, 6, 7, 8, 9, 10, 11] 10: [1] 11: [0] 12: [0] 13: [1] 14: [0] 15: [0] 16: [0] 17: [0, 1, 2, 3] 18: [0] 19: [0, 1, 2, 3, 4] 20: [0] 21: [0] 22: [1] },{ 0: [1] 1: [0] 2: [0] 3: [2] 4: [0, 1] 5: [3] 6: [0, 1] 7: [0, 1] 8: [1] 9: [0, 1, 2, 3, 4, 5, 6, 7, 8, 9, 10, 11] 10: [1] 11: [0] 12: [0] 13: [1] 14: [0] 15: [0] 16: [0] 17: [0, 1, 2, 3] 18: [0] 19: [0, 1, 2, 3, 4] 20: [0] 21: [0] 22: [1] },{ 0: [1] 1: [0] 2: [0] 3: [2] 4: [0, 1] 5: [3] 6: [0, 1] 7: [0, 1] 8: [1] 9: [0, 1, 2, 3, 4, 5, 6, 7, 8, 9, 10, 11] 10: [1] 11: [0] 12: [1] 13: [0] 14: [0] 15: [0] 16: [0] 17: [0, 1, 2, 3] 18: [0] 19: [0, 1, 2, 3, 4] 20: [1] 21: [0] 22: [1] },{ 0: [1] 1: [0] 2: [0] 3: [2] 4: [0, 1] 5: [3] 6: [0, 1] 7: [0, 1] 8: [1] 9: [0, 1, 2, 3, 4, 5, 6, 7, 8, 9, 10, 11] 10: [1] 11: [0] 12: [0] 13: [1] 14: [0] 15: [0] 16: [0] 17: [0, 1, 2, 3] 18: [0] 19: [0, 1, 2, 3, 4] 20: [0] 21: [0] 22: [1] }
{ 0: [1] 1: [2] 2: [0, 1, 2, 3] 3: [0] 4: [1] 5: [0, 1, 2, 3, 4, 5, 6, 7, 8] 6: [0, 1] 7: [0] 8: [0, 1] 9: [0] 10: [0] 11: [0] 12: [0, 1, 2, 3] 13: [0] 14: [0] 15: [0] 16: [0] 17: [0] 18: [0] 19: [0] 20: [0, 1, 2, 3, 4, 5, 6, 7, 8] 21: [0, 1, 2, 3, 4, 5] 22: [0] },{ 0: [1] 1: [2] 2: [0, 1, 2, 3] 3: [0] 4: [1] 5: [0, 1, 2, 3, 4, 5, 6, 7, 8] 6: [0, 1] 7: [0] 8: [0, 1] 9: [3] 10: [0] 11: [0] 12: [0, 1, 2, 3] 13: [0] 14: [0] 15: [0] 16: [0] 17: [0] 18: [0] 19: [0] 20: [0, 1, 2, 3, 4, 5, 6, 7, 8] 21: [0, 1, 2, 3, 4, 5] 22: [0] },{ 0: [1] 1: [2] 2: [0, 1, 2, 3] 3: [0] 4: [1] 5: [0, 1, 2, 3, 4, 5, 6, 7, 8] 6: [0, 1] 7: [0] 8: [0, 1] 9: [3] 10: [0] 11: [0] 12: [0, 1, 2, 3] 13: [0] 14: [0] 15: [0] 16: [0] 17: [0] 18: [0] 19: [0] 20: [0, 1, 2, 3, 4, 5, 6, 7, 8] 21: [0, 1, 2, 3, 4, 5] 22: [0] },{ 0: [1] 1: [2] 2: [0, 1, 2, 3] 3: [0] 4: [1] 5: [0, 1, 2, 3, 4, 5, 6, 7, 8] 6: [0, 1] 7: [0] 8: [0, 1] 9: [3] 10: [0] 11: [0] 12: [0, 1, 2, 3] 13: [0] 14: [0] 15: [0] 16: [0] 17: [0] 18: [0] 19: [0] 20: [0, 1, 2, 3, 4, 5, 6, 7, 8] 21: [0, 1, 2, 3, 4, 5] 22: [0] },{ 0: [1] 1: [2] 2: [0, 1, 2, 3] 3: [0] 4: [1] 5: [0, 1, 2, 3, 4, 5, 6, 7, 8] 6: [0, 1] 7: [0] 8: [0, 1] 9: [3] 10: [0] 11: [0] 12: [0, 1, 2, 3] 13: [0] 14: [0] 15: [0] 16: [0] 17: [0] 18: [0] 19: [0] 20: [0, 1, 2, 3, 4, 5, 6, 7, 8] 21: [0, 1, 2, 3, 4, 5] 22: [0] },{ 0: [1] 1: [2] 2: [0, 1, 2, 3] 3: [0] 4: [1] 5: [0, 1, 2, 3, 4, 5, 6, 7, 8] 6: [0, 1] 7: [0] 8: [0, 1] 9: [0] 10: [0] 11: [0] 12: [0, 1, 2, 3] 13: [0] 14: [0] 15: [0] 16: [0] 17: [0] 18: [0] 19: [0] 20: [0, 1, 2, 3, 4, 5, 6, 7, 8] 21: [0, 1, 2, 3, 4, 5] 22: [0] },{ 0: [1] 1: [2] 2: [0, 1, 2, 3] 3: [0] 4: [1] 5: [0, 1, 2, 3, 4, 5, 6, 7, 8] 6: [0, 1] 7: [0] 8: [0, 1] 9: [3] 10: [0] 11: [0] 12: [0, 1, 2, 3] 13: [0] 14: [0] 15: [0] 16: [0] 17: [0] 18: [0] 19: [0] 20: [0, 1, 2, 3, 4, 5, 6, 7, 8] 21: [0, 1, 2, 3, 4, 5] 22: [0] }
{ 0: [1] 1: [3] 2: [1] 3: [0, 1, 2, 3, 4, 5, 6, 7, 8, 9] 4: [0] 5: [3] 6: [0, 1] 7: [0, 1] 8: [0, 1] 9: [4] 10: [0, 1] 11: [2] 12: [0] 13: [0, 1, 2, 3] 14: [0] 15: [0] 16: [0] 17: [0] 18: [0] 19: [0, 1, 2, 3, 4] 20: [0] 21: [4] 22: [3] },{ 0: [1] 1: [3] 2: [1] 3: [0, 1, 2, 3, 4, 5, 6, 7, 8, 9] 4: [0] 5: [3] 6: [0, 1] 7: [0, 1] 8: [0, 1] 9: [4] 10: [0, 1] 11: [2] 12: [0] 13: [0, 1, 2, 3] 14: [0] 15: [0] 16: [0] 17: [0] 18: [0] 19: [0, 1, 2, 3, 4] 20: [0] 21: [3] 22: [3] },{ 0: [1] 1: [3] 2: [1] 3: [0, 1, 2, 3, 4, 5, 6, 7, 8, 9] 4: [0] 5: [3] 6: [0, 1] 7: [0, 1] 8: [0, 1] 9: [4] 10: [0, 1] 11: [2] 12: [0] 13: [0, 1, 2, 3] 14: [0] 15: [0] 16: [0] 17: [0] 18: [0] 19: [0, 1, 2, 3, 4] 20: [0] 21: [3] 22: [3] },{ 0: [1] 1: [3] 2: [1] 3: [0, 1, 2, 3, 4, 5, 6, 7, 8, 9] 4: [0] 5: [3] 6: [0, 1] 7: [0, 1] 8: [0, 1] 9: [4] 10: [0, 1] 11: [2] 12: [0] 13: [0, 1, 2, 3] 14: [0] 15: [0] 16: [0] 17: [0] 18: [0] 19: [0, 1, 2, 3, 4] 20: [0] 21: [3] 22: [3] },{ 0: [1] 1: [3] 2: [1] 3: [0, 1, 2, 3, 4, 5, 6, 7, 8, 9] 4: [0] 5: [3] 6: [0, 1] 7: [0, 1] 8: [0, 1] 9: [4] 10: [0, 1] 11: [2] 12: [0] 13: [0, 1, 2, 3] 14: [0] 15: [0] 16: [0] 17: [0] 18: [0] 19: [0, 1, 2, 3, 4] 20: [0] 21: [3] 22: [3] },{ 0: [1] 1: [3] 2: [1] 3: [0, 1, 2, 3, 4, 5, 6, 7, 8, 9] 4: [0] 5: [3] 6: [0, 1] 7: [0, 1] 8: [0, 1] 9: [4] 10: [0, 1] 11: [2] 12: [0] 13: [0, 1, 2, 3] 14: [0] 15: [0] 16: [0] 17: [0] 18: [0] 19: [0, 1, 2, 3, 4] 20: [0] 21: [4] 22: [3] },{ 0: [1] 1: [3] 2: [1] 3: [0, 1, 2, 3, 4, 5, 6, 7, 8, 9] 4: [0] 5: [3] 6: [0, 1] 7: [0, 1] 8: [0, 1] 9: [4] 10: [0, 1] 11: [2] 12: [0] 13: [0, 1, 2, 3] 14: [0] 15: [0] 16: [0] 17: [0] 18: [0] 19: [0, 1, 2, 3, 4] 20: [0] 21: [3] 22: [3] }
{ 0: [0, 1] 1: [0] 2: [2] 3: [0] 4: [0, 1] 5: [3] 6: [0, 1] 7: [1] 8: [1] 9: [0] 10: [0, 1] 11: [0] 12: [0, 1, 2, 3] 13: [1] 14: [0, 1, 2, 3, 4, 5, 6, 7, 8] 15: [0] 16: [0] 17: [0] 18: [0] 19: [1] 20: [0] 21: [0, 1, 2, 3, 4, 5] 22: [1] },{ 0: [0, 1] 1: [0] 2: [2] 3: [0] 4: [0, 1] 5: [3] 6: [0, 1] 7: [1] 8: [1] 9: [1] 10: [0, 1] 11: [0] 12: [0, 1, 2, 3] 13: [1] 14: [0, 1, 2, 3, 4, 5, 6, 7, 8] 15: [0] 16: [0] 17: [0] 18: [0] 19: [1] 20: [0] 21: [0, 1, 2, 3, 4, 5] 22: [1] },{ 0: [0, 1] 1: [3] 2: [2] 3: [0] 4: [0, 1] 5: [3] 6: [0, 1] 7: [1] 8: [1] 9: [3] 10: [0, 1] 11: [0] 12: [0, 1, 2, 3] 13: [1] 14: [0, 1, 2, 3, 4, 5, 6, 7, 8] 15: [0] 16: [0] 17: [0] 18: [0] 19: [1] 20: [0] 21: [0, 1, 2, 3, 4, 5] 22: [1] },{ 0: [0, 1] 1: [3] 2: [2] 3: [0] 4: [0, 1] 5: [3] 6: [0, 1] 7: [1] 8: [1] 9: [3] 10: [0, 1] 11: [0] 12: [0, 1, 2, 3] 13: [1] 14: [0, 1, 2, 3, 4, 5, 6, 7, 8] 15: [0] 16: [0] 17: [0] 18: [0] 19: [1] 20: [0] 21: [0, 1, 2, 3, 4, 5] 22: [1] },{ 0: [0, 1] 1: [3] 2: [2] 3: [0] 4: [0, 1] 5: [3] 6: [0, 1] 7: [1] 8: [1] 9: [3] 10: [0, 1] 11: [0] 12: [0, 1, 2, 3] 13: [1] 14: [0, 1, 2, 3, 4, 5, 6, 7, 8] 15: [0] 16: [0] 17: [0] 18: [0] 19: [1] 20: [0] 21: [0, 1, 2, 3, 4, 5] 22: [1] },{ 0: [0, 1] 1: [0] 2: [2] 3: [0] 4: [0, 1] 5: [3] 6: [0, 1] 7: [1] 8: [1] 9: [0] 10: [0, 1] 11: [0] 12: [0, 1, 2, 3] 13: [1] 14: [0, 1, 2, 3, 4, 5, 6, 7, 8] 15: [0] 16: [0] 17: [0] 18: [0] 19: [1] 20: [0] 21: [0, 1, 2, 3, 4, 5] 22: [1] },{ 0: [0, 1] 1: [3] 2: [2] 3: [0] 4: [0, 1] 5: [3] 6: [0, 1] 7: [1] 8: [1] 9: [3] 10: [0, 1] 11: [0] 12: [0, 1, 2, 3] 13: [1] 14: [0, 1, 2, 3, 4, 5, 6, 7, 8] 15: [0] 16: [0] 17: [0] 18: [0] 19: [1] 20: [0] 21: [0, 1, 2, 3, 4, 5] 22: [1] }
{ 0: [1] 1: [0, 1, 2, 3, 4, 5] 2: [2] 3: [0, 1, 2, 3, 4, 5, 6, 7, 8, 9] 4: [0] 5: [3] 6: [0] 7: [0, 1] 8: [1] 9: [6] 10: [1] 11: [0, 1, 2, 3, 4] 12: [0] 13: [0] 14: [1] 15: [0] 16: [0] 17: [0] 18: [0] 19: [0, 1, 2, 3, 4] 20: [0] 21: [0, 1, 2, 3, 4, 5] 22: [3] },{ 0: [1] 1: [0, 1, 2, 3, 4, 5] 2: [2] 3: [0, 1, 2, 3, 4, 5, 6, 7, 8, 9] 4: [0] 5: [3] 6: [0] 7: [0, 1] 8: [1] 9: [6] 10: [1] 11: [0, 1, 2, 3, 4] 12: [0] 13: [0] 14: [1] 15: [0] 16: [0] 17: [0] 18: [0] 19: [0, 1, 2, 3, 4] 20: [0] 21: [0, 1, 2, 3, 4, 5] 22: [3] },{ 0: [1] 1: [0, 1, 2, 3, 4, 5] 2: [2] 3: [0, 1, 2, 3, 4, 5, 6, 7, 8, 9] 4: [0] 5: [3] 6: [0] 7: [0, 1] 8: [1] 9: [1] 10: [1] 11: [0, 1, 2, 3, 4] 12: [0] 13: [0] 14: [2] 15: [1] 16: [0] 17: [0] 18: [0] 19: [0, 1, 2, 3, 4] 20: [1] 21: [0, 1, 2, 3, 4, 5] 22: [3] },{ 0: [1] 1: [0, 1, 2, 3, 4, 5] 2: [2] 3: [0, 1, 2, 3, 4, 5, 6, 7, 8, 9] 4: [0] 5: [3] 6: [0] 7: [0, 1] 8: [1] 9: [1] 10: [1] 11: [0, 1, 2, 3, 4] 12: [0] 13: [0] 14: [2] 15: [1] 16: [0] 17: [0] 18: [0] 19: [0, 1, 2, 3, 4] 20: [1] 21: [0, 1, 2, 3, 4, 5] 22: [3] },{ 0: [1] 1: [0, 1, 2, 3, 4, 5] 2: [2] 3: [0, 1, 2, 3, 4, 5, 6, 7, 8, 9] 4: [0] 5: [3] 6: [0] 7: [0, 1] 8: [1] 9: [1] 10: [1] 11: [0, 1, 2, 3, 4] 12: [0] 13: [0] 14: [2] 15: [1] 16: [0] 17: [0] 18: [0] 19: [0, 1, 2, 3, 4] 20: [1] 21: [0, 1, 2, 3, 4, 5] 22: [3] },{ 0: [1] 1: [0, 1, 2, 3, 4, 5] 2: [2] 3: [0, 1, 2, 3, 4, 5, 6, 7, 8, 9] 4: [0] 5: [3] 6: [0] 7: [0, 1] 8: [1] 9: [6] 10: [1] 11: [0, 1, 2, 3, 4] 12: [0] 13: [0] 14: [1] 15: [0] 16: [0] 17: [0] 18: [0] 19: [0, 1, 2, 3, 4] 20: [0] 21: [0, 1, 2, 3, 4, 5] 22: [3] },{ 0: [1] 1: [0, 1, 2, 3, 4, 5] 2: [2] 3: [0, 1, 2, 3, 4, 5, 6, 7, 8, 9] 4: [0] 5: [3] 6: [0] 7: [0, 1] 8: [1] 9: [1] 10: [1] 11: [0, 1, 2, 3, 4] 12: [0] 13: [0] 14: [2] 15: [1] 16: [0] 17: [0] 18: [0] 19: [0, 1, 2, 3, 4] 20: [1] 21: [0, 1, 2, 3, 4, 5] 22: [3] }
{ 0: [1] 1: [1] 2: [1] 3: [0, 1, 2, 3, 4, 5, 6, 7, 8, 9] 4: [0, 1] 5: [0, 1, 2, 3, 4, 5, 6, 7, 8] 6: [0] 7: [0, 1] 8: [0, 1] 9: [1] 10: [0] 11: [1] 12: [0] 13: [0] 14: [0] 15: [0, 1, 2, 3, 4, 5, 6, 7, 8] 16: [0] 17: [0, 1, 2, 3] 18: [0] 19: [0] 20: [1] 21: [0] 22: [1] },{ 0: [1] 1: [0] 2: [1] 3: [0, 1, 2, 3, 4, 5, 6, 7, 8, 9] 4: [0, 1] 5: [0, 1, 2, 3, 4, 5, 6, 7, 8] 6: [0] 7: [0, 1] 8: [0, 1] 9: [1] 10: [0] 11: [1] 12: [0] 13: [0] 14: [0] 15: [0, 1, 2, 3, 4, 5, 6, 7, 8] 16: [0] 17: [0, 1, 2, 3] 18: [0] 19: [0] 20: [1] 21: [0] 22: [1] },{ 0: [1] 1: [0] 2: [1] 3: [0, 1, 2, 3, 4, 5, 6, 7, 8, 9] 4: [0, 1] 5: [0, 1, 2, 3, 4, 5, 6, 7, 8] 6: [0] 7: [0, 1] 8: [0, 1] 9: [1] 10: [0] 11: [1] 12: [0] 13: [0] 14: [0] 15: [0, 1, 2, 3, 4, 5, 6, 7, 8] 16: [0] 17: [0, 1, 2, 3] 18: [0] 19: [0] 20: [1] 21: [0] 22: [1] },{ 0: [1] 1: [0] 2: [1] 3: [0, 1, 2, 3, 4, 5, 6, 7, 8, 9] 4: [0, 1] 5: [0, 1, 2, 3, 4, 5, 6, 7, 8] 6: [0] 7: [0, 1] 8: [0, 1] 9: [1] 10: [0] 11: [1] 12: [0] 13: [0] 14: [0] 15: [0, 1, 2, 3, 4, 5, 6, 7, 8] 16: [0] 17: [0, 1, 2, 3] 18: [0] 19: [0] 20: [1] 21: [0] 22: [1] },{ 0: [1] 1: [0] 2: [1] 3: [0, 1, 2, 3, 4, 5, 6, 7, 8, 9] 4: [0, 1] 5: [0, 1, 2, 3, 4, 5, 6, 7, 8] 6: [0] 7: [0, 1] 8: [0, 1] 9: [1] 10: [0] 11: [1] 12: [0] 13: [0] 14: [0] 15: [0, 1, 2, 3, 4, 5, 6, 7, 8] 16: [0] 17: [0, 1, 2, 3] 18: [0] 19: [0] 20: [1] 21: [0] 22: [1] },{ 0: [1] 1: [1] 2: [1] 3: [0, 1, 2, 3, 4, 5, 6, 7, 8, 9] 4: [0, 1] 5: [0, 1, 2, 3, 4, 5, 6, 7, 8] 6: [0] 7: [0, 1] 8: [0, 1] 9: [1] 10: [0] 11: [1] 12: [0] 13: [0] 14: [0] 15: [0, 1, 2, 3, 4, 5, 6, 7, 8] 16: [0] 17: [0, 1, 2, 3] 18: [0] 19: [0] 20: [1] 21: [0] 22: [1] },{ 0: [1] 1: [0] 2: [1] 3: [0, 1, 2, 3, 4, 5, 6, 7, 8, 9] 4: [0, 1] 5: [0, 1, 2, 3, 4, 5, 6, 7, 8] 6: [0] 7: [0, 1] 8: [0, 1] 9: [1] 10: [0] 11: [1] 12: [0] 13: [0] 14: [0] 15: [0, 1, 2, 3, 4, 5, 6, 7, 8] 16: [0] 17: [0, 1, 2, 3] 18: [0] 19: [0] 20: [1] 21: [0] 22: [1] }
{ 0: [0] 1: [0] 2: [1] 3: [0] 4: [1] 5: [7] 6: [0] 7: [0, 1] 8: [0] 9: [0, 1, 2, 3, 4, 5, 6, 7, 8, 9, 10, 11] 10: [0, 1] 11: [0, 1, 2, 3, 4] 12: [0] 13: [3] 14: [0, 1, 2, 3, 4, 5, 6, 7, 8] 15: [0] 16: [0] 17: [0, 1, 2, 3] 18: [0, 1, 2] 19: [1] 20: [4] 21: [3] 22: [4] },{ 0: [0] 1: [0] 2: [1] 3: [0] 4: [1] 5: [7] 6: [0] 7: [0, 1] 8: [0] 9: [0, 1, 2, 3, 4, 5, 6, 7, 8, 9, 10, 11] 10: [0, 1] 11: [0, 1, 2, 3, 4] 12: [0] 13: [3] 14: [0, 1, 2, 3, 4, 5, 6, 7, 8] 15: [0] 16: [0] 17: [0, 1, 2, 3] 18: [0, 1, 2] 19: [1] 20: [4] 21: [3] 22: [4] },{ 0: [0] 1: [0] 2: [1] 3: [0] 4: [1] 5: [6] 6: [0] 7: [0, 1] 8: [0] 9: [0, 1, 2, 3, 4, 5, 6, 7, 8, 9, 10, 11] 10: [0, 1] 11: [0, 1, 2, 3, 4] 12: [0] 13: [0] 14: [0, 1, 2, 3, 4, 5, 6, 7, 8] 15: [1] 16: [0] 17: [0, 1, 2, 3] 18: [0, 1, 2] 19: [1] 20: [4] 21: [3] 22: [4] },{ 0: [0] 1: [0] 2: [1] 3: [0] 4: [1] 5: [6] 6: [0] 7: [0, 1] 8: [0] 9: [0, 1, 2, 3, 4, 5, 6, 7, 8, 9, 10, 11] 10: [0, 1] 11: [0, 1, 2, 3, 4] 12: [0] 13: [0] 14: [0, 1, 2, 3, 4, 5, 6, 7, 8] 15: [1] 16: [0] 17: [0, 1, 2, 3] 18: [0, 1, 2] 19: [1] 20: [4] 21: [3] 22: [4] },{ 0: [0] 1: [0] 2: [1] 3: [0] 4: [1] 5: [6] 6: [0] 7: [0, 1] 8: [0] 9: [0, 1, 2, 3, 4, 5, 6, 7, 8, 9, 10, 11] 10: [0, 1] 11: [0, 1, 2, 3, 4] 12: [0] 13: [0] 14: [0, 1, 2, 3, 4, 5, 6, 7, 8] 15: [1] 16: [0] 17: [0, 1, 2, 3] 18: [0, 1, 2] 19: [1] 20: [4] 21: [3] 22: [4] },{ 0: [0] 1: [0] 2: [1] 3: [0] 4: [1] 5: [7] 6: [0] 7: [0, 1] 8: [0] 9: [0, 1, 2, 3, 4, 5, 6, 7, 8, 9, 10, 11] 10: [0, 1] 11: [0, 1, 2, 3, 4] 12: [0] 13: [3] 14: [0, 1, 2, 3, 4, 5, 6, 7, 8] 15: [0] 16: [0] 17: [0, 1, 2, 3] 18: [0, 1, 2] 19: [1] 20: [4] 21: [3] 22: [4] },{ 0: [0] 1: [0] 2: [1] 3: [0] 4: [1] 5: [6] 6: [0] 7: [0, 1] 8: [0] 9: [0, 1, 2, 3, 4, 5, 6, 7, 8, 9, 10, 11] 10: [0, 1] 11: [0, 1, 2, 3, 4] 12: [0] 13: [0] 14: [0, 1, 2, 3, 4, 5, 6, 7, 8] 15: [1] 16: [0] 17: [0, 1, 2, 3] 18: [0, 1, 2] 19: [1] 20: [4] 21: [3] 22: [4] }
{ 0: [1] 1: [3] 2: [0, 1, 2, 3] 3: [0] 4: [1] 5: [3] 6: [0, 1] 7: [0, 1] 8: [0, 1] 9: [1] 10: [1] 11: [0] 12: [0, 1, 2, 3] 13: [0] 14: [0] 15: [0] 16: [0] 17: [0, 1, 2, 3] 18: [0] 19: [1] 20: [0] 21: [0] 22: [1] },{ 0: [1] 1: [3] 2: [0, 1, 2, 3] 3: [3] 4: [1] 5: [3] 6: [0, 1] 7: [0, 1] 8: [0, 1] 9: [1] 10: [1] 11: [0] 12: [0, 1, 2, 3] 13: [0] 14: [0] 15: [0] 16: [0] 17: [0, 1, 2, 3] 18: [0] 19: [1] 20: [0] 21: [0] 22: [1] },{ 0: [1] 1: [0] 2: [0, 1, 2, 3] 3: [0] 4: [1] 5: [3] 6: [0, 1] 7: [0, 1] 8: [0, 1] 9: [1] 10: [1] 11: [0] 12: [0, 1, 2, 3] 13: [0] 14: [0] 15: [0] 16: [0] 17: [0, 1, 2, 3] 18: [0] 19: [1] 20: [1] 21: [0] 22: [1] },{ 0: [1] 1: [0] 2: [0, 1, 2, 3] 3: [0] 4: [1] 5: [3] 6: [0, 1] 7: [0, 1] 8: [0, 1] 9: [1] 10: [1] 11: [0] 12: [0, 1, 2, 3] 13: [0] 14: [0] 15: [0] 16: [0] 17: [0, 1, 2, 3] 18: [0] 19: [1] 20: [1] 21: [0] 22: [1] },{ 0: [1] 1: [0] 2: [0, 1, 2, 3] 3: [0] 4: [1] 5: [3] 6: [0, 1] 7: [0, 1] 8: [0, 1] 9: [1] 10: [1] 11: [0] 12: [0, 1, 2, 3] 13: [0] 14: [0] 15: [0] 16: [0] 17: [0, 1, 2, 3] 18: [0] 19: [1] 20: [1] 21: [0] 22: [1] },{ 0: [1] 1: [3] 2: [0, 1, 2, 3] 3: [0] 4: [1] 5: [3] 6: [0, 1] 7: [0, 1] 8: [0, 1] 9: [1] 10: [1] 11: [0] 12: [0, 1, 2, 3] 13: [0] 14: [0] 15: [0] 16: [0] 17: [0, 1, 2, 3] 18: [0] 19: [1] 20: [0] 21: [0] 22: [1] },{ 0: [1] 1: [0] 2: [0, 1, 2, 3] 3: [0] 4: [1] 5: [3] 6: [0, 1] 7: [0, 1] 8: [0, 1] 9: [1] 10: [1] 11: [0] 12: [0, 1, 2, 3] 13: [0] 14: [0] 15: [0] 16: [0] 17: [0, 1, 2, 3] 18: [0] 19: [1] 20: [1] 21: [0] 22: [1] }
{ 0: [0, 1] 1: [0, 1, 2, 3, 4, 5] 2: [0] 3: [0] 4: [0, 1] 5: [0, 1, 2, 3, 4, 5, 6, 7, 8] 6: [0] 7: [1] 8: [0, 1] 9: [3] 10: [1] 11: [0] 12: [0] 13: [1] 14: [0] 15: [0] 16: [0] 17: [0] 18: [0, 1, 2] 19: [0, 1, 2, 3, 4] 20: [1] 21: [2] 22: [1] },{ 0: [0, 1] 1: [0, 1, 2, 3, 4, 5] 2: [2] 3: [0] 4: [0, 1] 5: [0, 1, 2, 3, 4, 5, 6, 7, 8] 6: [0] 7: [1] 8: [0, 1] 9: [3] 10: [1] 11: [0] 12: [0] 13: [1] 14: [0] 15: [0] 16: [0] 17: [0] 18: [0, 1, 2] 19: [0, 1, 2, 3, 4] 20: [1] 21: [0] 22: [1] },{ 0: [0, 1] 1: [0, 1, 2, 3, 4, 5] 2: [2] 3: [0] 4: [0, 1] 5: [0, 1, 2, 3, 4, 5, 6, 7, 8] 6: [0] 7: [1] 8: [0, 1] 9: [3] 10: [1] 11: [0] 12: [0] 13: [1] 14: [0] 15: [0] 16: [0] 17: [0] 18: [0, 1, 2] 19: [0, 1, 2, 3, 4] 20: [1] 21: [0] 22: [1] },{ 0: [0, 1] 1: [0, 1, 2, 3, 4, 5] 2: [2] 3: [0] 4: [0, 1] 5: [0, 1, 2, 3, 4, 5, 6, 7, 8] 6: [0] 7: [1] 8: [0, 1] 9: [3] 10: [1] 11: [0] 12: [0] 13: [1] 14: [0] 15: [0] 16: [0] 17: [0] 18: [0, 1, 2] 19: [0, 1, 2, 3, 4] 20: [1] 21: [0] 22: [1] },{ 0: [0, 1] 1: [0, 1, 2, 3, 4, 5] 2: [2] 3: [0] 4: [0, 1] 5: [0, 1, 2, 3, 4, 5, 6, 7, 8] 6: [0] 7: [1] 8: [0, 1] 9: [3] 10: [1] 11: [0] 12: [0] 13: [1] 14: [0] 15: [0] 16: [0] 17: [0] 18: [0, 1, 2] 19: [0, 1, 2, 3, 4] 20: [1] 21: [0] 22: [1] },{ 0: [0, 1] 1: [0, 1, 2, 3, 4, 5] 2: [0] 3: [0] 4: [0, 1] 5: [0, 1, 2, 3, 4, 5, 6, 7, 8] 6: [0] 7: [1] 8: [0, 1] 9: [3] 10: [1] 11: [0] 12: [0] 13: [1] 14: [0] 15: [0] 16: [0] 17: [0] 18: [0, 1, 2] 19: [0, 1, 2, 3, 4] 20: [1] 21: [2] 22: [1] },{ 0: [0, 1] 1: [0, 1, 2, 3, 4, 5] 2: [2] 3: [0] 4: [0, 1] 5: [0, 1, 2, 3, 4, 5, 6, 7, 8] 6: [0] 7: [1] 8: [0, 1] 9: [3] 10: [1] 11: [0] 12: [0] 13: [1] 14: [0] 15: [0] 16: [0] 17: [0] 18: [0, 1, 2] 19: [0, 1, 2, 3, 4] 20: [1] 21: [0] 22: [1] }
{ 0: [0] 1: [0] 2: [0, 1, 2, 3] 3: [4] 4: [1] 5: [6] 6: [0] 7: [0] 8: [0, 1] 9: [8] 10: [0, 1] 11: [0, 1, 2, 3, 4] 12: [2] 13: [3] 14: [2] 15: [1] 16: [0] 17: [0, 1, 2, 3] 18: [0] 19: [0, 1, 2, 3, 4] 20: [4] 21: [3] 22: [0, 1, 2, 3, 4, 5, 6] },{ 0: [0] 1: [0] 2: [0, 1, 2, 3] 3: [4] 4: [1] 5: [6] 6: [0] 7: [0] 8: [0, 1] 9: [8] 10: [0, 1] 11: [0, 1, 2, 3, 4] 12: [2] 13: [3] 14: [2] 15: [1] 16: [0] 17: [0, 1, 2, 3] 18: [0] 19: [0, 1, 2, 3, 4] 20: [4] 21: [3] 22: [0, 1, 2, 3, 4, 5, 6] },{ 0: [0] 1: [3] 2: [0, 1, 2, 3] 3: [4] 4: [1] 5: [7] 6: [0] 7: [0] 8: [0, 1] 9: [8] 10: [0, 1] 11: [0, 1, 2, 3, 4] 12: [2] 13: [3] 14: [2] 15: [1] 16: [0] 17: [0, 1, 2, 3] 18: [0] 19: [0, 1, 2, 3, 4] 20: [4] 21: [3] 22: [0, 1, 2, 3, 4, 5, 6] },{ 0: [0] 1: [3] 2: [0, 1, 2, 3] 3: [4] 4: [1] 5: [7] 6: [0] 7: [0] 8: [0, 1] 9: [8] 10: [0, 1] 11: [0, 1, 2, 3, 4] 12: [2] 13: [3] 14: [2] 15: [1] 16: [0] 17: [0, 1, 2, 3] 18: [0] 19: [0, 1, 2, 3, 4] 20: [4] 21: [3] 22: [0, 1, 2, 3, 4, 5, 6] },{ 0: [0] 1: [3] 2: [0, 1, 2, 3] 3: [4] 4: [1] 5: [7] 6: [0] 7: [0] 8: [0, 1] 9: [8] 10: [0, 1] 11: [0, 1, 2, 3, 4] 12: [2] 13: [3] 14: [2] 15: [1] 16: [0] 17: [0, 1, 2, 3] 18: [0] 19: [0, 1, 2, 3, 4] 20: [4] 21: [3] 22: [0, 1, 2, 3, 4, 5, 6] },{ 0: [0] 1: [0] 2: [0, 1, 2, 3] 3: [4] 4: [1] 5: [6] 6: [0] 7: [0] 8: [0, 1] 9: [8] 10: [0, 1] 11: [0, 1, 2, 3, 4] 12: [2] 13: [3] 14: [2] 15: [1] 16: [0] 17: [0, 1, 2, 3] 18: [0] 19: [0, 1, 2, 3, 4] 20: [4] 21: [3] 22: [0, 1, 2, 3, 4, 5, 6] },{ 0: [0] 1: [3] 2: [0, 1, 2, 3] 3: [4] 4: [1] 5: [7] 6: [0] 7: [0] 8: [0, 1] 9: [8] 10: [0, 1] 11: [0, 1, 2, 3, 4] 12: [2] 13: [3] 14: [2] 15: [1] 16: [0] 17: [0, 1, 2, 3] 18: [0] 19: [0, 1, 2, 3, 4] 20: [4] 21: [3] 22: [0, 1, 2, 3, 4, 5, 6] }
{ 0: [1] 1: [0] 2: [2] 3: [0, 1, 2, 3, 4, 5, 6, 7, 8, 9] 4: [0, 1] 5: [3] 6: [0, 1] 7: [0] 8: [1] 9: [6] 10: [1] 11: [2] 12: [0, 1, 2, 3] 13: [0] 14: [1] 15: [0, 1, 2, 3, 4, 5, 6, 7, 8] 16: [0] 17: [0] 18: [0, 1, 2] 19: [0] 20: [0] 21: [0, 1, 2, 3, 4, 5] 22: [3] },{ 0: [1] 1: [0] 2: [2] 3: [0, 1, 2, 3, 4, 5, 6, 7, 8, 9] 4: [0, 1] 5: [3] 6: [0, 1] 7: [0] 8: [1] 9: [6] 10: [1] 11: [2] 12: [0, 1, 2, 3] 13: [0] 14: [1] 15: [0, 1, 2, 3, 4, 5, 6, 7, 8] 16: [0] 17: [0] 18: [0, 1, 2] 19: [0] 20: [0] 21: [0, 1, 2, 3, 4, 5] 22: [3] },{ 0: [1] 1: [0] 2: [2] 3: [0, 1, 2, 3, 4, 5, 6, 7, 8, 9] 4: [0, 1] 5: [3] 6: [0, 1] 7: [0] 8: [1] 9: [1] 10: [1] 11: [2] 12: [0, 1, 2, 3] 13: [0] 14: [2] 15: [0, 1, 2, 3, 4, 5, 6, 7, 8] 16: [0] 17: [0] 18: [0, 1, 2] 19: [0] 20: [1] 21: [0, 1, 2, 3, 4, 5] 22: [3] },{ 0: [1] 1: [0] 2: [2] 3: [0, 1, 2, 3, 4, 5, 6, 7, 8, 9] 4: [0, 1] 5: [3] 6: [0, 1] 7: [0] 8: [1] 9: [1] 10: [1] 11: [2] 12: [0, 1, 2, 3] 13: [0] 14: [2] 15: [0, 1, 2, 3, 4, 5, 6, 7, 8] 16: [0] 17: [0] 18: [0, 1, 2] 19: [0] 20: [1] 21: [0, 1, 2, 3, 4, 5] 22: [3] },{ 0: [1] 1: [0] 2: [2] 3: [0, 1, 2, 3, 4, 5, 6, 7, 8, 9] 4: [0, 1] 5: [3] 6: [0, 1] 7: [0] 8: [1] 9: [1] 10: [1] 11: [2] 12: [0, 1, 2, 3] 13: [0] 14: [2] 15: [0, 1, 2, 3, 4, 5, 6, 7, 8] 16: [0] 17: [0] 18: [0, 1, 2] 19: [0] 20: [1] 21: [0, 1, 2, 3, 4, 5] 22: [3] },{ 0: [1] 1: [0] 2: [2] 3: [0, 1, 2, 3, 4, 5, 6, 7, 8, 9] 4: [0, 1] 5: [3] 6: [0, 1] 7: [0] 8: [1] 9: [6] 10: [1] 11: [2] 12: [0, 1, 2, 3] 13: [0] 14: [1] 15: [0, 1, 2, 3, 4, 5, 6, 7, 8] 16: [0] 17: [0] 18: [0, 1, 2] 19: [0] 20: [0] 21: [0, 1, 2, 3, 4, 5] 22: [3] },{ 0: [1] 1: [0] 2: [2] 3: [0, 1, 2, 3, 4, 5, 6, 7, 8, 9] 4: [0, 1] 5: [3] 6: [0, 1] 7: [0] 8: [1] 9: [1] 10: [1] 11: [2] 12: [0, 1, 2, 3] 13: [0] 14: [2] 15: [0, 1, 2, 3, 4, 5, 6, 7, 8] 16: [0] 17: [0] 18: [0, 1, 2] 19: [0] 20: [1] 21: [0, 1, 2, 3, 4, 5] 22: [3] }
{ 0: [1] 1: [3] 2: [1] 3: [0, 1, 2, 3, 4, 5, 6, 7, 8, 9] 4: [0] 5: [3] 6: [0, 1] 7: [0, 1] 8: [1] 9: [1] 10: [0, 1] 11: [2] 12: [0] 13: [0] 14: [0, 1, 2, 3, 4, 5, 6, 7, 8] 15: [0, 1, 2, 3, 4, 5, 6, 7, 8] 16: [0] 17: [0] 18: [0] 19: [0] 20: [0, 1, 2, 3, 4, 5, 6, 7, 8] 21: [3] 22: [3] },{ 0: [1] 1: [3] 2: [1] 3: [0, 1, 2, 3, 4, 5, 6, 7, 8, 9] 4: [0] 5: [3] 6: [0, 1] 7: [0, 1] 8: [1] 9: [3] 10: [0, 1] 11: [2] 12: [0] 13: [0] 14: [0, 1, 2, 3, 4, 5, 6, 7, 8] 15: [0, 1, 2, 3, 4, 5, 6, 7, 8] 16: [0] 17: [0] 18: [0] 19: [0] 20: [0, 1, 2, 3, 4, 5, 6, 7, 8] 21: [3] 22: [3] },{ 0: [1] 1: [0] 2: [2] 3: [0, 1, 2, 3, 4, 5, 6, 7, 8, 9] 4: [0] 5: [3] 6: [0, 1] 7: [0, 1] 8: [1] 9: [6] 10: [0, 1] 11: [2] 12: [0] 13: [0] 14: [0, 1, 2, 3, 4, 5, 6, 7, 8] 15: [0, 1, 2, 3, 4, 5, 6, 7, 8] 16: [0] 17: [0] 18: [0] 19: [0] 20: [0, 1, 2, 3, 4, 5, 6, 7, 8] 21: [4] 22: [3] },{ 0: [1] 1: [0] 2: [2] 3: [0, 1, 2, 3, 4, 5, 6, 7, 8, 9] 4: [0] 5: [3] 6: [0, 1] 7: [0, 1] 8: [1] 9: [6] 10: [0, 1] 11: [2] 12: [0] 13: [0] 14: [0, 1, 2, 3, 4, 5, 6, 7, 8] 15: [0, 1, 2, 3, 4, 5, 6, 7, 8] 16: [0] 17: [0] 18: [0] 19: [0] 20: [0, 1, 2, 3, 4, 5, 6, 7, 8] 21: [4] 22: [3] },{ 0: [1] 1: [0] 2: [2] 3: [0, 1, 2, 3, 4, 5, 6, 7, 8, 9] 4: [0] 5: [3] 6: [0, 1] 7: [0, 1] 8: [1] 9: [6] 10: [0, 1] 11: [2] 12: [0] 13: [0] 14: [0, 1, 2, 3, 4, 5, 6, 7, 8] 15: [0, 1, 2, 3, 4, 5, 6, 7, 8] 16: [0] 17: [0] 18: [0] 19: [0] 20: [0, 1, 2, 3, 4, 5, 6, 7, 8] 21: [4] 22: [3] },{ 0: [1] 1: [3] 2: [1] 3: [0, 1, 2, 3, 4, 5, 6, 7, 8, 9] 4: [0] 5: [3] 6: [0, 1] 7: [0, 1] 8: [1] 9: [1] 10: [0, 1] 11: [2] 12: [0] 13: [0] 14: [0, 1, 2, 3, 4, 5, 6, 7, 8] 15: [0, 1, 2, 3, 4, 5, 6, 7, 8] 16: [0] 17: [0] 18: [0] 19: [0] 20: [0, 1, 2, 3, 4, 5, 6, 7, 8] 21: [3] 22: [3] },{ 0: [1] 1: [0] 2: [2] 3: [0, 1, 2, 3, 4, 5, 6, 7, 8, 9] 4: [0] 5: [3] 6: [0, 1] 7: [0, 1] 8: [1] 9: [6] 10: [0, 1] 11: [2] 12: [0] 13: [0] 14: [0, 1, 2, 3, 4, 5, 6, 7, 8] 15: [0, 1, 2, 3, 4, 5, 6, 7, 8] 16: [0] 17: [0] 18: [0] 19: [0] 20: [0, 1, 2, 3, 4, 5, 6, 7, 8] 21: [4] 22: [3] }
{ 0: [1] 1: [0] 2: [0, 1, 2, 3] 3: [0, 1, 2, 3, 4, 5, 6, 7, 8, 9] 4: [0, 1] 5: [3] 6: [0, 1] 7: [0, 1] 8: [1] 9: [1] 10: [1] 11: [2] 12: [0] 13: [0, 1, 2, 3] 14: [0] 15: [2] 16: [0] 17: [0, 1, 2, 3] 18: [0] 19: [0] 20: [1] 21: [4] 22: [3] },{ 0: [1] 1: [0] 2: [0, 1, 2, 3] 3: [0, 1, 2, 3, 4, 5, 6, 7, 8, 9] 4: [0, 1] 5: [3] 6: [0, 1] 7: [0, 1] 8: [1] 9: [1] 10: [1] 11: [2] 12: [0] 13: [0, 1, 2, 3] 14: [0] 15: [2] 16: [0] 17: [0, 1, 2, 3] 18: [0] 19: [0] 20: [1] 21: [4] 22: [3] },{ 0: [1] 1: [3] 2: [0, 1, 2, 3] 3: [0, 1, 2, 3, 4, 5, 6, 7, 8, 9] 4: [0, 1] 5: [3] 6: [0, 1] 7: [0, 1] 8: [1] 9: [3] 10: [1] 11: [2] 12: [0] 13: [0, 1, 2, 3] 14: [0] 15: [2] 16: [0] 17: [0, 1, 2, 3] 18: [0] 19: [0] 20: [0] 21: [4] 22: [3] },{ 0: [1] 1: [3] 2: [0, 1, 2, 3] 3: [0, 1, 2, 3, 4, 5, 6, 7, 8, 9] 4: [0, 1] 5: [3] 6: [0, 1] 7: [0, 1] 8: [1] 9: [3] 10: [1] 11: [2] 12: [0] 13: [0, 1, 2, 3] 14: [0] 15: [2] 16: [0] 17: [0, 1, 2, 3] 18: [0] 19: [0] 20: [0] 21: [4] 22: [3] },{ 0: [1] 1: [3] 2: [0, 1, 2, 3] 3: [0, 1, 2, 3, 4, 5, 6, 7, 8, 9] 4: [0, 1] 5: [3] 6: [0, 1] 7: [0, 1] 8: [1] 9: [3] 10: [1] 11: [2] 12: [0] 13: [0, 1, 2, 3] 14: [0] 15: [2] 16: [0] 17: [0, 1, 2, 3] 18: [0] 19: [0] 20: [0] 21: [4] 22: [3] },{ 0: [1] 1: [0] 2: [0, 1, 2, 3] 3: [0, 1, 2, 3, 4, 5, 6, 7, 8, 9] 4: [0, 1] 5: [3] 6: [0, 1] 7: [0, 1] 8: [1] 9: [1] 10: [1] 11: [2] 12: [0] 13: [0, 1, 2, 3] 14: [0] 15: [2] 16: [0] 17: [0, 1, 2, 3] 18: [0] 19: [0] 20: [1] 21: [4] 22: [3] },{ 0: [1] 1: [3] 2: [0, 1, 2, 3] 3: [0, 1, 2, 3, 4, 5, 6, 7, 8, 9] 4: [0, 1] 5: [3] 6: [0, 1] 7: [0, 1] 8: [1] 9: [3] 10: [1] 11: [2] 12: [0] 13: [0, 1, 2, 3] 14: [0] 15: [2] 16: [0] 17: [0, 1, 2, 3] 18: [0] 19: [0] 20: [0] 21: [4] 22: [3] }
{ 0: [0] 1: [0, 1, 2, 3, 4, 5] 2: [0, 1, 2, 3] 3: [3] 4: [0, 1] 5: [0, 1, 2, 3, 4, 5, 6, 7, 8] 6: [0, 1] 7: [0] 8: [1] 9: [3] 10: [1] 11: [2] 12: [1] 13: [1] 14: [0] 15: [0, 1, 2, 3, 4, 5, 6, 7, 8] 16: [0] 17: [0] 18: [0] 19: [0, 1, 2, 3, 4] 20: [3] 21: [3] 22: [0] },{ 0: [0] 1: [0, 1, 2, 3, 4, 5] 2: [0, 1, 2, 3] 3: [3] 4: [0, 1] 5: [0, 1, 2, 3, 4, 5, 6, 7, 8] 6: [0, 1] 7: [0] 8: [1] 9: [3] 10: [1] 11: [2] 12: [1] 13: [1] 14: [0] 15: [0, 1, 2, 3, 4, 5, 6, 7, 8] 16: [0] 17: [0] 18: [0] 19: [0, 1, 2, 3, 4] 20: [3] 21: [3] 22: [0] },{ 0: [0] 1: [0, 1, 2, 3, 4, 5] 2: [0, 1, 2, 3] 3: [6] 4: [0, 1] 5: [0, 1, 2, 3, 4, 5, 6, 7, 8] 6: [0, 1] 7: [0] 8: [1] 9: [3] 10: [1] 11: [2] 12: [1] 13: [0] 14: [0] 15: [0, 1, 2, 3, 4, 5, 6, 7, 8] 16: [0] 17: [0] 18: [0] 19: [0, 1, 2, 3, 4] 20: [3] 21: [3] 22: [0] },{ 0: [0] 1: [0, 1, 2, 3, 4, 5] 2: [0, 1, 2, 3] 3: [6] 4: [0, 1] 5: [0, 1, 2, 3, 4, 5, 6, 7, 8] 6: [0, 1] 7: [0] 8: [1] 9: [3] 10: [1] 11: [2] 12: [1] 13: [0] 14: [0] 15: [0, 1, 2, 3, 4, 5, 6, 7, 8] 16: [0] 17: [0] 18: [0] 19: [0, 1, 2, 3, 4] 20: [3] 21: [3] 22: [0] },{ 0: [0] 1: [0, 1, 2, 3, 4, 5] 2: [0, 1, 2, 3] 3: [6] 4: [0, 1] 5: [0, 1, 2, 3, 4, 5, 6, 7, 8] 6: [0, 1] 7: [0] 8: [1] 9: [3] 10: [1] 11: [2] 12: [1] 13: [0] 14: [0] 15: [0, 1, 2, 3, 4, 5, 6, 7, 8] 16: [0] 17: [0] 18: [0] 19: [0, 1, 2, 3, 4] 20: [3] 21: [3] 22: [0] },{ 0: [0] 1: [0, 1, 2, 3, 4, 5] 2: [0, 1, 2, 3] 3: [3] 4: [0, 1] 5: [0, 1, 2, 3, 4, 5, 6, 7, 8] 6: [0, 1] 7: [0] 8: [1] 9: [3] 10: [1] 11: [2] 12: [1] 13: [1] 14: [0] 15: [0, 1, 2, 3, 4, 5, 6, 7, 8] 16: [0] 17: [0] 18: [0] 19: [0, 1, 2, 3, 4] 20: [3] 21: [3] 22: [0] },{ 0: [0] 1: [0, 1, 2, 3, 4, 5] 2: [0, 1, 2, 3] 3: [6] 4: [0, 1] 5: [0, 1, 2, 3, 4, 5, 6, 7, 8] 6: [0, 1] 7: [0] 8: [1] 9: [3] 10: [1] 11: [2] 12: [1] 13: [0] 14: [0] 15: [0, 1, 2, 3, 4, 5, 6, 7, 8] 16: [0] 17: [0] 18: [0] 19: [0, 1, 2, 3, 4] 20: [3] 21: [3] 22: [0] }
{ 0: [0] 1: [0, 1, 2, 3, 4, 5] 2: [1] 3: [4] 4: [0, 1] 5: [7] 6: [0] 7: [0] 8: [0, 1] 9: [8] 10: [1] 11: [4] 12: [0, 1, 2, 3] 13: [3] 14: [2] 15: [0] 16: [0] 17: [0, 1, 2, 3] 18: [0, 1, 2] 19: [1] 20: [4] 21: [3] 22: [4] },{ 0: [0] 1: [0, 1, 2, 3, 4, 5] 2: [1] 3: [4] 4: [0, 1] 5: [7] 6: [0] 7: [0] 8: [0, 1] 9: [8] 10: [1] 11: [4] 12: [0, 1, 2, 3] 13: [3] 14: [2] 15: [0] 16: [0] 17: [0, 1, 2, 3] 18: [0, 1, 2] 19: [1] 20: [4] 21: [3] 22: [4] },{ 0: [0] 1: [0, 1, 2, 3, 4, 5] 2: [1] 3: [4] 4: [0, 1] 5: [6] 6: [0] 7: [0] 8: [0, 1] 9: [8] 10: [1] 11: [4] 12: [0, 1, 2, 3] 13: [0] 14: [0] 15: [1] 16: [0] 17: [0, 1, 2, 3] 18: [0, 1, 2] 19: [1] 20: [4] 21: [3] 22: [4] },{ 0: [0] 1: [0, 1, 2, 3, 4, 5] 2: [1] 3: [4] 4: [0, 1] 5: [6] 6: [0] 7: [0] 8: [0, 1] 9: [8] 10: [1] 11: [4] 12: [0, 1, 2, 3] 13: [0] 14: [0] 15: [1] 16: [0] 17: [0, 1, 2, 3] 18: [0, 1, 2] 19: [1] 20: [4] 21: [3] 22: [4] },{ 0: [0] 1: [0, 1, 2, 3, 4, 5] 2: [1] 3: [4] 4: [0, 1] 5: [6] 6: [0] 7: [0] 8: [0, 1] 9: [8] 10: [1] 11: [4] 12: [0, 1, 2, 3] 13: [0] 14: [0] 15: [1] 16: [0] 17: [0, 1, 2, 3] 18: [0, 1, 2] 19: [1] 20: [4] 21: [3] 22: [4] },{ 0: [0] 1: [0, 1, 2, 3, 4, 5] 2: [1] 3: [4] 4: [0, 1] 5: [7] 6: [0] 7: [0] 8: [0, 1] 9: [8] 10: [1] 11: [4] 12: [0, 1, 2, 3] 13: [3] 14: [2] 15: [0] 16: [0] 17: [0, 1, 2, 3] 18: [0, 1, 2] 19: [1] 20: [4] 21: [3] 22: [4] },{ 0: [0] 1: [0, 1, 2, 3, 4, 5] 2: [1] 3: [4] 4: [0, 1] 5: [6] 6: [0] 7: [0] 8: [0, 1] 9: [8] 10: [1] 11: [4] 12: [0, 1, 2, 3] 13: [0] 14: [0] 15: [1] 16: [0] 17: [0, 1, 2, 3] 18: [0, 1, 2] 19: [1] 20: [4] 21: [3] 22: [4] }
{ 0: [0, 1] 1: [0, 1, 2, 3, 4, 5] 2: [0, 1, 2, 3] 3: [6] 4: [0, 1] 5: [4] 6: [0] 7: [0, 1] 8: [1] 9: [3] 10: [1] 11: [2] 12: [1] 13: [0, 1, 2, 3] 14: [0, 1, 2, 3, 4, 5, 6, 7, 8] 15: [0] 16: [0] 17: [0] 18: [0] 19: [0] 20: [3] 21: [3] 22: [1] },{ 0: [0, 1] 1: [0, 1, 2, 3, 4, 5] 2: [0, 1, 2, 3] 3: [2] 4: [0, 1] 5: [4] 6: [0] 7: [0, 1] 8: [1] 9: [3] 10: [1] 11: [2] 12: [1] 13: [0, 1, 2, 3] 14: [0, 1, 2, 3, 4, 5, 6, 7, 8] 15: [0] 16: [0] 17: [0] 18: [0] 19: [0] 20: [3] 21: [3] 22: [1] },{ 0: [0, 1] 1: [0, 1, 2, 3, 4, 5] 2: [0, 1, 2, 3] 3: [2] 4: [0, 1] 5: [4] 6: [0] 7: [0, 1] 8: [1] 9: [3] 10: [1] 11: [2] 12: [1] 13: [0, 1, 2, 3] 14: [0, 1, 2, 3, 4, 5, 6, 7, 8] 15: [0] 16: [0] 17: [0] 18: [0] 19: [0] 20: [3] 21: [3] 22: [1] },{ 0: [0, 1] 1: [0, 1, 2, 3, 4, 5] 2: [0, 1, 2, 3] 3: [2] 4: [0, 1] 5: [4] 6: [0] 7: [0, 1] 8: [1] 9: [3] 10: [1] 11: [2] 12: [1] 13: [0, 1, 2, 3] 14: [0, 1, 2, 3, 4, 5, 6, 7, 8] 15: [0] 16: [0] 17: [0] 18: [0] 19: [0] 20: [3] 21: [3] 22: [1] },{ 0: [0, 1] 1: [0, 1, 2, 3, 4, 5] 2: [0, 1, 2, 3] 3: [2] 4: [0, 1] 5: [4] 6: [0] 7: [0, 1] 8: [1] 9: [3] 10: [1] 11: [2] 12: [1] 13: [0, 1, 2, 3] 14: [0, 1, 2, 3, 4, 5, 6, 7, 8] 15: [0] 16: [0] 17: [0] 18: [0] 19: [0] 20: [3] 21: [3] 22: [1] },{ 0: [0, 1] 1: [0, 1, 2, 3, 4, 5] 2: [0, 1, 2, 3] 3: [6] 4: [0, 1] 5: [4] 6: [0] 7: [0, 1] 8: [1] 9: [3] 10: [1] 11: [2] 12: [1] 13: [0, 1, 2, 3] 14: [0, 1, 2, 3, 4, 5, 6, 7, 8] 15: [0] 16: [0] 17: [0] 18: [0] 19: [0] 20: [3] 21: [3] 22: [1] },{ 0: [0, 1] 1: [0, 1, 2, 3, 4, 5] 2: [0, 1, 2, 3] 3: [2] 4: [0, 1] 5: [4] 6: [0] 7: [0, 1] 8: [1] 9: [3] 10: [1] 11: [2] 12: [1] 13: [0, 1, 2, 3] 14: [0, 1, 2, 3, 4, 5, 6, 7, 8] 15: [0] 16: [0] 17: [0] 18: [0] 19: [0] 20: [3] 21: [3] 22: [1] }
{ 0: [0, 1] 1: [0] 2: [2] 3: [2] 4: [1] 5: [3] 6: [0] 7: [1] 8: [1] 9: [0, 1, 2, 3, 4, 5, 6, 7, 8, 9, 10, 11] 10: [0, 1] 11: [0] 12: [0] 13: [0] 14: [0, 1, 2, 3, 4, 5, 6, 7, 8] 15: [0, 1, 2, 3, 4, 5, 6, 7, 8] 16: [0] 17: [0, 1, 2, 3] 18: [0] 19: [0, 1, 2, 3, 4] 20: [1] 21: [0] 22: [1] },{ 0: [0, 1] 1: [0] 2: [2] 3: [2] 4: [1] 5: [3] 6: [0] 7: [1] 8: [1] 9: [0, 1, 2, 3, 4, 5, 6, 7, 8, 9, 10, 11] 10: [0, 1] 11: [0] 12: [0] 13: [0] 14: [0, 1, 2, 3, 4, 5, 6, 7, 8] 15: [0, 1, 2, 3, 4, 5, 6, 7, 8] 16: [0] 17: [0, 1, 2, 3] 18: [0] 19: [0, 1, 2, 3, 4] 20: [1] 21: [0] 22: [1] },{ 0: [0, 1] 1: [3] 2: [0] 3: [2] 4: [1] 5: [3] 6: [0] 7: [1] 8: [1] 9: [0, 1, 2, 3, 4, 5, 6, 7, 8, 9, 10, 11] 10: [0, 1] 11: [0] 12: [0] 13: [0] 14: [0, 1, 2, 3, 4, 5, 6, 7, 8] 15: [0, 1, 2, 3, 4, 5, 6, 7, 8] 16: [0] 17: [0, 1, 2, 3] 18: [0] 19: [0, 1, 2, 3, 4] 20: [0] 21: [0] 22: [1] },{ 0: [0, 1] 1: [3] 2: [0] 3: [2] 4: [1] 5: [3] 6: [0] 7: [1] 8: [1] 9: [0, 1, 2, 3, 4, 5, 6, 7, 8, 9, 10, 11] 10: [0, 1] 11: [0] 12: [0] 13: [0] 14: [0, 1, 2, 3, 4, 5, 6, 7, 8] 15: [0, 1, 2, 3, 4, 5, 6, 7, 8] 16: [0] 17: [0, 1, 2, 3] 18: [0] 19: [0, 1, 2, 3, 4] 20: [0] 21: [2] 22: [1] },{ 0: [0, 1] 1: [3] 2: [0] 3: [2] 4: [1] 5: [3] 6: [0] 7: [1] 8: [1] 9: [0, 1, 2, 3, 4, 5, 6, 7, 8, 9, 10, 11] 10: [0, 1] 11: [0] 12: [0] 13: [0] 14: [0, 1, 2, 3, 4, 5, 6, 7, 8] 15: [0, 1, 2, 3, 4, 5, 6, 7, 8] 16: [0] 17: [0, 1, 2, 3] 18: [0] 19: [0, 1, 2, 3, 4] 20: [0] 21: [2] 22: [1] },{ 0: [0, 1] 1: [0] 2: [2] 3: [2] 4: [1] 5: [3] 6: [0] 7: [1] 8: [1] 9: [0, 1, 2, 3, 4, 5, 6, 7, 8, 9, 10, 11] 10: [0, 1] 11: [0] 12: [0] 13: [0] 14: [0, 1, 2, 3, 4, 5, 6, 7, 8] 15: [0, 1, 2, 3, 4, 5, 6, 7, 8] 16: [0] 17: [0, 1, 2, 3] 18: [0] 19: [0, 1, 2, 3, 4] 20: [1] 21: [0] 22: [1] },{ 0: [0, 1] 1: [3] 2: [0] 3: [2] 4: [1] 5: [3] 6: [0] 7: [1] 8: [1] 9: [0, 1, 2, 3, 4, 5, 6, 7, 8, 9, 10, 11] 10: [0, 1] 11: [0] 12: [0] 13: [0] 14: [0, 1, 2, 3, 4, 5, 6, 7, 8] 15: [0, 1, 2, 3, 4, 5, 6, 7, 8] 16: [0] 17: [0, 1, 2, 3] 18: [0] 19: [0, 1, 2, 3, 4] 20: [0] 21: [2] 22: [1] }
{ 0: [1] 1: [3] 2: [1] 3: [0, 1, 2, 3, 4, 5, 6, 7, 8, 9] 4: [0, 1] 5: [0, 1, 2, 3, 4, 5, 6, 7, 8] 6: [0, 1] 7: [0] 8: [0, 1] 9: [1] 10: [1] 11: [2] 12: [0] 13: [0] 14: [2] 15: [0, 1, 2, 3, 4, 5, 6, 7, 8] 16: [0] 17: [0, 1, 2, 3] 18: [0] 19: [0] 20: [1] 21: [3] 22: [3] },{ 0: [1] 1: [3] 2: [1] 3: [0, 1, 2, 3, 4, 5, 6, 7, 8, 9] 4: [0, 1] 5: [0, 1, 2, 3, 4, 5, 6, 7, 8] 6: [0, 1] 7: [0] 8: [0, 1] 9: [1] 10: [1] 11: [2] 12: [0] 13: [0] 14: [2] 15: [0, 1, 2, 3, 4, 5, 6, 7, 8] 16: [0] 17: [0, 1, 2, 3] 18: [0] 19: [0] 20: [1] 21: [3] 22: [3] },{ 0: [1] 1: [3] 2: [1] 3: [0, 1, 2, 3, 4, 5, 6, 7, 8, 9] 4: [0, 1] 5: [0, 1, 2, 3, 4, 5, 6, 7, 8] 6: [0, 1] 7: [0] 8: [0, 1] 9: [3] 10: [1] 11: [2] 12: [0] 13: [0] 14: [0] 15: [0, 1, 2, 3, 4, 5, 6, 7, 8] 16: [0] 17: [0, 1, 2, 3] 18: [0] 19: [0] 20: [0] 21: [3] 22: [3] },{ 0: [1] 1: [3] 2: [1] 3: [0, 1, 2, 3, 4, 5, 6, 7, 8, 9] 4: [0, 1] 5: [0, 1, 2, 3, 4, 5, 6, 7, 8] 6: [0, 1] 7: [0] 8: [0, 1] 9: [3] 10: [1] 11: [2] 12: [0] 13: [0] 14: [0] 15: [0, 1, 2, 3, 4, 5, 6, 7, 8] 16: [0] 17: [0, 1, 2, 3] 18: [0] 19: [0] 20: [0] 21: [3] 22: [3] },{ 0: [1] 1: [3] 2: [1] 3: [0, 1, 2, 3, 4, 5, 6, 7, 8, 9] 4: [0, 1] 5: [0, 1, 2, 3, 4, 5, 6, 7, 8] 6: [0, 1] 7: [0] 8: [0, 1] 9: [3] 10: [1] 11: [2] 12: [0] 13: [0] 14: [0] 15: [0, 1, 2, 3, 4, 5, 6, 7, 8] 16: [0] 17: [0, 1, 2, 3] 18: [0] 19: [0] 20: [0] 21: [3] 22: [3] },{ 0: [1] 1: [3] 2: [1] 3: [0, 1, 2, 3, 4, 5, 6, 7, 8, 9] 4: [0, 1] 5: [0, 1, 2, 3, 4, 5, 6, 7, 8] 6: [0, 1] 7: [0] 8: [0, 1] 9: [1] 10: [1] 11: [2] 12: [0] 13: [0] 14: [2] 15: [0, 1, 2, 3, 4, 5, 6, 7, 8] 16: [0] 17: [0, 1, 2, 3] 18: [0] 19: [0] 20: [1] 21: [3] 22: [3] },{ 0: [1] 1: [3] 2: [1] 3: [0, 1, 2, 3, 4, 5, 6, 7, 8, 9] 4: [0, 1] 5: [0, 1, 2, 3, 4, 5, 6, 7, 8] 6: [0, 1] 7: [0] 8: [0, 1] 9: [3] 10: [1] 11: [2] 12: [0] 13: [0] 14: [0] 15: [0, 1, 2, 3, 4, 5, 6, 7, 8] 16: [0] 17: [0, 1, 2, 3] 18: [0] 19: [0] 20: [0] 21: [3] 22: [3] }
{ 0: [1] 1: [0, 1, 2, 3, 4, 5] 2: [0, 1, 2, 3] 3: [0, 1, 2, 3, 4, 5, 6, 7, 8, 9] 4: [1] 5: [3] 6: [0] 7: [0, 1] 8: [0, 1] 9: [5] 10: [1] 11: [0] 12: [1] 13: [0] 14: [0] 15: [0] 16: [0] 17: [0] 18: [0] 19: [0, 1, 2, 3, 4] 20: [0] 21: [0] 22: [0, 1, 2, 3, 4, 5, 6] },{ 0: [1] 1: [0, 1, 2, 3, 4, 5] 2: [0, 1, 2, 3] 3: [0, 1, 2, 3, 4, 5, 6, 7, 8, 9] 4: [1] 5: [3] 6: [0] 7: [0, 1] 8: [0, 1] 9: [5] 10: [1] 11: [0] 12: [1] 13: [0] 14: [0] 15: [0] 16: [0] 17: [0] 18: [0] 19: [0, 1, 2, 3, 4] 20: [0] 21: [0] 22: [0, 1, 2, 3, 4, 5, 6] },{ 0: [1] 1: [0, 1, 2, 3, 4, 5] 2: [0, 1, 2, 3] 3: [0, 1, 2, 3, 4, 5, 6, 7, 8, 9] 4: [1] 5: [3] 6: [0] 7: [0, 1] 8: [0, 1] 9: [5] 10: [1] 11: [0] 12: [1] 13: [1] 14: [0] 15: [0] 16: [0] 17: [0] 18: [0] 19: [0, 1, 2, 3, 4] 20: [0] 21: [2] 22: [0, 1, 2, 3, 4, 5, 6] },{ 0: [1] 1: [0, 1, 2, 3, 4, 5] 2: [0, 1, 2, 3] 3: [0, 1, 2, 3, 4, 5, 6, 7, 8, 9] 4: [1] 5: [3] 6: [0] 7: [0, 1] 8: [0, 1] 9: [5] 10: [1] 11: [0] 12: [1] 13: [1] 14: [0] 15: [0] 16: [0] 17: [0] 18: [0] 19: [0, 1, 2, 3, 4] 20: [0] 21: [2] 22: [0, 1, 2, 3, 4, 5, 6] },{ 0: [1] 1: [0, 1, 2, 3, 4, 5] 2: [0, 1, 2, 3] 3: [0, 1, 2, 3, 4, 5, 6, 7, 8, 9] 4: [1] 5: [3] 6: [0] 7: [0, 1] 8: [0, 1] 9: [5] 10: [1] 11: [0] 12: [1] 13: [1] 14: [0] 15: [0] 16: [0] 17: [0] 18: [0] 19: [0, 1, 2, 3, 4] 20: [0] 21: [2] 22: [0, 1, 2, 3, 4, 5, 6] },{ 0: [1] 1: [0, 1, 2, 3, 4, 5] 2: [0, 1, 2, 3] 3: [0, 1, 2, 3, 4, 5, 6, 7, 8, 9] 4: [1] 5: [3] 6: [0] 7: [0, 1] 8: [0, 1] 9: [5] 10: [1] 11: [0] 12: [1] 13: [0] 14: [0] 15: [0] 16: [0] 17: [0] 18: [0] 19: [0, 1, 2, 3, 4] 20: [0] 21: [0] 22: [0, 1, 2, 3, 4, 5, 6] },{ 0: [1] 1: [0, 1, 2, 3, 4, 5] 2: [0, 1, 2, 3] 3: [0, 1, 2, 3, 4, 5, 6, 7, 8, 9] 4: [1] 5: [3] 6: [0] 7: [0, 1] 8: [0, 1] 9: [5] 10: [1] 11: [0] 12: [1] 13: [1] 14: [0] 15: [0] 16: [0] 17: [0] 18: [0] 19: [0, 1, 2, 3, 4] 20: [0] 21: [2] 22: [0, 1, 2, 3, 4, 5, 6] }
{ 0: [1] 1: [3] 2: [0] 3: [0] 4: [0, 1] 5: [0, 1, 2, 3, 4, 5, 6, 7, 8] 6: [0] 7: [1] 8: [1] 9: [5] 10: [0, 1] 11: [0] 12: [0, 1, 2, 3] 13: [1] 14: [0] 15: [0, 1, 2, 3, 4, 5, 6, 7, 8] 16: [0] 17: [0] 18: [0] 19: [0, 1, 2, 3, 4] 20: [0] 21: [2] 22: [1] },{ 0: [1] 1: [3] 2: [0] 3: [3] 4: [0, 1] 5: [0, 1, 2, 3, 4, 5, 6, 7, 8] 6: [0] 7: [1] 8: [1] 9: [5] 10: [0, 1] 11: [0] 12: [0, 1, 2, 3] 13: [1] 14: [0] 15: [0, 1, 2, 3, 4, 5, 6, 7, 8] 16: [0] 17: [0] 18: [0] 19: [0, 1, 2, 3, 4] 20: [0] 21: [2] 22: [1] },{ 0: [1] 1: [3] 2: [0] 3: [2] 4: [0, 1] 5: [0, 1, 2, 3, 4, 5, 6, 7, 8] 6: [0] 7: [1] 8: [1] 9: [5] 10: [0, 1] 11: [0] 12: [0, 1, 2, 3] 13: [0] 14: [0] 15: [0, 1, 2, 3, 4, 5, 6, 7, 8] 16: [0] 17: [0] 18: [0] 19: [0, 1, 2, 3, 4] 20: [0] 21: [2] 22: [1] },{ 0: [1] 1: [3] 2: [0] 3: [2] 4: [0, 1] 5: [0, 1, 2, 3, 4, 5, 6, 7, 8] 6: [0] 7: [1] 8: [1] 9: [5] 10: [0, 1] 11: [0] 12: [0, 1, 2, 3] 13: [0] 14: [0] 15: [0, 1, 2, 3, 4, 5, 6, 7, 8] 16: [0] 17: [0] 18: [0] 19: [0, 1, 2, 3, 4] 20: [0] 21: [2] 22: [1] },{ 0: [1] 1: [3] 2: [0] 3: [3] 4: [0, 1] 5: [0, 1, 2, 3, 4, 5, 6, 7, 8] 6: [0] 7: [1] 8: [1] 9: [5] 10: [0, 1] 11: [0] 12: [0, 1, 2, 3] 13: [1] 14: [0] 15: [0, 1, 2, 3, 4, 5, 6, 7, 8] 16: [0] 17: [0] 18: [0] 19: [0, 1, 2, 3, 4] 20: [0] 21: [2] 22: [1] },{ 0: [1] 1: [3] 2: [0] 3: [0] 4: [0, 1] 5: [0, 1, 2, 3, 4, 5, 6, 7, 8] 6: [0] 7: [1] 8: [1] 9: [5] 10: [0, 1] 11: [0] 12: [0, 1, 2, 3] 13: [1] 14: [0] 15: [0, 1, 2, 3, 4, 5, 6, 7, 8] 16: [0] 17: [0] 18: [0] 19: [0, 1, 2, 3, 4] 20: [0] 21: [2] 22: [1] },{ 0: [1] 1: [3] 2: [0] 3: [3] 4: [0, 1] 5: [0, 1, 2, 3, 4, 5, 6, 7, 8] 6: [0] 7: [1] 8: [1] 9: [5] 10: [0, 1] 11: [0] 12: [0, 1, 2, 3] 13: [1] 14: [0] 15: [0, 1, 2, 3, 4, 5, 6, 7, 8] 16: [0] 17: [0] 18: [0] 19: [0, 1, 2, 3, 4] 20: [0] 21: [2] 22: [1] }
{ 0: [0, 1] 1: [0] 2: [2] 3: [1] 4: [0, 1] 5: [0, 1, 2, 3, 4, 5, 6, 7, 8] 6: [0] 7: [0] 8: [1] 9: [3] 10: [0] 11: [2] 12: [0, 1, 2, 3] 13: [3] 14: [0, 1, 2, 3, 4, 5, 6, 7, 8] 15: [0, 1, 2, 3, 4, 5, 6, 7, 8] 16: [0] 17: [0] 18: [0] 19: [2] 20: [0, 1, 2, 3, 4, 5, 6, 7, 8] 21: [3] 22: [3] },{ 0: [0, 1] 1: [0] 2: [2] 3: [3] 4: [0, 1] 5: [0, 1, 2, 3, 4, 5, 6, 7, 8] 6: [0] 7: [0] 8: [1] 9: [3] 10: [0] 11: [2] 12: [0, 1, 2, 3] 13: [3] 14: [0, 1, 2, 3, 4, 5, 6, 7, 8] 15: [0, 1, 2, 3, 4, 5, 6, 7, 8] 16: [0] 17: [0] 18: [0] 19: [2] 20: [0, 1, 2, 3, 4, 5, 6, 7, 8] 21: [3] 22: [3] },{ 0: [0, 1] 1: [0] 2: [2] 3: [3] 4: [0, 1] 5: [0, 1, 2, 3, 4, 5, 6, 7, 8] 6: [0] 7: [0] 8: [1] 9: [3] 10: [0] 11: [2] 12: [0, 1, 2, 3] 13: [3] 14: [0, 1, 2, 3, 4, 5, 6, 7, 8] 15: [0, 1, 2, 3, 4, 5, 6, 7, 8] 16: [0] 17: [0] 18: [0] 19: [2] 20: [0, 1, 2, 3, 4, 5, 6, 7, 8] 21: [3] 22: [3] },{ 0: [0, 1] 1: [0] 2: [2] 3: [3] 4: [0, 1] 5: [0, 1, 2, 3, 4, 5, 6, 7, 8] 6: [0] 7: [0] 8: [1] 9: [3] 10: [0] 11: [2] 12: [0, 1, 2, 3] 13: [3] 14: [0, 1, 2, 3, 4, 5, 6, 7, 8] 15: [0, 1, 2, 3, 4, 5, 6, 7, 8] 16: [0] 17: [0] 18: [0] 19: [2] 20: [0, 1, 2, 3, 4, 5, 6, 7, 8] 21: [3] 22: [3] },{ 0: [0, 1] 1: [0] 2: [2] 3: [3] 4: [0, 1] 5: [0, 1, 2, 3, 4, 5, 6, 7, 8] 6: [0] 7: [0] 8: [1] 9: [3] 10: [0] 11: [2] 12: [0, 1, 2, 3] 13: [3] 14: [0, 1, 2, 3, 4, 5, 6, 7, 8] 15: [0, 1, 2, 3, 4, 5, 6, 7, 8] 16: [0] 17: [0] 18: [0] 19: [2] 20: [0, 1, 2, 3, 4, 5, 6, 7, 8] 21: [3] 22: [3] },{ 0: [0, 1] 1: [0] 2: [2] 3: [1] 4: [0, 1] 5: [0, 1, 2, 3, 4, 5, 6, 7, 8] 6: [0] 7: [0] 8: [1] 9: [3] 10: [0] 11: [2] 12: [0, 1, 2, 3] 13: [3] 14: [0, 1, 2, 3, 4, 5, 6, 7, 8] 15: [0, 1, 2, 3, 4, 5, 6, 7, 8] 16: [0] 17: [0] 18: [0] 19: [2] 20: [0, 1, 2, 3, 4, 5, 6, 7, 8] 21: [3] 22: [3] },{ 0: [0, 1] 1: [0] 2: [2] 3: [3] 4: [0, 1] 5: [0, 1, 2, 3, 4, 5, 6, 7, 8] 6: [0] 7: [0] 8: [1] 9: [3] 10: [0] 11: [2] 12: [0, 1, 2, 3] 13: [3] 14: [0, 1, 2, 3, 4, 5, 6, 7, 8] 15: [0, 1, 2, 3, 4, 5, 6, 7, 8] 16: [0] 17: [0] 18: [0] 19: [2] 20: [0, 1, 2, 3, 4, 5, 6, 7, 8] 21: [3] 22: [3] }
{ 0: [0] 1: [0] 2: [0, 1, 2, 3] 3: [0] 4: [1] 5: [6] 6: [0] 7: [0, 1] 8: [0, 1] 9: [8] 10: [1] 11: [4] 12: [2] 13: [3] 14: [0] 15: [0, 1, 2, 3, 4, 5, 6, 7, 8] 16: [0] 17: [0] 18: [0] 19: [0, 1, 2, 3, 4] 20: [0, 1, 2, 3, 4, 5, 6, 7, 8] 21: [3] 22: [0, 1, 2, 3, 4, 5, 6] },{ 0: [0] 1: [0] 2: [0, 1, 2, 3] 3: [4] 4: [1] 5: [6] 6: [0] 7: [0, 1] 8: [0, 1] 9: [8] 10: [1] 11: [4] 12: [2] 13: [0] 14: [0] 15: [0, 1, 2, 3, 4, 5, 6, 7, 8] 16: [0] 17: [0] 18: [0] 19: [0, 1, 2, 3, 4] 20: [0, 1, 2, 3, 4, 5, 6, 7, 8] 21: [3] 22: [0, 1, 2, 3, 4, 5, 6] },{ 0: [0] 1: [0] 2: [0, 1, 2, 3] 3: [4] 4: [1] 5: [6] 6: [0] 7: [0, 1] 8: [0, 1] 9: [8] 10: [1] 11: [4] 12: [2] 13: [0] 14: [0] 15: [0, 1, 2, 3, 4, 5, 6, 7, 8] 16: [0] 17: [0] 18: [0] 19: [0, 1, 2, 3, 4] 20: [0, 1, 2, 3, 4, 5, 6, 7, 8] 21: [3] 22: [0, 1, 2, 3, 4, 5, 6] },{ 0: [0] 1: [0] 2: [0, 1, 2, 3] 3: [4] 4: [1] 5: [6] 6: [0] 7: [0, 1] 8: [0, 1] 9: [8] 10: [1] 11: [4] 12: [2] 13: [0] 14: [0] 15: [0, 1, 2, 3, 4, 5, 6, 7, 8] 16: [0] 17: [0] 18: [0] 19: [0, 1, 2, 3, 4] 20: [0, 1, 2, 3, 4, 5, 6, 7, 8] 21: [3] 22: [0, 1, 2, 3, 4, 5, 6] },{ 0: [0] 1: [0] 2: [0, 1, 2, 3] 3: [4] 4: [1] 5: [6] 6: [0] 7: [0, 1] 8: [0, 1] 9: [8] 10: [1] 11: [4] 12: [2] 13: [0] 14: [0] 15: [0, 1, 2, 3, 4, 5, 6, 7, 8] 16: [0] 17: [0] 18: [0] 19: [0, 1, 2, 3, 4] 20: [0, 1, 2, 3, 4, 5, 6, 7, 8] 21: [3] 22: [0, 1, 2, 3, 4, 5, 6] },{ 0: [0] 1: [0] 2: [0, 1, 2, 3] 3: [0] 4: [1] 5: [6] 6: [0] 7: [0, 1] 8: [0, 1] 9: [8] 10: [1] 11: [4] 12: [2] 13: [3] 14: [0] 15: [0, 1, 2, 3, 4, 5, 6, 7, 8] 16: [0] 17: [0] 18: [0] 19: [0, 1, 2, 3, 4] 20: [0, 1, 2, 3, 4, 5, 6, 7, 8] 21: [3] 22: [0, 1, 2, 3, 4, 5, 6] },{ 0: [0] 1: [0] 2: [0, 1, 2, 3] 3: [4] 4: [1] 5: [6] 6: [0] 7: [0, 1] 8: [0, 1] 9: [8] 10: [1] 11: [4] 12: [2] 13: [0] 14: [0] 15: [0, 1, 2, 3, 4, 5, 6, 7, 8] 16: [0] 17: [0] 18: [0] 19: [0, 1, 2, 3, 4] 20: [0, 1, 2, 3, 4, 5, 6, 7, 8] 21: [3] 22: [0, 1, 2, 3, 4, 5, 6] }
{ 0: [0, 1] 1: [3] 2: [2] 3: [4] 4: [0, 1] 5: [3] 6: [0] 7: [0, 1] 8: [1] 9: [4] 10: [0, 1] 11: [2] 12: [0] 13: [0] 14: [0, 1, 2, 3, 4, 5, 6, 7, 8] 15: [1] 16: [0] 17: [0] 18: [0] 19: [0] 20: [0, 1, 2, 3, 4, 5, 6, 7, 8] 21: [0, 1, 2, 3, 4, 5] 22: [3] },{ 0: [0, 1] 1: [3] 2: [1] 3: [4] 4: [0, 1] 5: [3] 6: [0] 7: [0, 1] 8: [1] 9: [4] 10: [0, 1] 11: [2] 12: [0] 13: [0] 14: [0, 1, 2, 3, 4, 5, 6, 7, 8] 15: [1] 16: [0] 17: [0] 18: [0] 19: [0] 20: [0, 1, 2, 3, 4, 5, 6, 7, 8] 21: [0, 1, 2, 3, 4, 5] 22: [3] },{ 0: [0, 1] 1: [3] 2: [1] 3: [4] 4: [0, 1] 5: [3] 6: [0] 7: [0, 1] 8: [1] 9: [4] 10: [0, 1] 11: [2] 12: [0] 13: [0] 14: [0, 1, 2, 3, 4, 5, 6, 7, 8] 15: [1] 16: [0] 17: [0] 18: [0] 19: [0] 20: [0, 1, 2, 3, 4, 5, 6, 7, 8] 21: [0, 1, 2, 3, 4, 5] 22: [3] },{ 0: [0, 1] 1: [3] 2: [1] 3: [4] 4: [0, 1] 5: [3] 6: [0] 7: [0, 1] 8: [1] 9: [4] 10: [0, 1] 11: [2] 12: [0] 13: [0] 14: [0, 1, 2, 3, 4, 5, 6, 7, 8] 15: [1] 16: [0] 17: [0] 18: [0] 19: [0] 20: [0, 1, 2, 3, 4, 5, 6, 7, 8] 21: [0, 1, 2, 3, 4, 5] 22: [3] },{ 0: [0, 1] 1: [3] 2: [1] 3: [4] 4: [0, 1] 5: [3] 6: [0] 7: [0, 1] 8: [1] 9: [4] 10: [0, 1] 11: [2] 12: [0] 13: [0] 14: [0, 1, 2, 3, 4, 5, 6, 7, 8] 15: [1] 16: [0] 17: [0] 18: [0] 19: [0] 20: [0, 1, 2, 3, 4, 5, 6, 7, 8] 21: [0, 1, 2, 3, 4, 5] 22: [3] },{ 0: [0, 1] 1: [3] 2: [2] 3: [4] 4: [0, 1] 5: [3] 6: [0] 7: [0, 1] 8: [1] 9: [4] 10: [0, 1] 11: [2] 12: [0] 13: [0] 14: [0, 1, 2, 3, 4, 5, 6, 7, 8] 15: [1] 16: [0] 17: [0] 18: [0] 19: [0] 20: [0, 1, 2, 3, 4, 5, 6, 7, 8] 21: [0, 1, 2, 3, 4, 5] 22: [3] },{ 0: [0, 1] 1: [3] 2: [1] 3: [4] 4: [0, 1] 5: [3] 6: [0] 7: [0, 1] 8: [1] 9: [4] 10: [0, 1] 11: [2] 12: [0] 13: [0] 14: [0, 1, 2, 3, 4, 5, 6, 7, 8] 15: [1] 16: [0] 17: [0] 18: [0] 19: [0] 20: [0, 1, 2, 3, 4, 5, 6, 7, 8] 21: [0, 1, 2, 3, 4, 5] 22: [3] }
