{ 0: [0, 1] 1: [1] 2: [0, 1] 3: [0, 1] 4: [0, 1] 5: [1] 6: [0] 7: [0, 1] 8: [1] 9: [0, 1] 10: [0] 11: [1] 12: [0, 1] 13: [0, 1] 14: [0] 15: [1] },{ 0: [0, 1] 1: [0] 2: [0, 1] 3: [0, 1] 4: [0, 1] 5: [1] 6: [0] 7: [0, 1] 8: [0] 9: [0, 1] 10: [0] 11: [1] 12: [0, 1] 13: [0, 1] 14: [0] 15: [1] },{ 0: [0, 1] 1: [0] 2: [0, 1] 3: [0, 1] 4: [0, 1] 5: [1] 6: [0] 7: [0, 1] 8: [0] 9: [0, 1] 10: [0] 11: [1] 12: [0, 1] 13: [0, 1] 14: [0] 15: [1] },{ 0: [0, 1] 1: [0] 2: [0, 1] 3: [0, 1] 4: [0, 1] 5: [1] 6: [0] 7: [0, 1] 8: [0] 9: [0, 1] 10: [0] 11: [1] 12: [0, 1] 13: [0, 1] 14: [0] 15: [1] },{ 0: [0, 1] 1: [0] 2: [0, 1] 3: [0, 1] 4: [0, 1] 5: [1] 6: [0] 7: [0, 1] 8: [0] 9: [0, 1] 10: [0] 11: [1] 12: [0, 1] 13: [0, 1] 14: [0] 15: [1] },{ 0: [0, 1] 1: [1] 2: [0, 1] 3: [0, 1] 4: [0, 1] 5: [1] 6: [0] 7: [0, 1] 8: [1] 9: [0, 1] 10: [0] 11: [1] 12: [0, 1] 13: [0, 1] 14: [0] 15: [1] },{ 0: [0, 1] 1: [0] 2: [0, 1] 3: [0, 1] 4: [0, 1] 5: [1] 6: [0] 7: [0, 1] 8: [0] 9: [0, 1] 10: [0] 11: [1] 12: [0, 1] 13: [0, 1] 14: [0] 15: [1] }
{ 0: [1] 1: [0] 2: [1] 3: [0] 4: [0, 1] 5: [1] 6: [0, 1] 7: [1] 8: [0] 9: [0, 1] 10: [0, 1] 11: [0] 12: [0, 1] 13: [0, 1] 14: [0, 1] 15: [0, 1] },{ 0: [1] 1: [0] 2: [1] 3: [0] 4: [0, 1] 5: [1] 6: [0, 1] 7: [1] 8: [0] 9: [0, 1] 10: [0, 1] 11: [0] 12: [0, 1] 13: [0, 1] 14: [0, 1] 15: [0, 1] },{ 0: [1] 1: [1] 2: [1] 3: [0] 4: [0, 1] 5: [1] 6: [0, 1] 7: [1] 8: [1] 9: [0, 1] 10: [0, 1] 11: [0] 12: [0, 1] 13: [0, 1] 14: [0, 1] 15: [0, 1] },{ 0: [1] 1: [1] 2: [1] 3: [0] 4: [0, 1] 5: [1] 6: [0, 1] 7: [1] 8: [1] 9: [0, 1] 10: [0, 1] 11: [0] 12: [0, 1] 13: [0, 1] 14: [0, 1] 15: [0, 1] },{ 0: [1] 1: [1] 2: [1] 3: [0] 4: [0, 1] 5: [1] 6: [0, 1] 7: [1] 8: [1] 9: [0, 1] 10: [0, 1] 11: [0] 12: [0, 1] 13: [0, 1] 14: [0, 1] 15: [0, 1] },{ 0: [1] 1: [0] 2: [1] 3: [0] 4: [0, 1] 5: [1] 6: [0, 1] 7: [1] 8: [0] 9: [0, 1] 10: [0, 1] 11: [0] 12: [0, 1] 13: [0, 1] 14: [0, 1] 15: [0, 1] },{ 0: [1] 1: [1] 2: [1] 3: [0] 4: [0, 1] 5: [1] 6: [0, 1] 7: [1] 8: [1] 9: [0, 1] 10: [0, 1] 11: [0] 12: [0, 1] 13: [0, 1] 14: [0, 1] 15: [0, 1] }
{ 0: [0] 1: [0, 1] 2: [0] 3: [0] 4: [0, 1] 5: [0, 1] 6: [0, 1] 7: [0, 1] 8: [0] 9: [0] 10: [0, 1] 11: [0, 1] 12: [0] 13: [0, 1] 14: [0] 15: [1] },{ 0: [0] 1: [0, 1] 2: [0] 3: [0] 4: [0, 1] 5: [0, 1] 6: [0, 1] 7: [0, 1] 8: [0] 9: [1] 10: [0, 1] 11: [0, 1] 12: [0] 13: [0, 1] 14: [0] 15: [1] },{ 0: [0] 1: [0, 1] 2: [0] 3: [0] 4: [0, 1] 5: [0, 1] 6: [0, 1] 7: [0, 1] 8: [0] 9: [1] 10: [0, 1] 11: [0, 1] 12: [0] 13: [0, 1] 14: [0] 15: [1] },{ 0: [0] 1: [0, 1] 2: [0] 3: [0] 4: [0, 1] 5: [0, 1] 6: [0, 1] 7: [0, 1] 8: [0] 9: [1] 10: [0, 1] 11: [0, 1] 12: [0] 13: [0, 1] 14: [0] 15: [1] },{ 0: [0] 1: [0, 1] 2: [0] 3: [0] 4: [0, 1] 5: [0, 1] 6: [0, 1] 7: [0, 1] 8: [0] 9: [1] 10: [0, 1] 11: [0, 1] 12: [0] 13: [0, 1] 14: [0] 15: [1] },{ 0: [0] 1: [0, 1] 2: [0] 3: [0] 4: [0, 1] 5: [0, 1] 6: [0, 1] 7: [0, 1] 8: [0] 9: [0] 10: [0, 1] 11: [0, 1] 12: [0] 13: [0, 1] 14: [0] 15: [1] },{ 0: [0] 1: [0, 1] 2: [0] 3: [0] 4: [0, 1] 5: [0, 1] 6: [0, 1] 7: [0, 1] 8: [0] 9: [1] 10: [0, 1] 11: [0, 1] 12: [0] 13: [0, 1] 14: [0] 15: [1] }
{ 0: [1] 1: [1] 2: [0, 1] 3: [0] 4: [0] 5: [1] 6: [0, 1] 7: [0, 1] 8: [0, 1] 9: [1] 10: [1] 11: [0, 1] 12: [1] 13: [0, 1] 14: [0, 1] 15: [0, 1] },{ 0: [1] 1: [1] 2: [0, 1] 3: [0] 4: [0] 5: [1] 6: [0, 1] 7: [0, 1] 8: [0, 1] 9: [1] 10: [1] 11: [0, 1] 12: [1] 13: [0, 1] 14: [0, 1] 15: [0, 1] },{ 0: [1] 1: [0] 2: [0, 1] 3: [1] 4: [0] 5: [1] 6: [0, 1] 7: [0, 1] 8: [0, 1] 9: [1] 10: [0] 11: [0, 1] 12: [0] 13: [0, 1] 14: [0, 1] 15: [0, 1] },{ 0: [1] 1: [1] 2: [0, 1] 3: [1] 4: [0] 5: [1] 6: [0, 1] 7: [0, 1] 8: [0, 1] 9: [1] 10: [0] 11: [0, 1] 12: [0] 13: [0, 1] 14: [0, 1] 15: [0, 1] },{ 0: [1] 1: [1] 2: [0, 1] 3: [1] 4: [0] 5: [1] 6: [0, 1] 7: [0, 1] 8: [0, 1] 9: [1] 10: [0] 11: [0, 1] 12: [0] 13: [0, 1] 14: [0, 1] 15: [0, 1] },{ 0: [1] 1: [1] 2: [0, 1] 3: [0] 4: [0] 5: [1] 6: [0, 1] 7: [0, 1] 8: [0, 1] 9: [1] 10: [1] 11: [0, 1] 12: [1] 13: [0, 1] 14: [0, 1] 15: [0, 1] },{ 0: [1] 1: [1] 2: [0, 1] 3: [1] 4: [0] 5: [1] 6: [0, 1] 7: [0, 1] 8: [0, 1] 9: [1] 10: [0] 11: [0, 1] 12: [0] 13: [0, 1] 14: [0, 1] 15: [0, 1] }
{ 0: [0, 1] 1: [0, 1] 2: [0] 3: [1] 4: [0, 1] 5: [0, 1] 6: [0, 1] 7: [0, 1] 8: [0] 9: [0] 10: [1] 11: [1] 12: [0, 1] 13: [1] 14: [0, 1] 15: [1] },{ 0: [0, 1] 1: [0, 1] 2: [0] 3: [0] 4: [0, 1] 5: [0, 1] 6: [0, 1] 7: [0, 1] 8: [0] 9: [0] 10: [1] 11: [1] 12: [0, 1] 13: [1] 14: [0, 1] 15: [1] },{ 0: [0, 1] 1: [0, 1] 2: [0] 3: [0] 4: [0, 1] 5: [0, 1] 6: [0, 1] 7: [0, 1] 8: [0] 9: [0] 10: [1] 11: [1] 12: [0, 1] 13: [1] 14: [0, 1] 15: [1] },{ 0: [0, 1] 1: [0, 1] 2: [0] 3: [0] 4: [0, 1] 5: [0, 1] 6: [0, 1] 7: [0, 1] 8: [0] 9: [0] 10: [1] 11: [1] 12: [0, 1] 13: [1] 14: [0, 1] 15: [1] },{ 0: [0, 1] 1: [0, 1] 2: [0] 3: [0] 4: [0, 1] 5: [0, 1] 6: [0, 1] 7: [0, 1] 8: [0] 9: [0] 10: [1] 11: [1] 12: [0, 1] 13: [1] 14: [0, 1] 15: [1] },{ 0: [0, 1] 1: [0, 1] 2: [0] 3: [1] 4: [0, 1] 5: [0, 1] 6: [0, 1] 7: [0, 1] 8: [0] 9: [0] 10: [1] 11: [1] 12: [0, 1] 13: [1] 14: [0, 1] 15: [1] },{ 0: [0, 1] 1: [0, 1] 2: [0] 3: [0] 4: [0, 1] 5: [0, 1] 6: [0, 1] 7: [0, 1] 8: [0] 9: [0] 10: [1] 11: [1] 12: [0, 1] 13: [1] 14: [0, 1] 15: [1] }
{ 0: [0] 1: [0, 1] 2: [1] 3: [1] 4: [0, 1] 5: [1] 6: [0, 1] 7: [1] 8: [0, 1] 9: [0, 1] 10: [0, 1] 11: [1] 12: [0, 1] 13: [1] 14: [0, 1] 15: [1] },{ 0: [0] 1: [0, 1] 2: [1] 3: [1] 4: [0, 1] 5: [1] 6: [0, 1] 7: [1] 8: [0, 1] 9: [0, 1] 10: [0, 1] 11: [1] 12: [0, 1] 13: [1] 14: [0, 1] 15: [0] },{ 0: [0] 1: [0, 1] 2: [1] 3: [1] 4: [0, 1] 5: [1] 6: [0, 1] 7: [1] 8: [0, 1] 9: [0, 1] 10: [0, 1] 11: [1] 12: [0, 1] 13: [1] 14: [0, 1] 15: [0] },{ 0: [0] 1: [0, 1] 2: [1] 3: [1] 4: [0, 1] 5: [1] 6: [0, 1] 7: [1] 8: [0, 1] 9: [0, 1] 10: [0, 1] 11: [1] 12: [0, 1] 13: [1] 14: [0, 1] 15: [0] },{ 0: [0] 1: [0, 1] 2: [1] 3: [1] 4: [0, 1] 5: [1] 6: [0, 1] 7: [1] 8: [0, 1] 9: [0, 1] 10: [0, 1] 11: [1] 12: [0, 1] 13: [1] 14: [0, 1] 15: [0] },{ 0: [0] 1: [0, 1] 2: [1] 3: [1] 4: [0, 1] 5: [1] 6: [0, 1] 7: [1] 8: [0, 1] 9: [0, 1] 10: [0, 1] 11: [1] 12: [0, 1] 13: [1] 14: [0, 1] 15: [1] },{ 0: [0] 1: [0, 1] 2: [1] 3: [1] 4: [0, 1] 5: [1] 6: [0, 1] 7: [1] 8: [0, 1] 9: [0, 1] 10: [0, 1] 11: [1] 12: [0, 1] 13: [1] 14: [0, 1] 15: [0] }
{ 0: [0] 1: [0, 1] 2: [0] 3: [0] 4: [1] 5: [0, 1] 6: [0] 7: [0, 1] 8: [0, 1] 9: [1] 10: [0] 11: [0, 1] 12: [0, 1] 13: [1] 14: [0, 1] 15: [0, 1] },{ 0: [0] 1: [0, 1] 2: [0] 3: [1] 4: [1] 5: [0, 1] 6: [0] 7: [0, 1] 8: [0, 1] 9: [1] 10: [0] 11: [0, 1] 12: [0, 1] 13: [1] 14: [0, 1] 15: [0, 1] },{ 0: [0] 1: [0, 1] 2: [0] 3: [1] 4: [1] 5: [0, 1] 6: [0] 7: [0, 1] 8: [0, 1] 9: [1] 10: [0] 11: [0, 1] 12: [0, 1] 13: [1] 14: [0, 1] 15: [0, 1] },{ 0: [0] 1: [0, 1] 2: [0] 3: [1] 4: [1] 5: [0, 1] 6: [0] 7: [0, 1] 8: [0, 1] 9: [1] 10: [0] 11: [0, 1] 12: [0, 1] 13: [1] 14: [0, 1] 15: [0, 1] },{ 0: [0] 1: [0, 1] 2: [0] 3: [1] 4: [1] 5: [0, 1] 6: [0] 7: [0, 1] 8: [0, 1] 9: [1] 10: [0] 11: [0, 1] 12: [0, 1] 13: [1] 14: [0, 1] 15: [0, 1] },{ 0: [0] 1: [0, 1] 2: [0] 3: [0] 4: [1] 5: [0, 1] 6: [0] 7: [0, 1] 8: [0, 1] 9: [1] 10: [0] 11: [0, 1] 12: [0, 1] 13: [1] 14: [0, 1] 15: [0, 1] },{ 0: [0] 1: [0, 1] 2: [0] 3: [1] 4: [1] 5: [0, 1] 6: [0] 7: [0, 1] 8: [0, 1] 9: [1] 10: [0] 11: [0, 1] 12: [0, 1] 13: [1] 14: [0, 1] 15: [0, 1] }
{ 0: [0] 1: [0, 1] 2: [0] 3: [1] 4: [1] 5: [1] 6: [0, 1] 7: [0, 1] 8: [0, 1] 9: [1] 10: [0, 1] 11: [0] 12: [0, 1] 13: [0] 14: [0, 1] 15: [0, 1] },{ 0: [0] 1: [0, 1] 2: [0] 3: [1] 4: [1] 5: [1] 6: [0, 1] 7: [0, 1] 8: [0, 1] 9: [1] 10: [0, 1] 11: [0] 12: [0, 1] 13: [1] 14: [0, 1] 15: [0, 1] },{ 0: [0] 1: [0, 1] 2: [0] 3: [1] 4: [1] 5: [1] 6: [0, 1] 7: [0, 1] 8: [0, 1] 9: [1] 10: [0, 1] 11: [0] 12: [0, 1] 13: [1] 14: [0, 1] 15: [0, 1] },{ 0: [0] 1: [0, 1] 2: [0] 3: [1] 4: [1] 5: [1] 6: [0, 1] 7: [0, 1] 8: [0, 1] 9: [1] 10: [0, 1] 11: [0] 12: [0, 1] 13: [1] 14: [0, 1] 15: [0, 1] },{ 0: [0] 1: [0, 1] 2: [0] 3: [1] 4: [1] 5: [1] 6: [0, 1] 7: [0, 1] 8: [0, 1] 9: [1] 10: [0, 1] 11: [0] 12: [0, 1] 13: [1] 14: [0, 1] 15: [0, 1] },{ 0: [0] 1: [0, 1] 2: [0] 3: [1] 4: [1] 5: [1] 6: [0, 1] 7: [0, 1] 8: [0, 1] 9: [1] 10: [0, 1] 11: [0] 12: [0, 1] 13: [0] 14: [0, 1] 15: [0, 1] },{ 0: [0] 1: [0, 1] 2: [0] 3: [1] 4: [1] 5: [1] 6: [0, 1] 7: [0, 1] 8: [0, 1] 9: [1] 10: [0, 1] 11: [0] 12: [0, 1] 13: [1] 14: [0, 1] 15: [0, 1] }
{ 0: [0] 1: [0, 1] 2: [0, 1] 3: [0] 4: [0, 1] 5: [0] 6: [0, 1] 7: [0, 1] 8: [0] 9: [1] 10: [0, 1] 11: [0, 1] 12: [1] 13: [0, 1] 14: [1] 15: [1] },{ 0: [0] 1: [0, 1] 2: [0, 1] 3: [1] 4: [0, 1] 5: [0] 6: [0, 1] 7: [0, 1] 8: [0] 9: [1] 10: [0, 1] 11: [0, 1] 12: [1] 13: [0, 1] 14: [1] 15: [1] },{ 0: [0] 1: [0, 1] 2: [0, 1] 3: [1] 4: [0, 1] 5: [0] 6: [0, 1] 7: [0, 1] 8: [0] 9: [1] 10: [0, 1] 11: [0, 1] 12: [1] 13: [0, 1] 14: [1] 15: [1] },{ 0: [0] 1: [0, 1] 2: [0, 1] 3: [1] 4: [0, 1] 5: [0] 6: [0, 1] 7: [0, 1] 8: [0] 9: [1] 10: [0, 1] 11: [0, 1] 12: [1] 13: [0, 1] 14: [1] 15: [1] },{ 0: [0] 1: [0, 1] 2: [0, 1] 3: [1] 4: [0, 1] 5: [0] 6: [0, 1] 7: [0, 1] 8: [0] 9: [1] 10: [0, 1] 11: [0, 1] 12: [1] 13: [0, 1] 14: [1] 15: [1] },{ 0: [0] 1: [0, 1] 2: [0, 1] 3: [0] 4: [0, 1] 5: [0] 6: [0, 1] 7: [0, 1] 8: [0] 9: [1] 10: [0, 1] 11: [0, 1] 12: [1] 13: [0, 1] 14: [1] 15: [1] },{ 0: [0] 1: [0, 1] 2: [0, 1] 3: [1] 4: [0, 1] 5: [0] 6: [0, 1] 7: [0, 1] 8: [0] 9: [1] 10: [0, 1] 11: [0, 1] 12: [1] 13: [0, 1] 14: [1] 15: [1] }
{ 0: [0, 1] 1: [0] 2: [0] 3: [0, 1] 4: [0, 1] 5: [0, 1] 6: [0, 1] 7: [0, 1] 8: [0] 9: [0] 10: [0] 11: [0] 12: [0, 1] 13: [0, 1] 14: [0] 15: [1] },{ 0: [0, 1] 1: [0] 2: [0] 3: [0, 1] 4: [0, 1] 5: [0, 1] 6: [0, 1] 7: [0, 1] 8: [0] 9: [1] 10: [0] 11: [0] 12: [0, 1] 13: [0, 1] 14: [0] 15: [1] },{ 0: [0, 1] 1: [0] 2: [0] 3: [0, 1] 4: [0, 1] 5: [0, 1] 6: [0, 1] 7: [0, 1] 8: [0] 9: [1] 10: [0] 11: [0] 12: [0, 1] 13: [0, 1] 14: [0] 15: [1] },{ 0: [0, 1] 1: [0] 2: [0] 3: [0, 1] 4: [0, 1] 5: [0, 1] 6: [0, 1] 7: [0, 1] 8: [0] 9: [1] 10: [0] 11: [0] 12: [0, 1] 13: [0, 1] 14: [0] 15: [1] },{ 0: [0, 1] 1: [0] 2: [0] 3: [0, 1] 4: [0, 1] 5: [0, 1] 6: [0, 1] 7: [0, 1] 8: [0] 9: [1] 10: [0] 11: [0] 12: [0, 1] 13: [0, 1] 14: [0] 15: [1] },{ 0: [0, 1] 1: [0] 2: [0] 3: [0, 1] 4: [0, 1] 5: [0, 1] 6: [0, 1] 7: [0, 1] 8: [0] 9: [0] 10: [0] 11: [0] 12: [0, 1] 13: [0, 1] 14: [0] 15: [1] },{ 0: [0, 1] 1: [0] 2: [0] 3: [0, 1] 4: [0, 1] 5: [0, 1] 6: [0, 1] 7: [0, 1] 8: [0] 9: [1] 10: [0] 11: [0] 12: [0, 1] 13: [0, 1] 14: [0] 15: [1] }
{ 0: [1] 1: [1] 2: [1] 3: [0, 1] 4: [1] 5: [0, 1] 6: [0, 1] 7: [1] 8: [1] 9: [0, 1] 10: [0] 11: [0, 1] 12: [0, 1] 13: [0, 1] 14: [0, 1] 15: [1] },{ 0: [1] 1: [1] 2: [1] 3: [0, 1] 4: [1] 5: [0, 1] 6: [0, 1] 7: [1] 8: [1] 9: [0, 1] 10: [0] 11: [0, 1] 12: [0, 1] 13: [0, 1] 14: [0, 1] 15: [0] },{ 0: [1] 1: [1] 2: [1] 3: [0, 1] 4: [1] 5: [0, 1] 6: [0, 1] 7: [1] 8: [1] 9: [0, 1] 10: [0] 11: [0, 1] 12: [0, 1] 13: [0, 1] 14: [0, 1] 15: [0] },{ 0: [1] 1: [1] 2: [1] 3: [0, 1] 4: [1] 5: [0, 1] 6: [0, 1] 7: [1] 8: [1] 9: [0, 1] 10: [0] 11: [0, 1] 12: [0, 1] 13: [0, 1] 14: [0, 1] 15: [0] },{ 0: [1] 1: [1] 2: [1] 3: [0, 1] 4: [1] 5: [0, 1] 6: [0, 1] 7: [1] 8: [1] 9: [0, 1] 10: [0] 11: [0, 1] 12: [0, 1] 13: [0, 1] 14: [0, 1] 15: [0] },{ 0: [1] 1: [1] 2: [1] 3: [0, 1] 4: [1] 5: [0, 1] 6: [0, 1] 7: [1] 8: [1] 9: [0, 1] 10: [0] 11: [0, 1] 12: [0, 1] 13: [0, 1] 14: [0, 1] 15: [1] },{ 0: [1] 1: [1] 2: [1] 3: [0, 1] 4: [1] 5: [0, 1] 6: [0, 1] 7: [1] 8: [1] 9: [0, 1] 10: [0] 11: [0, 1] 12: [0, 1] 13: [0, 1] 14: [0, 1] 15: [0] }
{ 0: [0] 1: [0, 1] 2: [1] 3: [1] 4: [1] 5: [1] 6: [1] 7: [0, 1] 8: [1] 9: [0, 1] 10: [0, 1] 11: [0, 1] 12: [0, 1] 13: [1] 14: [0, 1] 15: [0, 1] },{ 0: [0] 1: [0, 1] 2: [0] 3: [1] 4: [1] 5: [1] 6: [1] 7: [0, 1] 8: [1] 9: [0, 1] 10: [0, 1] 11: [0, 1] 12: [0, 1] 13: [1] 14: [0, 1] 15: [0, 1] },{ 0: [0] 1: [0, 1] 2: [0] 3: [1] 4: [1] 5: [1] 6: [0] 7: [0, 1] 8: [0] 9: [0, 1] 10: [0, 1] 11: [0, 1] 12: [0, 1] 13: [1] 14: [0, 1] 15: [0, 1] },{ 0: [0] 1: [0, 1] 2: [0] 3: [1] 4: [1] 5: [1] 6: [0] 7: [0, 1] 8: [0] 9: [0, 1] 10: [0, 1] 11: [0, 1] 12: [0, 1] 13: [1] 14: [0, 1] 15: [0, 1] },{ 0: [0] 1: [0, 1] 2: [0] 3: [1] 4: [1] 5: [1] 6: [0] 7: [0, 1] 8: [0] 9: [0, 1] 10: [0, 1] 11: [0, 1] 12: [0, 1] 13: [1] 14: [0, 1] 15: [0, 1] },{ 0: [0] 1: [0, 1] 2: [1] 3: [1] 4: [1] 5: [1] 6: [1] 7: [0, 1] 8: [1] 9: [0, 1] 10: [0, 1] 11: [0, 1] 12: [0, 1] 13: [1] 14: [0, 1] 15: [0, 1] },{ 0: [0] 1: [0, 1] 2: [0] 3: [1] 4: [1] 5: [1] 6: [0] 7: [0, 1] 8: [0] 9: [0, 1] 10: [0, 1] 11: [0, 1] 12: [0, 1] 13: [1] 14: [0, 1] 15: [0, 1] }
{ 0: [0, 1] 1: [0, 1] 2: [1] 3: [0, 1] 4: [0, 1] 5: [1] 6: [0, 1] 7: [0, 1] 8: [0] 9: [1] 10: [0, 1] 11: [1] 12: [1] 13: [1] 14: [0, 1] 15: [1] },{ 0: [0, 1] 1: [0, 1] 2: [1] 3: [0, 1] 4: [0, 1] 5: [1] 6: [0, 1] 7: [0, 1] 8: [0] 9: [1] 10: [0, 1] 11: [1] 12: [0] 13: [0] 14: [0, 1] 15: [0] },{ 0: [0, 1] 1: [0, 1] 2: [1] 3: [0, 1] 4: [0, 1] 5: [1] 6: [0, 1] 7: [0, 1] 8: [0] 9: [1] 10: [0, 1] 11: [1] 12: [0] 13: [0] 14: [0, 1] 15: [0] },{ 0: [0, 1] 1: [0, 1] 2: [1] 3: [0, 1] 4: [0, 1] 5: [1] 6: [0, 1] 7: [0, 1] 8: [0] 9: [1] 10: [0, 1] 11: [1] 12: [0] 13: [0] 14: [0, 1] 15: [0] },{ 0: [0, 1] 1: [0, 1] 2: [1] 3: [0, 1] 4: [0, 1] 5: [1] 6: [0, 1] 7: [0, 1] 8: [0] 9: [1] 10: [0, 1] 11: [1] 12: [0] 13: [0] 14: [0, 1] 15: [0] },{ 0: [0, 1] 1: [0, 1] 2: [1] 3: [0, 1] 4: [0, 1] 5: [1] 6: [0, 1] 7: [0, 1] 8: [0] 9: [1] 10: [0, 1] 11: [1] 12: [1] 13: [1] 14: [0, 1] 15: [1] },{ 0: [0, 1] 1: [0, 1] 2: [1] 3: [0, 1] 4: [0, 1] 5: [1] 6: [0, 1] 7: [0, 1] 8: [0] 9: [1] 10: [0, 1] 11: [1] 12: [0] 13: [0] 14: [0, 1] 15: [0] }
{ 0: [1] 1: [1] 2: [0, 1] 3: [0, 1] 4: [1] 5: [0, 1] 6: [1] 7: [0, 1] 8: [1] 9: [1] 10: [0, 1] 11: [0, 1] 12: [0, 1] 13: [0, 1] 14: [1] 15: [0] },{ 0: [0] 1: [1] 2: [0, 1] 3: [0, 1] 4: [1] 5: [0, 1] 6: [1] 7: [0, 1] 8: [1] 9: [1] 10: [0, 1] 11: [0, 1] 12: [0, 1] 13: [0, 1] 14: [1] 15: [0] },{ 0: [0] 1: [1] 2: [0, 1] 3: [0, 1] 4: [1] 5: [0, 1] 6: [1] 7: [0, 1] 8: [1] 9: [1] 10: [0, 1] 11: [0, 1] 12: [0, 1] 13: [0, 1] 14: [1] 15: [0] },{ 0: [0] 1: [1] 2: [0, 1] 3: [0, 1] 4: [1] 5: [0, 1] 6: [1] 7: [0, 1] 8: [1] 9: [1] 10: [0, 1] 11: [0, 1] 12: [0, 1] 13: [0, 1] 14: [1] 15: [0] },{ 0: [0] 1: [1] 2: [0, 1] 3: [0, 1] 4: [1] 5: [0, 1] 6: [1] 7: [0, 1] 8: [1] 9: [1] 10: [0, 1] 11: [0, 1] 12: [0, 1] 13: [0, 1] 14: [1] 15: [0] },{ 0: [1] 1: [1] 2: [0, 1] 3: [0, 1] 4: [1] 5: [0, 1] 6: [1] 7: [0, 1] 8: [1] 9: [1] 10: [0, 1] 11: [0, 1] 12: [0, 1] 13: [0, 1] 14: [1] 15: [0] },{ 0: [0] 1: [1] 2: [0, 1] 3: [0, 1] 4: [1] 5: [0, 1] 6: [1] 7: [0, 1] 8: [1] 9: [1] 10: [0, 1] 11: [0, 1] 12: [0, 1] 13: [0, 1] 14: [1] 15: [0] }
{ 0: [0] 1: [0, 1] 2: [0, 1] 3: [1] 4: [0] 5: [0, 1] 6: [0, 1] 7: [0] 8: [0] 9: [0] 10: [0, 1] 11: [0, 1] 12: [0] 13: [0, 1] 14: [0, 1] 15: [0] },{ 0: [0] 1: [0, 1] 2: [0, 1] 3: [1] 4: [1] 5: [0, 1] 6: [0, 1] 7: [0] 8: [0] 9: [1] 10: [0, 1] 11: [0, 1] 12: [0] 13: [0, 1] 14: [0, 1] 15: [0] },{ 0: [0] 1: [0, 1] 2: [0, 1] 3: [1] 4: [1] 5: [0, 1] 6: [0, 1] 7: [0] 8: [0] 9: [1] 10: [0, 1] 11: [0, 1] 12: [0] 13: [0, 1] 14: [0, 1] 15: [0] },{ 0: [0] 1: [0, 1] 2: [0, 1] 3: [1] 4: [1] 5: [0, 1] 6: [0, 1] 7: [0] 8: [0] 9: [1] 10: [0, 1] 11: [0, 1] 12: [0] 13: [0, 1] 14: [0, 1] 15: [0] },{ 0: [0] 1: [0, 1] 2: [0, 1] 3: [1] 4: [1] 5: [0, 1] 6: [0, 1] 7: [0] 8: [0] 9: [1] 10: [0, 1] 11: [0, 1] 12: [0] 13: [0, 1] 14: [0, 1] 15: [0] },{ 0: [0] 1: [0, 1] 2: [0, 1] 3: [1] 4: [0] 5: [0, 1] 6: [0, 1] 7: [0] 8: [0] 9: [0] 10: [0, 1] 11: [0, 1] 12: [0] 13: [0, 1] 14: [0, 1] 15: [0] },{ 0: [0] 1: [0, 1] 2: [0, 1] 3: [1] 4: [1] 5: [0, 1] 6: [0, 1] 7: [0] 8: [0] 9: [1] 10: [0, 1] 11: [0, 1] 12: [0] 13: [0, 1] 14: [0, 1] 15: [0] }
{ 0: [1] 1: [0, 1] 2: [0, 1] 3: [0, 1] 4: [1] 5: [1] 6: [1] 7: [0, 1] 8: [0, 1] 9: [1] 10: [0] 11: [0, 1] 12: [0] 13: [0] 14: [0, 1] 15: [0, 1] },{ 0: [1] 1: [0, 1] 2: [0, 1] 3: [0, 1] 4: [1] 5: [1] 6: [1] 7: [0, 1] 8: [0, 1] 9: [1] 10: [0] 11: [0, 1] 12: [0] 13: [1] 14: [0, 1] 15: [0, 1] },{ 0: [1] 1: [0, 1] 2: [0, 1] 3: [0, 1] 4: [1] 5: [1] 6: [1] 7: [0, 1] 8: [0, 1] 9: [1] 10: [0] 11: [0, 1] 12: [0] 13: [1] 14: [0, 1] 15: [0, 1] },{ 0: [1] 1: [0, 1] 2: [0, 1] 3: [0, 1] 4: [1] 5: [1] 6: [1] 7: [0, 1] 8: [0, 1] 9: [1] 10: [0] 11: [0, 1] 12: [0] 13: [1] 14: [0, 1] 15: [0, 1] },{ 0: [1] 1: [0, 1] 2: [0, 1] 3: [0, 1] 4: [1] 5: [1] 6: [1] 7: [0, 1] 8: [0, 1] 9: [1] 10: [0] 11: [0, 1] 12: [0] 13: [1] 14: [0, 1] 15: [0, 1] },{ 0: [1] 1: [0, 1] 2: [0, 1] 3: [0, 1] 4: [1] 5: [1] 6: [1] 7: [0, 1] 8: [0, 1] 9: [1] 10: [0] 11: [0, 1] 12: [0] 13: [0] 14: [0, 1] 15: [0, 1] },{ 0: [1] 1: [0, 1] 2: [0, 1] 3: [0, 1] 4: [1] 5: [1] 6: [1] 7: [0, 1] 8: [0, 1] 9: [1] 10: [0] 11: [0, 1] 12: [0] 13: [1] 14: [0, 1] 15: [0, 1] }
{ 0: [1] 1: [0] 2: [0, 1] 3: [0, 1] 4: [0, 1] 5: [0] 6: [0, 1] 7: [0] 8: [0, 1] 9: [0] 10: [0, 1] 11: [0, 1] 12: [0, 1] 13: [0] 14: [0] 15: [0] },{ 0: [1] 1: [0] 2: [0, 1] 3: [0, 1] 4: [0, 1] 5: [0] 6: [0, 1] 7: [0] 8: [0, 1] 9: [0] 10: [0, 1] 11: [0, 1] 12: [0, 1] 13: [0] 14: [0] 15: [0] },{ 0: [1] 1: [0] 2: [0, 1] 3: [0, 1] 4: [0, 1] 5: [1] 6: [0, 1] 7: [1] 8: [0, 1] 9: [1] 10: [0, 1] 11: [0, 1] 12: [0, 1] 13: [0] 14: [0] 15: [0] },{ 0: [1] 1: [0] 2: [0, 1] 3: [0, 1] 4: [0, 1] 5: [1] 6: [0, 1] 7: [1] 8: [0, 1] 9: [1] 10: [0, 1] 11: [0, 1] 12: [0, 1] 13: [0] 14: [0] 15: [0] },{ 0: [1] 1: [0] 2: [0, 1] 3: [0, 1] 4: [0, 1] 5: [1] 6: [0, 1] 7: [1] 8: [0, 1] 9: [1] 10: [0, 1] 11: [0, 1] 12: [0, 1] 13: [0] 14: [0] 15: [0] },{ 0: [1] 1: [0] 2: [0, 1] 3: [0, 1] 4: [0, 1] 5: [0] 6: [0, 1] 7: [0] 8: [0, 1] 9: [0] 10: [0, 1] 11: [0, 1] 12: [0, 1] 13: [0] 14: [0] 15: [0] },{ 0: [1] 1: [0] 2: [0, 1] 3: [0, 1] 4: [0, 1] 5: [1] 6: [0, 1] 7: [1] 8: [0, 1] 9: [1] 10: [0, 1] 11: [0, 1] 12: [0, 1] 13: [0] 14: [0] 15: [0] }
{ 0: [0] 1: [0] 2: [0, 1] 3: [0, 1] 4: [1] 5: [0, 1] 6: [0] 7: [0, 1] 8: [0, 1] 9: [0] 10: [0] 11: [0, 1] 12: [0] 13: [0] 14: [0, 1] 15: [0, 1] },{ 0: [0] 1: [0] 2: [0, 1] 3: [0, 1] 4: [1] 5: [0, 1] 6: [0] 7: [0, 1] 8: [0, 1] 9: [1] 10: [0] 11: [0, 1] 12: [0] 13: [1] 14: [0, 1] 15: [0, 1] },{ 0: [0] 1: [0] 2: [0, 1] 3: [0, 1] 4: [1] 5: [0, 1] 6: [0] 7: [0, 1] 8: [0, 1] 9: [1] 10: [0] 11: [0, 1] 12: [0] 13: [1] 14: [0, 1] 15: [0, 1] },{ 0: [0] 1: [0] 2: [0, 1] 3: [0, 1] 4: [1] 5: [0, 1] 6: [0] 7: [0, 1] 8: [0, 1] 9: [1] 10: [0] 11: [0, 1] 12: [0] 13: [1] 14: [0, 1] 15: [0, 1] },{ 0: [0] 1: [0] 2: [0, 1] 3: [0, 1] 4: [1] 5: [0, 1] 6: [0] 7: [0, 1] 8: [0, 1] 9: [1] 10: [0] 11: [0, 1] 12: [0] 13: [1] 14: [0, 1] 15: [0, 1] },{ 0: [0] 1: [0] 2: [0, 1] 3: [0, 1] 4: [1] 5: [0, 1] 6: [0] 7: [0, 1] 8: [0, 1] 9: [0] 10: [0] 11: [0, 1] 12: [0] 13: [0] 14: [0, 1] 15: [0, 1] },{ 0: [0] 1: [0] 2: [0, 1] 3: [0, 1] 4: [1] 5: [0, 1] 6: [0] 7: [0, 1] 8: [0, 1] 9: [1] 10: [0] 11: [0, 1] 12: [0] 13: [1] 14: [0, 1] 15: [0, 1] }
{ 0: [0, 1] 1: [1] 2: [0, 1] 3: [1] 4: [0, 1] 5: [1] 6: [0] 7: [0] 8: [0, 1] 9: [0, 1] 10: [0, 1] 11: [0, 1] 12: [0, 1] 13: [1] 14: [1] 15: [0] },{ 0: [0, 1] 1: [1] 2: [0, 1] 3: [1] 4: [0, 1] 5: [1] 6: [0] 7: [1] 8: [0, 1] 9: [0, 1] 10: [0, 1] 11: [0, 1] 12: [0, 1] 13: [1] 14: [1] 15: [0] },{ 0: [0, 1] 1: [1] 2: [0, 1] 3: [1] 4: [0, 1] 5: [1] 6: [0] 7: [1] 8: [0, 1] 9: [0, 1] 10: [0, 1] 11: [0, 1] 12: [0, 1] 13: [1] 14: [1] 15: [0] },{ 0: [0, 1] 1: [1] 2: [0, 1] 3: [1] 4: [0, 1] 5: [1] 6: [0] 7: [1] 8: [0, 1] 9: [0, 1] 10: [0, 1] 11: [0, 1] 12: [0, 1] 13: [1] 14: [1] 15: [0] },{ 0: [0, 1] 1: [1] 2: [0, 1] 3: [1] 4: [0, 1] 5: [1] 6: [0] 7: [1] 8: [0, 1] 9: [0, 1] 10: [0, 1] 11: [0, 1] 12: [0, 1] 13: [1] 14: [1] 15: [0] },{ 0: [0, 1] 1: [1] 2: [0, 1] 3: [1] 4: [0, 1] 5: [1] 6: [0] 7: [0] 8: [0, 1] 9: [0, 1] 10: [0, 1] 11: [0, 1] 12: [0, 1] 13: [1] 14: [1] 15: [0] },{ 0: [0, 1] 1: [1] 2: [0, 1] 3: [1] 4: [0, 1] 5: [1] 6: [0] 7: [1] 8: [0, 1] 9: [0, 1] 10: [0, 1] 11: [0, 1] 12: [0, 1] 13: [1] 14: [1] 15: [0] }
{ 0: [1] 1: [0, 1] 2: [0, 1] 3: [0, 1] 4: [1] 5: [1] 6: [1] 7: [0, 1] 8: [0, 1] 9: [1] 10: [0, 1] 11: [0, 1] 12: [0, 1] 13: [1] 14: [1] 15: [0] },{ 0: [0] 1: [0, 1] 2: [0, 1] 3: [0, 1] 4: [1] 5: [1] 6: [1] 7: [0, 1] 8: [0, 1] 9: [1] 10: [0, 1] 11: [0, 1] 12: [0, 1] 13: [1] 14: [1] 15: [0] },{ 0: [0] 1: [0, 1] 2: [0, 1] 3: [0, 1] 4: [1] 5: [1] 6: [1] 7: [0, 1] 8: [0, 1] 9: [1] 10: [0, 1] 11: [0, 1] 12: [0, 1] 13: [1] 14: [1] 15: [0] },{ 0: [0] 1: [0, 1] 2: [0, 1] 3: [0, 1] 4: [1] 5: [1] 6: [1] 7: [0, 1] 8: [0, 1] 9: [1] 10: [0, 1] 11: [0, 1] 12: [0, 1] 13: [1] 14: [1] 15: [0] },{ 0: [0] 1: [0, 1] 2: [0, 1] 3: [0, 1] 4: [1] 5: [1] 6: [1] 7: [0, 1] 8: [0, 1] 9: [1] 10: [0, 1] 11: [0, 1] 12: [0, 1] 13: [1] 14: [1] 15: [0] },{ 0: [1] 1: [0, 1] 2: [0, 1] 3: [0, 1] 4: [1] 5: [1] 6: [1] 7: [0, 1] 8: [0, 1] 9: [1] 10: [0, 1] 11: [0, 1] 12: [0, 1] 13: [1] 14: [1] 15: [0] },{ 0: [0] 1: [0, 1] 2: [0, 1] 3: [0, 1] 4: [1] 5: [1] 6: [1] 7: [0, 1] 8: [0, 1] 9: [1] 10: [0, 1] 11: [0, 1] 12: [0, 1] 13: [1] 14: [1] 15: [0] }
{ 0: [0] 1: [0] 2: [0, 1] 3: [1] 4: [0, 1] 5: [0, 1] 6: [1] 7: [0, 1] 8: [0, 1] 9: [0, 1] 10: [0] 11: [0] 12: [0] 13: [1] 14: [0, 1] 15: [0, 1] },{ 0: [0] 1: [0] 2: [0, 1] 3: [1] 4: [0, 1] 5: [0, 1] 6: [1] 7: [0, 1] 8: [0, 1] 9: [0, 1] 10: [0] 11: [0] 12: [0] 13: [0] 14: [0, 1] 15: [0, 1] },{ 0: [0] 1: [0] 2: [0, 1] 3: [1] 4: [0, 1] 5: [0, 1] 6: [1] 7: [0, 1] 8: [0, 1] 9: [0, 1] 10: [0] 11: [0] 12: [0] 13: [0] 14: [0, 1] 15: [0, 1] },{ 0: [0] 1: [0] 2: [0, 1] 3: [1] 4: [0, 1] 5: [0, 1] 6: [1] 7: [0, 1] 8: [0, 1] 9: [0, 1] 10: [0] 11: [0] 12: [0] 13: [0] 14: [0, 1] 15: [0, 1] },{ 0: [0] 1: [0] 2: [0, 1] 3: [1] 4: [0, 1] 5: [0, 1] 6: [1] 7: [0, 1] 8: [0, 1] 9: [0, 1] 10: [0] 11: [0] 12: [0] 13: [0] 14: [0, 1] 15: [0, 1] },{ 0: [0] 1: [0] 2: [0, 1] 3: [1] 4: [0, 1] 5: [0, 1] 6: [1] 7: [0, 1] 8: [0, 1] 9: [0, 1] 10: [0] 11: [0] 12: [0] 13: [1] 14: [0, 1] 15: [0, 1] },{ 0: [0] 1: [0] 2: [0, 1] 3: [1] 4: [0, 1] 5: [0, 1] 6: [1] 7: [0, 1] 8: [0, 1] 9: [0, 1] 10: [0] 11: [0] 12: [0] 13: [0] 14: [0, 1] 15: [0, 1] }
{ 0: [0, 1] 1: [0, 1] 2: [1] 3: [0, 1] 4: [1] 5: [0] 6: [0, 1] 7: [0, 1] 8: [0, 1] 9: [1] 10: [0] 11: [0, 1] 12: [1] 13: [0, 1] 14: [1] 15: [1] },{ 0: [0, 1] 1: [0, 1] 2: [0] 3: [0, 1] 4: [1] 5: [0] 6: [0, 1] 7: [0, 1] 8: [0, 1] 9: [1] 10: [0] 11: [0, 1] 12: [1] 13: [0, 1] 14: [1] 15: [1] },{ 0: [0, 1] 1: [0, 1] 2: [0] 3: [0, 1] 4: [1] 5: [0] 6: [0, 1] 7: [0, 1] 8: [0, 1] 9: [1] 10: [0] 11: [0, 1] 12: [1] 13: [0, 1] 14: [1] 15: [1] },{ 0: [0, 1] 1: [0, 1] 2: [0] 3: [0, 1] 4: [1] 5: [0] 6: [0, 1] 7: [0, 1] 8: [0, 1] 9: [1] 10: [0] 11: [0, 1] 12: [1] 13: [0, 1] 14: [1] 15: [1] },{ 0: [0, 1] 1: [0, 1] 2: [0] 3: [0, 1] 4: [1] 5: [0] 6: [0, 1] 7: [0, 1] 8: [0, 1] 9: [1] 10: [0] 11: [0, 1] 12: [1] 13: [0, 1] 14: [1] 15: [1] },{ 0: [0, 1] 1: [0, 1] 2: [1] 3: [0, 1] 4: [1] 5: [0] 6: [0, 1] 7: [0, 1] 8: [0, 1] 9: [1] 10: [0] 11: [0, 1] 12: [1] 13: [0, 1] 14: [1] 15: [1] },{ 0: [0, 1] 1: [0, 1] 2: [0] 3: [0, 1] 4: [1] 5: [0] 6: [0, 1] 7: [0, 1] 8: [0, 1] 9: [1] 10: [0] 11: [0, 1] 12: [1] 13: [0, 1] 14: [1] 15: [1] }
{ 0: [0, 1] 1: [1] 2: [1] 3: [0] 4: [0, 1] 5: [0, 1] 6: [1] 7: [1] 8: [0, 1] 9: [0, 1] 10: [0] 11: [0, 1] 12: [0, 1] 13: [0, 1] 14: [0] 15: [0] },{ 0: [0, 1] 1: [1] 2: [1] 3: [0] 4: [0, 1] 5: [0, 1] 6: [1] 7: [1] 8: [0, 1] 9: [0, 1] 10: [0] 11: [0, 1] 12: [0, 1] 13: [0, 1] 14: [0] 15: [0] },{ 0: [0, 1] 1: [1] 2: [1] 3: [0] 4: [0, 1] 5: [0, 1] 6: [1] 7: [1] 8: [0, 1] 9: [0, 1] 10: [0] 11: [0, 1] 12: [0, 1] 13: [0, 1] 14: [0] 15: [0] },{ 0: [0, 1] 1: [1] 2: [1] 3: [0] 4: [0, 1] 5: [0, 1] 6: [1] 7: [1] 8: [0, 1] 9: [0, 1] 10: [0] 11: [0, 1] 12: [0, 1] 13: [0, 1] 14: [0] 15: [0] },{ 0: [0, 1] 1: [1] 2: [1] 3: [0] 4: [0, 1] 5: [0, 1] 6: [1] 7: [1] 8: [0, 1] 9: [0, 1] 10: [0] 11: [0, 1] 12: [0, 1] 13: [0, 1] 14: [0] 15: [0] },{ 0: [0, 1] 1: [1] 2: [1] 3: [0] 4: [0, 1] 5: [0, 1] 6: [1] 7: [1] 8: [0, 1] 9: [0, 1] 10: [0] 11: [0, 1] 12: [0, 1] 13: [0, 1] 14: [0] 15: [0] },{ 0: [0, 1] 1: [1] 2: [1] 3: [0] 4: [0, 1] 5: [0, 1] 6: [1] 7: [1] 8: [0, 1] 9: [0, 1] 10: [0] 11: [0, 1] 12: [0, 1] 13: [0, 1] 14: [0] 15: [0] }
{ 0: [0, 1] 1: [0] 2: [0] 3: [0, 1] 4: [0, 1] 5: [0, 1] 6: [0, 1] 7: [0, 1] 8: [0, 1] 9: [0, 1] 10: [1] 11: [1] 12: [1] 13: [1] 14: [1] 15: [0] },{ 0: [0, 1] 1: [0] 2: [0] 3: [0, 1] 4: [0, 1] 5: [0, 1] 6: [0, 1] 7: [0, 1] 8: [0, 1] 9: [0, 1] 10: [1] 11: [1] 12: [0] 13: [1] 14: [1] 15: [0] },{ 0: [0, 1] 1: [0] 2: [0] 3: [0, 1] 4: [0, 1] 5: [0, 1] 6: [0, 1] 7: [0, 1] 8: [0, 1] 9: [0, 1] 10: [1] 11: [1] 12: [0] 13: [1] 14: [1] 15: [0] },{ 0: [0, 1] 1: [0] 2: [0] 3: [0, 1] 4: [0, 1] 5: [0, 1] 6: [0, 1] 7: [0, 1] 8: [0, 1] 9: [0, 1] 10: [1] 11: [1] 12: [0] 13: [1] 14: [1] 15: [0] },{ 0: [0, 1] 1: [0] 2: [0] 3: [0, 1] 4: [0, 1] 5: [0, 1] 6: [0, 1] 7: [0, 1] 8: [0, 1] 9: [0, 1] 10: [1] 11: [1] 12: [0] 13: [1] 14: [1] 15: [0] },{ 0: [0, 1] 1: [0] 2: [0] 3: [0, 1] 4: [0, 1] 5: [0, 1] 6: [0, 1] 7: [0, 1] 8: [0, 1] 9: [0, 1] 10: [1] 11: [1] 12: [1] 13: [1] 14: [1] 15: [0] },{ 0: [0, 1] 1: [0] 2: [0] 3: [0, 1] 4: [0, 1] 5: [0, 1] 6: [0, 1] 7: [0, 1] 8: [0, 1] 9: [0, 1] 10: [1] 11: [1] 12: [0] 13: [1] 14: [1] 15: [0] }
{ 0: [0] 1: [0, 1] 2: [0, 1] 3: [0, 1] 4: [1] 5: [0, 1] 6: [0, 1] 7: [1] 8: [0] 9: [0, 1] 10: [0] 11: [1] 12: [1] 13: [0, 1] 14: [0] 15: [0, 1] },{ 0: [0] 1: [0, 1] 2: [0, 1] 3: [0, 1] 4: [1] 5: [0, 1] 6: [0, 1] 7: [0] 8: [0] 9: [0, 1] 10: [0] 11: [1] 12: [1] 13: [0, 1] 14: [0] 15: [0, 1] },{ 0: [0] 1: [0, 1] 2: [0, 1] 3: [0, 1] 4: [1] 5: [0, 1] 6: [0, 1] 7: [0] 8: [0] 9: [0, 1] 10: [0] 11: [0] 12: [1] 13: [0, 1] 14: [0] 15: [0, 1] },{ 0: [0] 1: [0, 1] 2: [0, 1] 3: [0, 1] 4: [1] 5: [0, 1] 6: [0, 1] 7: [0] 8: [0] 9: [0, 1] 10: [0] 11: [1] 12: [1] 13: [0, 1] 14: [0] 15: [0, 1] },{ 0: [0] 1: [0, 1] 2: [0, 1] 3: [0, 1] 4: [1] 5: [0, 1] 6: [0, 1] 7: [0] 8: [0] 9: [0, 1] 10: [0] 11: [1] 12: [1] 13: [0, 1] 14: [0] 15: [0, 1] },{ 0: [0] 1: [0, 1] 2: [0, 1] 3: [0, 1] 4: [1] 5: [0, 1] 6: [0, 1] 7: [1] 8: [0] 9: [0, 1] 10: [0] 11: [1] 12: [1] 13: [0, 1] 14: [0] 15: [0, 1] },{ 0: [0] 1: [0, 1] 2: [0, 1] 3: [0, 1] 4: [1] 5: [0, 1] 6: [0, 1] 7: [0] 8: [0] 9: [0, 1] 10: [0] 11: [1] 12: [1] 13: [0, 1] 14: [0] 15: [0, 1] }
{ 0: [0] 1: [0, 1] 2: [0, 1] 3: [1] 4: [1] 5: [1] 6: [0, 1] 7: [0, 1] 8: [0, 1] 9: [0, 1] 10: [0] 11: [1] 12: [0, 1] 13: [0, 1] 14: [1] 15: [0] },{ 0: [0] 1: [0, 1] 2: [0, 1] 3: [1] 4: [1] 5: [1] 6: [0, 1] 7: [0, 1] 8: [0, 1] 9: [0, 1] 10: [0] 11: [1] 12: [0, 1] 13: [0, 1] 14: [0] 15: [0] },{ 0: [0] 1: [0, 1] 2: [0, 1] 3: [1] 4: [1] 5: [1] 6: [0, 1] 7: [0, 1] 8: [0, 1] 9: [0, 1] 10: [0] 11: [1] 12: [0, 1] 13: [0, 1] 14: [0] 15: [0] },{ 0: [0] 1: [0, 1] 2: [0, 1] 3: [1] 4: [1] 5: [1] 6: [0, 1] 7: [0, 1] 8: [0, 1] 9: [0, 1] 10: [0] 11: [1] 12: [0, 1] 13: [0, 1] 14: [0] 15: [0] },{ 0: [0] 1: [0, 1] 2: [0, 1] 3: [1] 4: [1] 5: [1] 6: [0, 1] 7: [0, 1] 8: [0, 1] 9: [0, 1] 10: [0] 11: [1] 12: [0, 1] 13: [0, 1] 14: [0] 15: [0] },{ 0: [0] 1: [0, 1] 2: [0, 1] 3: [1] 4: [1] 5: [1] 6: [0, 1] 7: [0, 1] 8: [0, 1] 9: [0, 1] 10: [0] 11: [1] 12: [0, 1] 13: [0, 1] 14: [1] 15: [0] },{ 0: [0] 1: [0, 1] 2: [0, 1] 3: [1] 4: [1] 5: [1] 6: [0, 1] 7: [0, 1] 8: [0, 1] 9: [0, 1] 10: [0] 11: [1] 12: [0, 1] 13: [0, 1] 14: [0] 15: [0] }
{ 0: [0] 1: [1] 2: [0, 1] 3: [1] 4: [0] 5: [0, 1] 6: [0, 1] 7: [0, 1] 8: [0, 1] 9: [1] 10: [0, 1] 11: [0] 12: [0] 13: [0] 14: [0, 1] 15: [0, 1] },{ 0: [0] 1: [1] 2: [0, 1] 3: [1] 4: [1] 5: [0, 1] 6: [0, 1] 7: [0, 1] 8: [0, 1] 9: [1] 10: [0, 1] 11: [0] 12: [0] 13: [0] 14: [0, 1] 15: [0, 1] },{ 0: [0] 1: [1] 2: [0, 1] 3: [1] 4: [0] 5: [0, 1] 6: [0, 1] 7: [0, 1] 8: [0, 1] 9: [1] 10: [0, 1] 11: [0] 12: [0] 13: [0] 14: [0, 1] 15: [0, 1] },{ 0: [0] 1: [1] 2: [0, 1] 3: [1] 4: [1] 5: [0, 1] 6: [0, 1] 7: [0, 1] 8: [0, 1] 9: [1] 10: [0, 1] 11: [0] 12: [0] 13: [0] 14: [0, 1] 15: [0, 1] },{ 0: [0] 1: [1] 2: [0, 1] 3: [1] 4: [1] 5: [0, 1] 6: [0, 1] 7: [0, 1] 8: [0, 1] 9: [1] 10: [0, 1] 11: [0] 12: [0] 13: [0] 14: [0, 1] 15: [0, 1] },{ 0: [0] 1: [1] 2: [0, 1] 3: [1] 4: [0] 5: [0, 1] 6: [0, 1] 7: [0, 1] 8: [0, 1] 9: [1] 10: [0, 1] 11: [0] 12: [0] 13: [0] 14: [0, 1] 15: [0, 1] },{ 0: [0] 1: [1] 2: [0, 1] 3: [1] 4: [1] 5: [0, 1] 6: [0, 1] 7: [0, 1] 8: [0, 1] 9: [1] 10: [0, 1] 11: [0] 12: [0] 13: [0] 14: [0, 1] 15: [0, 1] }
{ 0: [0] 1: [0, 1] 2: [0] 3: [0, 1] 4: [0] 5: [0, 1] 6: [0] 7: [0, 1] 8: [0, 1] 9: [0] 10: [0, 1] 11: [0] 12: [1] 13: [0] 14: [0, 1] 15: [0, 1] },{ 0: [0] 1: [0, 1] 2: [0] 3: [0, 1] 4: [0] 5: [0, 1] 6: [0] 7: [0, 1] 8: [0, 1] 9: [1] 10: [0, 1] 11: [0] 12: [1] 13: [0] 14: [0, 1] 15: [0, 1] },{ 0: [0] 1: [0, 1] 2: [0] 3: [0, 1] 4: [0] 5: [0, 1] 6: [0] 7: [0, 1] 8: [0, 1] 9: [1] 10: [0, 1] 11: [0] 12: [1] 13: [0] 14: [0, 1] 15: [0, 1] },{ 0: [0] 1: [0, 1] 2: [0] 3: [0, 1] 4: [0] 5: [0, 1] 6: [0] 7: [0, 1] 8: [0, 1] 9: [1] 10: [0, 1] 11: [0] 12: [1] 13: [0] 14: [0, 1] 15: [0, 1] },{ 0: [0] 1: [0, 1] 2: [0] 3: [0, 1] 4: [0] 5: [0, 1] 6: [0] 7: [0, 1] 8: [0, 1] 9: [1] 10: [0, 1] 11: [0] 12: [1] 13: [0] 14: [0, 1] 15: [0, 1] },{ 0: [0] 1: [0, 1] 2: [0] 3: [0, 1] 4: [0] 5: [0, 1] 6: [0] 7: [0, 1] 8: [0, 1] 9: [0] 10: [0, 1] 11: [0] 12: [1] 13: [0] 14: [0, 1] 15: [0, 1] },{ 0: [0] 1: [0, 1] 2: [0] 3: [0, 1] 4: [0] 5: [0, 1] 6: [0] 7: [0, 1] 8: [0, 1] 9: [1] 10: [0, 1] 11: [0] 12: [1] 13: [0] 14: [0, 1] 15: [0, 1] }
{ 0: [0, 1] 1: [0, 1] 2: [0, 1] 3: [0] 4: [1] 5: [0, 1] 6: [0, 1] 7: [0] 8: [0, 1] 9: [1] 10: [1] 11: [1] 12: [0, 1] 13: [0, 1] 14: [1] 15: [0] },{ 0: [0, 1] 1: [0, 1] 2: [0, 1] 3: [0] 4: [1] 5: [0, 1] 6: [0, 1] 7: [1] 8: [0, 1] 9: [1] 10: [1] 11: [1] 12: [0, 1] 13: [0, 1] 14: [1] 15: [0] },{ 0: [0, 1] 1: [0, 1] 2: [0, 1] 3: [0] 4: [1] 5: [0, 1] 6: [0, 1] 7: [1] 8: [0, 1] 9: [1] 10: [1] 11: [1] 12: [0, 1] 13: [0, 1] 14: [1] 15: [1] },{ 0: [0, 1] 1: [0, 1] 2: [0, 1] 3: [0] 4: [1] 5: [0, 1] 6: [0, 1] 7: [1] 8: [0, 1] 9: [1] 10: [1] 11: [1] 12: [0, 1] 13: [0, 1] 14: [1] 15: [0] },{ 0: [0, 1] 1: [0, 1] 2: [0, 1] 3: [0] 4: [1] 5: [0, 1] 6: [0, 1] 7: [1] 8: [0, 1] 9: [1] 10: [1] 11: [1] 12: [0, 1] 13: [0, 1] 14: [1] 15: [0] },{ 0: [0, 1] 1: [0, 1] 2: [0, 1] 3: [0] 4: [1] 5: [0, 1] 6: [0, 1] 7: [0] 8: [0, 1] 9: [1] 10: [1] 11: [1] 12: [0, 1] 13: [0, 1] 14: [1] 15: [0] },{ 0: [0, 1] 1: [0, 1] 2: [0, 1] 3: [0] 4: [1] 5: [0, 1] 6: [0, 1] 7: [1] 8: [0, 1] 9: [1] 10: [1] 11: [1] 12: [0, 1] 13: [0, 1] 14: [1] 15: [0] }
{ 0: [0] 1: [0, 1] 2: [1] 3: [0] 4: [0, 1] 5: [0, 1] 6: [0] 7: [0] 8: [0, 1] 9: [0] 10: [0, 1] 11: [0, 1] 12: [0, 1] 13: [0] 14: [0, 1] 15: [0] },{ 0: [0] 1: [0, 1] 2: [1] 3: [1] 4: [0, 1] 5: [0, 1] 6: [0] 7: [0] 8: [0, 1] 9: [0] 10: [0, 1] 11: [0, 1] 12: [0, 1] 13: [0] 14: [0, 1] 15: [0] },{ 0: [0] 1: [0, 1] 2: [1] 3: [1] 4: [0, 1] 5: [0, 1] 6: [0] 7: [0] 8: [0, 1] 9: [0] 10: [0, 1] 11: [0, 1] 12: [0, 1] 13: [0] 14: [0, 1] 15: [0] },{ 0: [0] 1: [0, 1] 2: [1] 3: [1] 4: [0, 1] 5: [0, 1] 6: [0] 7: [0] 8: [0, 1] 9: [0] 10: [0, 1] 11: [0, 1] 12: [0, 1] 13: [0] 14: [0, 1] 15: [0] },{ 0: [0] 1: [0, 1] 2: [1] 3: [1] 4: [0, 1] 5: [0, 1] 6: [0] 7: [0] 8: [0, 1] 9: [0] 10: [0, 1] 11: [0, 1] 12: [0, 1] 13: [0] 14: [0, 1] 15: [0] },{ 0: [0] 1: [0, 1] 2: [1] 3: [0] 4: [0, 1] 5: [0, 1] 6: [0] 7: [0] 8: [0, 1] 9: [0] 10: [0, 1] 11: [0, 1] 12: [0, 1] 13: [0] 14: [0, 1] 15: [0] },{ 0: [0] 1: [0, 1] 2: [1] 3: [1] 4: [0, 1] 5: [0, 1] 6: [0] 7: [0] 8: [0, 1] 9: [0] 10: [0, 1] 11: [0, 1] 12: [0, 1] 13: [0] 14: [0, 1] 15: [0] }
