MaxProd,Local Search,ArgmaxProd,Local Search Argmax,BS,KBT,MaxSearch
0.0000000000000000011067870649949086,0.0000000000000000011067870649949086,0.0000000000000000034575853044933264,0.0000000000000000034575853044933264,0.0000000000000000034575853044933264,0.0000000000000000011067870649949086,0.0000000000000000011067870649949086
0.000000000000000000014388439498929227,0.000000000000000000014388439498929227,0.00000000000000000001972592178186639,0.00000000000000000001972592178186639,0.0000000000000000000011993376512950531,0.000000000000000000014388439498929227,0.000000000000000000014388439498929227
0.00000000000000000012921124086209166,0.00000000000000000012921124086209166,0.000000000000000008575068928013898,0.000000000000000008575068928013898,0.000000000000000008575068928013898,0.00000000000000000012921124086209166,0.00000000000000000012921124086209166
0.00000000000000000001220688452091208,0.00000000000000000001220688452091208,0.000000000000000000025775152471313346,0.000000000000000000025775152471313346,0.000000000000000000025775152471313346,0.00000000000000000001220688452091208,0.00000000000000000001220688452091208
0.000000000000000000045306139762502865,0.000000000000000000045306139762502865,0.00000000000000000009233693050152929,0.00000000000000000009233693050152929,0.000000000000000000002542262264009139,0.000000000000000000045306139762502865,0.000000000000000000045306139762502865
0.0000000000000000000016547216705458848,0.0000000000000000000016547216705458848,0.00000000000000000002465978936282852,0.00000000000000000002465978936282852,0.00000000000000000000030077132241781385,0.0000000000000000000016547216705458848,0.0000000000000000000016547216705458848
0.0000000000000000002705913921688982,0.0000000000000000002705913921688982,0.0000000000000000019878812246771323,0.0000000000000000019878812246771323,0.0000000000000000019878812246771323,0.0000000000000000002705913921688982,0.0000000000000000002705913921688982
0.000000000000000000006951745265151579,0.000000000000000000006951745265151579,0.000000000000000000008218111705153918,0.000000000000000000008218111705153918,0.0000000000000000000006181050633889556,0.000000000000000000006951745265151579,0.000000000000000000006951745265151579
0.0000000000000000001111719431007717,0.0000000000000000001111719431007717,0.0000000000000000001595990830212749,0.0000000000000000001595990830212749,0.0000000000000000001595990830212749,0.0000000000000000001111719431007717,0.0000000000000000001111719431007717
0.000000000000000000028769403868610696,0.000000000000000000028769403868610696,0.000000000000000000029989984309225225,0.000000000000000000029989984309225225,0.0000000000000000000010761941965827996,0.000000000000000000028769403868610696,0.000000000000000000028769403868610696
0.000000000000000000013743195401039973,0.000000000000000000013743195401039973,0.000000000000000000027184218467143214,0.000000000000000000027184218467143214,0.000000000000000000004171696857963443,0.000000000000000000013743195401039973,0.000000000000000000013743195401039973
0.000000000000000000001979948937656575,0.000000000000000000001979948937656575,0.000000000000000000004627550709022708,0.000000000000000000004627550709022708,0.0000000000000000000006176478299419716,0.000000000000000000001979948937656575,0.000000000000000000001979948937656575
0.000000000000000000009506493182388247,0.000000000000000000009506493182388247,0.000000000000000000026749543166439737,0.000000000000000000026749543166439737,0.000000000000000000026749543166439737,0.000000000000000000009506493182388247,0.000000000000000000009506493182388247
0.000000000000000026927907925727367,0.000000000000000026927907925727367,0.0000000000000000278457887425521,0.0000000000000000278457887425521,0.0000000000000000006951717201477884,0.000000000000000026927907925727367,0.000000000000000026927907925727367
0.00000000000000000006229092839908629,0.00000000000000000006229092839908629,0.0000000000000000001792502244157904,0.0000000000000000001792502244157904,0.0000000000000000001792502244157904,0.00000000000000000006229092839908629,0.00000000000000000006229092839908629
0.00000000000000000005338418132788368,0.00000000000000000005338418132788368,0.00000000000000000008561489283630152,0.00000000000000000008561489283630152,0.0000000000000000000011758147458718495,0.00000000000000000005338418132788368,0.00000000000000000005338418132788368
0.0000000000000000002655423605474064,0.0000000000000000002655423605474064,0.0000000000000000016117658408398831,0.0000000000000000016117658408398831,0.0000000000000000016117658408398831,0.0000000000000000002655423605474064,0.0000000000000000002655423605474064
0.000000000000000000038033597087884314,0.000000000000000000038033597087884314,0.00000000000000000006719459099663129,0.00000000000000000006719459099663129,0.000000000000000000015570875151978608,0.000000000000000000038033597087884314,0.000000000000000000038033597087884314
0.00000000000000000034786555958900114,0.00000000000000000034786555958900114,0.0000000000000000004525571350991009,0.0000000000000000004525571350991009,0.0000000000000000004525571350991009,0.00000000000000000034786555958900114,0.00000000000000000034786555958900114
0.0000000000000000000051478918369177005,0.0000000000000000000051478918369177005,0.000000000000000000006574016621423204,0.000000000000000000006574016621423204,0.0000000000000000000001993376254630032,0.0000000000000000000051478918369177005,0.0000000000000000000051478918369177005
0.0000000000000000000033770099758270572,0.0000000000000000000033770099758270572,0.000000000000000000019396265663541625,0.000000000000000000019396265663541625,0.0000000000000000000011222480022053385,0.0000000000000000000033770099758270572,0.0000000000000000000033770099758270572
0.000000000000000000053090647840021615,0.000000000000000000053090647840021615,0.0000000000000000005037767919620021,0.0000000000000000005037767919620021,0.0000000000000000005037767919620021,0.000000000000000000053073741635732354,0.000000000000000000053090647840021615
0.0000000000000000000018118124478518575,0.0000000000000000000018118124478518575,0.000000000000000000013013568224786823,0.000000000000000000013013568224786823,0.000000000000000000013013568224786823,0.0000000000000000000018118124478518575,0.0000000000000000000018118124478518575
0.0000000000000000000020108979069286803,0.0000000000000000000020108979069286803,0.0000000000000000000031917348457912396,0.0000000000000000000031917348457912396,0.0000000000000000000001272384662638678,0.0000000000000000000020108979069286803,0.0000000000000000000020108979069286803
0.000000000000000000001566988073963522,0.000000000000000000001566988073963522,0.000000000000000000038561609577917483,0.000000000000000000038561609577917483,0.000000000000000000002102030968663158,0.000000000000000000001566988073963522,0.000000000000000000001566988073963522
0.000000000000000000040210838410565443,0.00000000000000000014668697943028477,0.00000000000000000014668697943028477,0.00000000000000000014668697943028477,0.00000000000000000014668697943028477,0.000000000000000000040210838410565443,0.000000000000000000040210838410565443
0.000000000000000000001868373885014937,0.000000000000000000001868373885014937,0.000000000000000000004911549119441189,0.000000000000000000004911549119441189,0.0000000000000000000009629752216619694,0.000000000000000000001868373885014937,0.000000000000000000001868373885014937
0.00000000000000000011104828344159527,0.00000000000000000011104828344159527,0.0000000000000000001986825799009581,0.0000000000000000001986825799009581,0.00000000000000000010086980258986237,0.00000000000000000011104828344159527,0.00000000000000000011104828344159527
0.0000000000000000000015100156861729103,0.0000000000000000000015100156861729103,0.0000000000000000000019970268605033514,0.0000000000000000000019970268605033514,0.0000000000000000000001689483944438835,0.0000000000000000000015100156861729103,0.0000000000000000000015100156861729103
0.000000000000000000005051650534510256,0.000000000000000000005051650534510256,0.000000000000000000010876478260542374,0.000000000000000000010876478260542374,0.00000000000000000000017557033944409222,0.000000000000000000005051650534510256,0.000000000000000000005051650534510256
