439,2594,751,3221,40602,7682,600052
202,3568,428,593,30400,4692,600109
214,1171,357,1057,28984,4589,600101
190,520,383,995,27811,4719,600145
172,880,309,915,26809,4267,600099
174,805,200,329,23099,3396,600111
170,862,293,385,23650,3387,600131
192,673,297,387,21179,3093,600038
181,757,408,451,21681,2913,600081
184,864,322,409,22600,2986,600030
105,727,281,347,21114,3030,600092
164,773,279,823,21460,2960,600071
165,637,307,742,20761,2839,600072
147,343,271,259,20871,2600,600100
187,672,292,714,21677,2875,600016
178,712,250,351,20862,2502,600092
145,1443,297,364,20637,2958,600087
47,588,290,349,20423,2669,600089
167,353,285,340,20606,2827,600025
136,337,285,312,21621,2748,600117
158,347,285,732,19945,2828,600038
164,717,288,678,19734,2796,600026
177,700,190,356,19746,2650,600069
159,680,276,326,19795,2902,600046
184,727,283,731,20304,2710,600092
179,720,230,365,19713,2726,600092
166,721,303,346,20265,2788,600121
172,724,281,334,20104,2718,600102
173,358,283,377,20766,2772,600093
176,381,277,277,16846,2613,600080
