MaxProd,Local Search,ArgmaxProd,Local Search Argmax,BS,KBT,MaxSearch
0.00000000000000000000004423307104690047,0.000000000000000000000051163024209778514,0.000000000000000000000051163024209778514,0.000000000000000000000051163024209778514,0.00000000000000000000005116302429216894,0.00000000000000000000004423307111828997,0.00000000000000000000004423307104690047
0.0000000000000000000000000025699361313470147,0.0000000000000000000000000029725655803162977,0.0000000000000000000000000029725655803162977,0.0000000000000000000000000029725655803162977,0.0000000000000000000000000018098225064944208,0.0000000000000000000000000025699361313470147,0.0000000000000000000000000025699361313470147
0.0000000000000000000009145398381710755,0.0000000000000000000009145398389454948,0.0000000000000000000019994763618550787,0.000000000000000000001999476363113028,0.000000000000000000001999476363113028,0.0000000000000000000009145398381945534,0.0000000000000000000009145398381710755
0.00000000000000000000000000015799048072195242,0.0000000000000000000000000001674253853810706,0.0000000000000000000000000001674253853810706,0.0000000000000000000000000001674253853810706,0.0000000000000000000000000001674253853810706,0.00000000000000000000000000015799048072195242,0.00000000000000000000000000015799048072195242
0.00000000000000000000000000000043812612713315,0.00000000000000000000000000000043812612713315,0.00000000000000000000000000158970400286855,0.00000000000000000000000000158970400286855,0.00000000000000000000000000158970400286855,0.00000000000000000000000000000043812612713315,0.00000000000000000000000000000043812612713315
0.00000000000000019367136470006347,0.00000000000000019367136470006347,0.0000000000000006261121988605579,0.0000000000000006261136903183927,0.0000000000000006261136903183927,0.00000000000000019367136470006347,0.00000000000000019367136470006347
0.00000000000000000000000000000000000012205667339679027,0.00000000000000000000000000000000000013005684508090238,0.00000000000000000000000000000000000013005684508090238,0.00000000000000000000000000000000000013005684508090238,0.00000000000000000000000000000000000013005684508090238,0.00000000000000000000000000000000000012205667339679027,0.00000000000000000000000000000000000012205667339679027
0.000000000000000000000000014454093632409317,0.000000000000000000000000014454093632409317,0.0000000000000000000000002693050784729485,0.0000000000000000000000002693050784732795,0.0000000000000000000000002693050784732795,0.000000000000000000000000014454093632409317,0.000000000000000000000000014454093632409317
0.00000000000000000000000000000000000000000001940056226123709,0.000000000000000000000000000000000000000000020237336881662678,0.000000000000000000000000000000000000000000020237336881662678,0.000000000000000000000000000000000000000000020237336881662678,0.000000000000000000000000000000000000000000020237336881662678,0.00000000000000000000000000000000000000000001940056226123709,0.00000000000000000000000000000000000000000001940056226123709
0.00000000000000000000000000000000000000003044658275504071,0.00000000000000000000000000000000000000003223451601181936,0.000000000000000000000000000000000000028562378113563055,0.000000000000000000000000000000000000028562378113563055,0.000000000000000000000000000000000000028562378113563055,0.00000000000000000000000000000000000000003044658275504071,0.00000000000000000000000000000000000000003044658275504071
0.00000000000000000000000000000000000005909624046069864,0.00000000000000000000000000000000000005909624046069864,0.0000000000000000000000000000000000004900201223460648,0.0000000000000000000000000000000000004900201223460648,0.0000000000000000000000000000000000004900201223460648,0.00000000000000000000000000000000000005909624046069864,0.00000000000000000000000000000000000005909624046069864
0.00000000000000000000000000000000000000000000005650406133794517,0.00000000000000000000000000000000000000000000005982218384310965,0.00000000000000000000000000000000000000000000005982218384310965,0.00000000000000000000000000000000000000000000005982218384310965,0.00000000000000000000000000000000000000000000005982218384310965,0.00000000000000000000000000000000000000000000005650406133794517,0.00000000000000000000000000000000000000000000005650406133794517
0.0000000000000000000000000000000000000002933995561229701,0.00000000000000000000000000000000000000029339955615110695,0.000000000000000000000000000000000000009965142003039572,0.000000000000000000000000000000000000009965142012690553,0.000000000000000000000000000000000000009965142012690553,0.00000000000000000000000000000000000000029339955611984165,0.0000000000000000000000000000000000000002933995561229701
0.0000000000000000000000000000000000000000000000000020396110304245145,0.0000000000000000000000000000000000000000000000000020396110304245145,0.0000000000000000000000000000000000000000000000004362600471894031,0.0000000000000000000000000000000000000000000000004362600471894031,0.00000000000000000000000000000000000000000000000001973385224635108,0.0000000000000000000000000000000000000000000000000020396110304245145,0.0000000000000000000000000000000000000000000000000020396110304245145
0.00000000000000000000000000000000000000005569004035599213,0.0000000000000000000000000000000000000000589603612026169,0.00000000000000000000000000000000000000005896036062068977,0.0000000000000000000000000000000000000000589603612026169,0.0000000000000000000000000000000000000000589603612026169,0.00000000000000000000000000000000000000005569004035749678,0.00000000000000000000000000000000000000005569004035599213
0.00000000000000000000000000015293845568939466,0.00000000000000000000000000015293863235518132,0.0000000000000000000000000633129909066546,0.0000000000000000000000000633129909066546,0.0000000000000000000000000633129909066546,0.000000000000000000000000000152938558137397,0.00000000000000000000000000015293845568939466
0.00000000000000000000000000000000000000000000000002050831962723182,0.00000000000000000000000000000000000000000000000002050831962723182,0.0000000000000000000000000000000000000000000000003913590964145144,0.0000000000000000000000000000000000000000000000003913592041985156,0.0000000000000000000000000000000000000000000000003913592041985156,0.00000000000000000000000000000000000000000000000002050831962723182,0.00000000000000000000000000000000000000000000000002050831962723182
0.0000000000000000000001931098524097088,0.00000000000000000000019588841143718674,0.00000000000000000000019588841143718674,0.00000000000000000000019588841143718674,0.00000000000000000000019588841143718674,0.0000000000000000000001931098524097088,0.0000000000000000000001931098524097088
0.000000000000000000000000000000000000018534257284859711,0.000000000000000000000000000000000000018534257284859711,0.00000000000000000000000000000000000002275934154428053,0.00000000000000000000000000000000000002275934154428053,0.00000000000000000000000000000000000002275934154428055,0.000000000000000000000000000000000000018534257284859508,0.000000000000000000000000000000000000018534257284859711
0.0000000000000000000000000000000018516637349258926,0.000000000000000000000000000000001853404059303444,0.000000000000000000000000000000001853404059303444,0.000000000000000000000000000000001853404059303444,0.0000000000000000000000000000000006513432858524322,0.0000000000000000000000000000000018516637349258926,0.0000000000000000000000000000000018516637349258926
0.00000000000000000000000000000000038510161705905033,0.00000000000000000000000000000000038510161705905033,0.00000000000000000000000000000004155769270959637,0.00000000000000000000000000000004155769270959637,0.00000000000000000000000000000004155769270959637,0.00000000000000000000000000000000038510159341723954,0.00000000000000000000000000000000038510161705905033
0.000000000000000000000000019928309430801482,0.000000000000000000000000022112233751985238,0.000000000000000000000000022112233751985238,0.000000000000000000000000022112233751985238,0.000000000000000000000000022112233751985238,0.000000000000000000000000019928309430801482,0.000000000000000000000000019928309430801482
0.0000000000000000000000000000027147809021985566,0.000000000000000000000000000002717331189565585,0.000000000000000000000000000002717331189565585,0.000000000000000000000000000002717331189565585,0.000000000000000000000000000002717331189565585,0.0000000000000000000000000000027147809021985566,0.0000000000000000000000000000027147809021985566
0.000000000000000000019314380593728985,0.000000000000000000019314380593728985,0.000000000000000000019989719518576486,0.000000000000000000019989719518576486,0.000000000000000000019989719518576486,0.000000000000000000019314380593728985,0.000000000000000000019314380593728985
0.000000000000000000000000000002299575635291767,0.0000000000000000000000000000023553536551114145,0.0000000000000000000000000000023553536551114145,0.0000000000000000000000000000023553536551114145,0.0000000000000000000000000000023553536551114145,0.000000000000000000000000000002299575635291767,0.000000000000000000000000000002299575635291767
0.000000000000000000000000000000038715757819745486,0.000000000000000000000000000000038715757819745486,0.0000000000000000000000000000004978094933806151,0.0000000000000000000000000000004978094933806151,0.0000000000000000000000000000004978094933806151,0.000000000000000000000000000000038715757819745486,0.000000000000000000000000000000038715757819745486
0.00000000000000000000000000000000000005406917798406912,0.00000000000000000000000000000000000005640126069770995,0.00000000000000000000000000000000000005640126069770995,0.00000000000000000000000000000000000005640126069770995,0.00000000000000000000000000000000000005640126069770995,0.00000000000000000000000000000000000005406917798354815,0.00000000000000000000000000000000000005406917798406912
0.0000000000000000000000000000000000000000023078155473046457,0.0000000000000000000000000000000000000000023637934326857945,0.0000000000000000000000000000000000000000023637934326857945,0.0000000000000000000000000000000000000000023637934326857945,0.0000000000000000000000000000000000000000023637934326857945,0.0000000000000000000000000000000000000000023078155473046457,0.0000000000000000000000000000000000000000023078155473046457
0.000000000000000000000000000002930319796094488,0.000000000000000000000000000002933072563230393,0.000000000000000000000000000002933072562211419,0.000000000000000000000000000002933072563230393,0.000000000000000000000000000002933072563230393,0.0000000000000000000000000000029303197981059424,0.000000000000000000000000000002930319796094488
0.00000000000000034601038379048676,0.00000000000000034601038379048676,0.00000000000000035810884480201956,0.00000000000000035810884480201956,0.00000000000000035810884480201956,0.00000000000000034601038379048676,0.00000000000000034601038379048676
