1628,4511,1432,2729,48292,5734,600068
497,3229,880,1475,40194,3325,600053
599,3244,480,2972,40921,3888,600072
676,3307,724,2106,44008,3867,600090
566,1664,484,1622,40479,3586,600037
411,1832,557,3220,43367,4182,600041
514,3348,486,1793,43798,4211,600050
445,1265,380,2473,42051,3221,600035
537,2393,560,821,39771,3062,600045
432,2592,440,984,40093,2804,600031
399,900,386,1058,39363,2831,600021
390,2216,456,1004,39377,2576,600035
382,2293,427,2049,40072,2749,600037
407,1022,542,922,39183,2405,600037
418,2106,509,2282,39363,2451,600059
377,1907,391,943,39040,2399,600023
429,1081,455,1859,39960,2433,600077
418,2176,515,1146,39454,2556,600041
594,919,475,849,38919,2397,600021
416,1913,401,974,40022,2301,600066
542,1049,556,1015,39632,2394,600082
351,1914,390,1081,39702,2586,600033
475,1782,490,1091,40201,2679,600026
329,1045,465,980,39372,2448,600034
414,1832,524,962,39233,2602,600058
408,1085,484,968,39513,2469,600065
400,1701,443,943,39605,2508,600024
359,1331,385,777,29247,2028,600027
329,1479,242,1481,23542,1944,600023
432,1320,458,949,39575,2364,600097
